{
    "Fails": [
        24.24, 
        36.84, 
        37.5, 
        47.06, 
        11.11, 
        11.11, 
        16.67, 
        44.44, 
        33.33, 
        57.14, 
        40.0, 
        33.33, 
        75.0, 
        75.0, 
        100.0
    ], 
    "numFail": [
        8, 
        7, 
        6, 
        8, 
        1, 
        1, 
        1, 
        4, 
        2, 
        4, 
        2, 
        1, 
        3, 
        3, 
        1
    ], 
    "numPass": [
        25, 
        12, 
        10, 
        9, 
        8, 
        8, 
        5, 
        5, 
        4, 
        3, 
        3, 
        2, 
        1, 
        1, 
        0
    ], 
    "Labels": [
        "637183", 
        "635083", 
        "633993", 
        "628696", 
        "634663", 
        "636479", 
        "634437", 
        "634705", 
        "146360", 
        "627542", 
        "7885", 
        "633872", 
        "636874", 
        "633956", 
        "636107"
    ], 
    "Quart": "2018_W18", 
    "topFixes": {
        "counts": [
            4, 
            3, 
            3, 
            3, 
            3
        ], 
        "labels": [
            "U 9", 
            "MEM-00171", 
            "FLASH", 
            "J4", 
            "U9"
        ]
    }, 
    "prod_labels": [
        "637183", 
        "635083", 
        "628696", 
        "634705", 
        "633956", 
        "633993", 
        "634663", 
        "636479", 
        "636874", 
        "146360", 
        "627542", 
        "634437", 
        "7885", 
        "633872", 
        "636107"
    ], 
    "failsWithTest": {
        "ess": [
            [
                0, 
                6, 
                0, 
                0, 
                0
            ], 
            [
                "", 
                "U 50,U 9", 
                "", 
                "", 
                ""
            ]
        ], 
        "fst": [
            [
                0, 
                0, 
                0, 
                0, 
                0
            ], 
            [
                "", 
                "", 
                "", 
                "", 
                ""
            ]
        ], 
        "fvt-configure": [
            [
                0, 
                0, 
                3, 
                0, 
                2
            ], 
            [
                "", 
                "", 
                "U26,ROOK,L27", 
                "", 
                "C8,PCA-00708-02"
            ]
        ], 
        "burnin": [
            [
                0, 
                0, 
                0, 
                0, 
                0
            ], 
            [
                "", 
                "", 
                "", 
                "", 
                ""
            ]
        ], 
        "fvt": [
            [
                0, 
                0, 
                0, 
                0, 
                0
            ], 
            [
                "", 
                "", 
                "", 
                "", 
                ""
            ]
        ], 
        "fvt-interactive": [
            [
                9, 
                0, 
                0, 
                3, 
                0
            ], 
            [
                "D16,FRONT LIGHT PIPE,J9,D12,D96,D97,D70,D174,D175,D9,D60", 
                "", 
                "", 
                "D35,D12,D56", 
                ""
            ]
        ]
    }, 
    "table": "<br><table style=\"border: 1px solid black ;border-collapse:collapse;font-size: small;\">\n\t\t\t\t\t\t<tr style=\"background-color: #CFCFA3;\">\n\t\t\t\t\t\t\t<th style=\"border: 1px solid black ;\">Serial Number</th>\n\t\t\t\t\t\t\t<th style=\"border: 1px solid black ;\">Part Number</th>\n\t\t\t\t\t\t\t<th style=\"border: 1px solid black ;\">Tech</th>\n\t\t\t\t\t\t\t<th style=\"border: 1px solid black ;\">Fail Text</th>\n\t\t\t\t\t\t\t<th style=\"border: 1px solid black ;\">Debug Time</th>\n\t\t\t\t\t\t\t<th style=\"border: 1px solid black ;\">Failed Test</th>\n\t\t\t\t\t\t\t<th style=\"border: 1px solid black ;\">Fix</th>\n\t\t\t\t\t\t\t<th style=\"border: 1px solid black ;\">Pass/Fail</th>\n\t\t\t\t\t\t</tr><tr style=\"background-color: #FFFFDB;\"><td style=\"border: 1px solid black ;\">SSJ17374709</td>\n<td style=\"border: 1px solid black ;\">LFARISASY-52543-207/A0</td>\n<td style=\"border: 1px solid black ;\">7885</td>\n<td style=\"border: 1px solid black ;\">/linecards/8/detectDramVendor</td>\n<td style=\"border: 1px solid black ;\">2018-04-30 09:53:12-05</td>\n<td style=\"border: 1px solid black ;\">fvt</td>\n<td style=\"border: 1px solid black ;\">U83,U137</td>\n<td style=\"border: 1px solid black ;\">FAIL</td></tr>\n<tr style=\"background-color: #CFCFA3;\"><td style=\"border: 1px solid black ;\">SSJ17390132</td>\n<td style=\"border: 1px solid black ;\">LFARISASY-91900-205/A0</td>\n<td style=\"border: 1px solid black ;\">633993</td>\n<td style=\"border: 1px solid black ;\">logger.info( 'Allow new temperature to soak for 5 minutes.' )</td>\n<td style=\"border: 1px solid black ;\">2018-04-30 09:55:29-05</td>\n<td style=\"border: 1px solid black ;\">ess</td>\n<td style=\"border: 1px solid black ;\">PCA-00704-04</td>\n<td style=\"border: 1px solid black ;\">FAIL</td></tr>\n<tr style=\"background-color: #FFFFDB;\"><td style=\"border: 1px solid black ;\">SSJ17360002</td>\n<td style=\"border: 1px solid black ;\">LFARISASY-52543-207/A0</td>\n<td style=\"border: 1px solid black ;\">7885</td>\n<td style=\"border: 1px solid black ;\">/linecards/5/testPrbs -l None -d 300 --mode Prbs31 --allow --fabric --continuous --belk --sflow</td>\n<td style=\"border: 1px solid black ;\">2018-04-30 11:39:59-05</td>\n<td style=\"border: 1px solid black ;\">burnin</td>\n<td style=\"border: 1px solid black ;\">U100,U71,LB9,LB36</td>\n<td style=\"border: 1px solid black ;\">FAIL</td></tr>\n<tr style=\"background-color: #CFCFA3;\"><td style=\"border: 1px solid black ;\">SSJ18115727</td>\n<td style=\"border: 1px solid black ;\">LFARISASY-90889-110/F0</td>\n<td style=\"border: 1px solid black ;\">634437</td>\n<td style=\"border: 1px solid black ;\">/switchCard/trafficTestSc --pkts 1G:60,10G:60,40G:120 --patt rand --pktSize 64 --loopback none --duration 60 --eyescan 1 --speed</td>\n<td style=\"border: 1px solid black ;\">2018-04-30 16:08:03+00</td>\n<td style=\"border: 1px solid black ;\">fvt</td>\n<td style=\"border: 1px solid black ;\">J11,J11</td>\n<td style=\"border: 1px solid black ;\">FAIL</td></tr>\n<tr style=\"background-color: #FFFFDB;\"><td style=\"border: 1px solid black ;\">SSJ18061656</td>\n<td style=\"border: 1px solid black ;\">LFARISASY-52527-204/B0</td>\n<td style=\"border: 1px solid black ;\">633872</td>\n<td style=\"border: 1px solid black ;\">/fabriccards/4/testPrbs --duration 1800 --continuous True, /fabriccards/4/testPrbs --duration 300 --continuous True</td>\n<td style=\"border: 1px solid black ;\">2018-04-30 16:38:28-05</td>\n<td style=\"border: 1px solid black ;\">ess</td>\n<td style=\"border: 1px solid black ;\">J3,U13</td>\n<td style=\"border: 1px solid black ;\">PASS</td></tr>\n<tr style=\"background-color: #CFCFA3;\"><td style=\"border: 1px solid black ;\">SSJ17449078</td>\n<td style=\"border: 1px solid black ;\">LFARISASY-71951-203/C0</td>\n<td style=\"border: 1px solid black ;\">636479</td>\n<td style=\"border: 1px solid black ;\">//testTraffic -l None -d 60 -s 64 --allow --no-ocb, //testTraffic -l None -d 60 -s 9208 --allow --no-ocb, //testTraffic -l None -d 300 -s 6</td>\n<td style=\"border: 1px solid black ;\">2018-04-30 17:04:05+00</td>\n<td style=\"border: 1px solid black ;\">ess</td>\n<td style=\"border: 1px solid black ;\">U 149,U 110</td>\n<td style=\"border: 1px solid black ;\">FAIL</td></tr>\n<tr style=\"background-color: #FFFFDB;\"><td style=\"border: 1px solid black ;\">SSJ17330676</td>\n<td style=\"border: 1px solid black ;\">LFARISASY-52544-207/A0</td>\n<td style=\"border: 1px solid black ;\">7885</td>\n<td style=\"border: 1px solid black ;\">/linecards/4/init2</td>\n<td style=\"border: 1px solid black ;\">2018-04-30 20:25:22+00</td>\n<td style=\"border: 1px solid black ;\">fvt-configure</td>\n<td style=\"border: 1px solid black ;\">U11,J4</td>\n<td style=\"border: 1px solid black ;\">PASS</td></tr>\n<tr style=\"background-color: #CFCFA3;\"><td style=\"border: 1px solid black ;\">SSJ18160649</td>\n<td style=\"border: 1px solid black ;\">LFARISASY-90889-210/F0</td>\n<td style=\"border: 1px solid black ;\">634705</td>\n<td style=\"border: 1px solid black ;\">FAIL: //testInteractive</td>\n<td style=\"border: 1px solid black ;\">2018-04-30 20:35:57+00</td>\n<td style=\"border: 1px solid black ;\">fvt-interactive</td>\n<td style=\"border: 1px solid black ;\">D96,D97</td>\n<td style=\"border: 1px solid black ;\">PASS</td></tr>\n<tr style=\"background-color: #FFFFDB;\"><td style=\"border: 1px solid black ;\">SSJ17510057</td>\n<td style=\"border: 1px solid black ;\">LFARISASY-52527-204/B0</td>\n<td style=\"border: 1px solid black ;\">633872</td>\n<td style=\"border: 1px solid black ;\">/fabriccards/6/testPrbs --duration 300 --continuous False</td>\n<td style=\"border: 1px solid black ;\">2018-04-30 21:41:32+00</td>\n<td style=\"border: 1px solid black ;\">fvt</td>\n<td style=\"border: 1px solid black ;\">J12</td>\n<td style=\"border: 1px solid black ;\">PASS</td></tr>\n<tr style=\"background-color: #CFCFA3;\"><td style=\"border: 1px solid black ;\">SSJ18061594</td>\n<td style=\"border: 1px solid black ;\">LFARISASY-52527-104/B1</td>\n<td style=\"border: 1px solid black ;\">633872</td>\n<td style=\"border: 1px solid black ;\">/fabriccards/5/testPrbs --duration 1800 --continuous True, /fabriccards/5/testPrbs --duration 300 --continuous True, /fabriccards/5/testPrb</td>\n<td style=\"border: 1px solid black ;\">2018-04-30 21:43:11+00</td>\n<td style=\"border: 1px solid black ;\">ess</td>\n<td style=\"border: 1px solid black ;\">J1,U48</td>\n<td style=\"border: 1px solid black ;\">FAIL</td></tr>\n<tr style=\"background-color: #FFFFDB;\"><td style=\"border: 1px solid black ;\">SSJ17510479</td>\n<td style=\"border: 1px solid black ;\">LFARISASY-90528-208/A0</td>\n<td style=\"border: 1px solid black ;\">627542</td>\n<td style=\"border: 1px solid black ;\">==================== Exception raised in 'python /usr/bin/fvt-configure-bodega --useDb --arss 10.255.253.42 dut20 --pca PCA0018406A0 --sn SSJ17510479 --kvn 111 --sku DCS-7150S-64-CL --mac 28:99:3a:fb:b5:41 --asy ASY0051806A0 --logDir /log/DCS-7150S-64-CL/1751/SSJ17510479/fvt-configure/configure-9 --runId 1599098 --cpuPca PCA0011903A0 --cpuSn SSJ17510399 --deviation  --cpuDeviation  ' (PID 30634) ====================</td>\n<td style=\"border: 1px solid black ;\">2018-04-30 22:36:58+00</td>\n<td style=\"border: 1px solid black ;\">fvt-configure</td>\n<td style=\"border: 1px solid black ;\">REPLACED CPU CARD</td>\n<td style=\"border: 1px solid black ;\">PASS</td></tr>\n<tr style=\"background-color: #CFCFA3;\"><td style=\"border: 1px solid black ;\">SSJ18155036</td>\n<td style=\"border: 1px solid black ;\">LFARISASY-51808-220/A0</td>\n<td style=\"border: 1px solid black ;\">628696</td>\n<td style=\"border: 1px solid black ;\">/fabriccards/4/switchFvtTest --cards None --intervals 2 --verbose False --duration 600 --cores None --eyeScan True</td>\n<td style=\"border: 1px solid black ;\">2018-04-30 23:49:53+00</td>\n<td style=\"border: 1px solid black ;\">ess</td>\n<td style=\"border: 1px solid black ;\">COMPOUND</td>\n<td style=\"border: 1px solid black ;\">FAIL</td></tr>\n<tr style=\"background-color: #FFFFDB;\"><td style=\"border: 1px solid black ;\">SSJ18122219</td>\n<td style=\"border: 1px solid black ;\">LFARISASY-71947-204/C0</td>\n<td style=\"border: 1px solid black ;\">628696</td>\n<td style=\"border: 1px solid black ;\">//testTraffic -l None -d 600 --cells-to-fabric -s 9216 --ppm 300000 --allow --belk --force-init, //testTraffic -l None -d 600 --cells-to-fa</td>\n<td style=\"border: 1px solid black ;\">2018-05-01 00:04:34+00</td>\n<td style=\"border: 1px solid black ;\">ess</td>\n<td style=\"border: 1px solid black ;\">C4500</td>\n<td style=\"border: 1px solid black ;\">FAIL</td></tr>\n<tr style=\"background-color: #CFCFA3;\"><td style=\"border: 1px solid black ;\">SSJ18160008</td>\n<td style=\"border: 1px solid black ;\">LFARISASY-91907-203/E0</td>\n<td style=\"border: 1px solid black ;\">146360</td>\n<td style=\"border: 1px solid black ;\">FAIL:             GPI Fault                  0\t21:21:18.867000</td>\n<td style=\"border: 1px solid black ;\">2018-05-01 00:05:44+00</td>\n<td style=\"border: 1px solid black ;\">fvt-interactive</td>\n<td style=\"border: 1px solid black ;\">D12</td>\n<td style=\"border: 1px solid black ;\">PASS</td></tr>\n<tr style=\"background-color: #FFFFDB;\"><td style=\"border: 1px solid black ;\">SSJ18115567</td>\n<td style=\"border: 1px solid black ;\">LFARISASY-91907-203/E0</td>\n<td style=\"border: 1px solid black ;\">146360</td>\n<td style=\"border: 1px solid black ;\">TestSetupFailure: Could not find the usb key. Is it inserted?</td>\n<td style=\"border: 1px solid black ;\">2018-05-01 00:16:58+00</td>\n<td style=\"border: 1px solid black ;\">fvt-configure</td>\n<td style=\"border: 1px solid black ;\">C8,L2</td>\n<td style=\"border: 1px solid black ;\">PASS</td></tr>\n<tr style=\"background-color: #CFCFA3;\"><td style=\"border: 1px solid black ;\">SSJ18160031</td>\n<td style=\"border: 1px solid black ;\">LFARISASY-91907-203/E0</td>\n<td style=\"border: 1px solid black ;\">146360</td>\n<td style=\"border: 1px solid black ;\">FAIL:             GPI Fault                  0\t0:22:29.514000</td>\n<td style=\"border: 1px solid black ;\">2018-05-01 01:30:12+00</td>\n<td style=\"border: 1px solid black ;\">fvt-interactive</td>\n<td style=\"border: 1px solid black ;\">D35</td>\n<td style=\"border: 1px solid black ;\">PASS</td></tr>\n<tr style=\"background-color: #FFFFDB;\"><td style=\"border: 1px solid black ;\">SSJ17463475</td>\n<td style=\"border: 1px solid black ;\">LFARISASY-91923-204/C0</td>\n<td style=\"border: 1px solid black ;\">637183</td>\n<td style=\"border: 1px solid black ;\">/switchCard/fpgas/0/testRefClkFreq --clks=clk1,clk2,clk3,clk4</td>\n<td style=\"border: 1px solid black ;\">2018-05-01 01:35:43+00</td>\n<td style=\"border: 1px solid black ;\">burnin</td>\n<td style=\"border: 1px solid black ;\">U96</td>\n<td style=\"border: 1px solid black ;\">PASS</td></tr>\n<tr style=\"background-color: #CFCFA3;\"><td style=\"border: 1px solid black ;\">SSJ18080477</td>\n<td style=\"border: 1px solid black ;\">LFARISASY-91923-204/E1</td>\n<td style=\"border: 1px solid black ;\">637183</td>\n<td style=\"border: 1px solid black ;\">==================== Exception raised in 'python /usr/bin/fvt-configure-losangeles --useDb --arss 10.90.216.38 dut21 --sn SSJ18080477 --kvn 111 --sku DCS-7260CX3-64 --mac 74:83:ef:6a:17:fa --asy ASY0250504E0 --logDir /log/DCS-7260CX3-64/1808/SSJ18080477/fvt-configure/configure-4 --runId 1595435 --deviation D0004141 ' (PID 1223) ====================</td>\n<td style=\"border: 1px solid black ;\">2018-05-01 01:52:57+00</td>\n<td style=\"border: 1px solid black ;\">fvt-configure</td>\n<td style=\"border: 1px solid black ;\">FLASH</td>\n<td style=\"border: 1px solid black ;\">PASS</td></tr>\n<tr style=\"background-color: #FFFFDB;\"><td style=\"border: 1px solid black ;\">SSJ17379045</td>\n<td style=\"border: 1px solid black ;\">LFARISASY-71943-201/B0</td>\n<td style=\"border: 1px solid black ;\">635083</td>\n<td style=\"border: 1px solid black ;\">TestSetupFailure: Unable to locate SSD. Expecting a 120000GB drive.</td>\n<td style=\"border: 1px solid black ;\">2018-05-01 03:26:27+00</td>\n<td style=\"border: 1px solid black ;\">fvt-configure</td>\n<td style=\"border: 1px solid black ;\">J1 -LOWER</td>\n<td style=\"border: 1px solid black ;\">PASS</td></tr>\n<tr style=\"background-color: #CFCFA3;\"><td style=\"border: 1px solid black ;\">SSJ18112874</td>\n<td style=\"border: 1px solid black ;\">LFARISASY-91923-104/E1</td>\n<td style=\"border: 1px solid black ;\">637183</td>\n<td style=\"border: 1px solid black ;\">ScriptBugFailureErrorCode = 87\nScriptBugFailure:</td>\n<td style=\"border: 1px solid black ;\">2018-05-01 03:27:35+00</td>\n<td style=\"border: 1px solid black ;\">fvt-configure</td>\n<td style=\"border: 1px solid black ;\">ROOK</td>\n<td style=\"border: 1px solid black ;\">FAIL</td></tr>\n<tr style=\"background-color: #FFFFDB;\"><td style=\"border: 1px solid black ;\">SSJ18093390</td>\n<td style=\"border: 1px solid black ;\">LFARISASY-91923-204/E1</td>\n<td style=\"border: 1px solid black ;\">637183</td>\n<td style=\"border: 1px solid black ;\">TestSetupFailure: Could not obtain a root login to the dut</td>\n<td style=\"border: 1px solid black ;\">2018-05-01 04:29:17+00</td>\n<td style=\"border: 1px solid black ;\">burnin</td>\n<td style=\"border: 1px solid black ;\">FLASH</td>\n<td style=\"border: 1px solid black ;\">PASS</td></tr>\n<tr style=\"background-color: #CFCFA3;\"><td style=\"border: 1px solid black ;\">SSJ18109028</td>\n<td style=\"border: 1px solid black ;\">LFARISASY-91936-203/C0</td>\n<td style=\"border: 1px solid black ;\">635083</td>\n<td style=\"border: 1px solid black ;\">//testFeAndFapDco --may-update-prefdl-disabled-lanes, /switchCardLower/faps/4/testKapsBist, /switchCardLower/faps/4/testArmCoreBcmAccel, //</td>\n<td style=\"border: 1px solid black ;\">2018-05-01 05:04:30+00</td>\n<td style=\"border: 1px solid black ;\">fvt</td>\n<td style=\"border: 1px solid black ;\">U129 - LOWER</td>\n<td style=\"border: 1px solid black ;\">FAIL</td></tr>\n<tr style=\"background-color: #FFFFDB;\"><td style=\"border: 1px solid black ;\">SSJ18116648</td>\n<td style=\"border: 1px solid black ;\">LFARISASY-91923-204/E1</td>\n<td style=\"border: 1px solid black ;\">637183</td>\n<td style=\"border: 1px solid black ;\">==================== Exception raised in 'python /usr/bin/fvt-configure-losangeles --useDb --arss 10.90.216.31 dut9 --sn SSJ18116648 --kvn 111 --sku DCS-7260CX3-64 --mac 74:83:ef:86:ed:03 --asy ASY0250504E0 --logDir /log/DCS-7260CX3-64/1811/SSJ18116648/fvt-configure/configure-3 --runId 1595656 --deviation  ' (PID 13244) ====================</td>\n<td style=\"border: 1px solid black ;\">2018-05-01 05:31:46+00</td>\n<td style=\"border: 1px solid black ;\">fvt-configure</td>\n<td style=\"border: 1px solid black ;\">PCA-00964-02</td>\n<td style=\"border: 1px solid black ;\">PASS</td></tr>\n<tr style=\"background-color: #CFCFA3;\"><td style=\"border: 1px solid black ;\">SSJ17463670</td>\n<td style=\"border: 1px solid black ;\">LFARISASY-91923-204/C0</td>\n<td style=\"border: 1px solid black ;\">637183</td>\n<td style=\"border: 1px solid black ;\">//testTraffic -l None -s 245 -d 300 -n auto --speed 100G --ppm 400000</td>\n<td style=\"border: 1px solid black ;\">2018-05-01 05:36:41+00</td>\n<td style=\"border: 1px solid black ;\">fvt</td>\n<td style=\"border: 1px solid black ;\">J20,J11,J20</td>\n<td style=\"border: 1px solid black ;\">FAIL</td></tr>\n<tr style=\"background-color: #FFFFDB;\"><td style=\"border: 1px solid black ;\">SSJ17390132</td>\n<td style=\"border: 1px solid black ;\">LFARISASY-91900-205/A0</td>\n<td style=\"border: 1px solid black ;\">633993</td>\n<td style=\"border: 1px solid black ;\">//power set voltage low</td>\n<td style=\"border: 1px solid black ;\">2018-05-01 12:06:32-05</td>\n<td style=\"border: 1px solid black ;\">fvt</td>\n<td style=\"border: 1px solid black ;\">U5</td>\n<td style=\"border: 1px solid black ;\">PASS</td></tr>\n<tr style=\"background-color: #CFCFA3;\"><td style=\"border: 1px solid black ;\">SSJ18160512</td>\n<td style=\"border: 1px solid black ;\">LFARISASY-90889-210/F0</td>\n<td style=\"border: 1px solid black ;\">633993</td>\n<td style=\"border: 1px solid black ;\">/switchCard/trafficTestSc --pkts 2 --patt mixed --pktSize 9216 --loopback none --duration 360 --eyescan 1 --speed 100M --monitor</td>\n<td style=\"border: 1px solid black ;\">2018-05-01 13:31:47+00</td>\n<td style=\"border: 1px solid black ;\">burnin</td>\n<td style=\"border: 1px solid black ;\">MEM-00171</td>\n<td style=\"border: 1px solid black ;\">PASS</td></tr>\n<tr style=\"background-color: #FFFFDB;\"><td style=\"border: 1px solid black ;\">SSJ18179159</td>\n<td style=\"border: 1px solid black ;\">LFARISASY-91936-203/C0</td>\n<td style=\"border: 1px solid black ;\">636479</td>\n<td style=\"border: 1px solid black ;\">TestSetupFailure: Internal Flash Should be 4 GB</td>\n<td style=\"border: 1px solid black ;\">2018-05-01 14:36:12+00</td>\n<td style=\"border: 1px solid black ;\">fvt-configure</td>\n<td style=\"border: 1px solid black ;\">FLASH CHIP,FLASH CHIP</td>\n<td style=\"border: 1px solid black ;\">PASS</td></tr>\n<tr style=\"background-color: #CFCFA3;\"><td style=\"border: 1px solid black ;\">SSJ18161217</td>\n<td style=\"border: 1px solid black ;\">LFARISASY-51704-211/A0</td>\n<td style=\"border: 1px solid black ;\">634663</td>\n<td style=\"border: 1px solid black ;\">/linecards/6/scdFvtTest, /linecards/6/fvtTest --verbose 0, /linecards/6/scdFvtTest, /linecards/6/fvtTest --verbose 0</td>\n<td style=\"border: 1px solid black ;\">2018-05-01 15:51:38+00</td>\n<td style=\"border: 1px solid black ;\">ess</td>\n<td style=\"border: 1px solid black ;\">U12,U12</td>\n<td style=\"border: 1px solid black ;\">PASS</td></tr>\n<tr style=\"background-color: #FFFFDB;\"><td style=\"border: 1px solid black ;\">SSJ18160551</td>\n<td style=\"border: 1px solid black ;\">LFARISASY-90889-210/F0</td>\n<td style=\"border: 1px solid black ;\">634437</td>\n<td style=\"border: 1px solid black ;\">FAIL: //testInteractive</td>\n<td style=\"border: 1px solid black ;\">2018-05-01 15:53:44+00</td>\n<td style=\"border: 1px solid black ;\">fvt-interactive</td>\n<td style=\"border: 1px solid black ;\">J9,J9</td>\n<td style=\"border: 1px solid black ;\">PASS</td></tr>\n<tr style=\"background-color: #CFCFA3;\"><td style=\"border: 1px solid black ;\">SSJ18140959</td>\n<td style=\"border: 1px solid black ;\">LFARISASY-51704-211/A0</td>\n<td style=\"border: 1px solid black ;\">634663</td>\n<td style=\"border: 1px solid black ;\">##! INVALID SETUP: Reported by test /linecards/6/testLinkUp --duration 30 --prbsTest True --fanPwm 100 ==></td>\n<td style=\"border: 1px solid black ;\">2018-05-01 16:03:51+00</td>\n<td style=\"border: 1px solid black ;\">fvt</td>\n<td style=\"border: 1px solid black ;\">J4</td>\n<td style=\"border: 1px solid black ;\">PASS</td></tr>\n<tr style=\"background-color: #FFFFDB;\"><td style=\"border: 1px solid black ;\">SSJ18116867</td>\n<td style=\"border: 1px solid black ;\">LFARISASY-91674-206/B0</td>\n<td style=\"border: 1px solid black ;\">634705</td>\n<td style=\"border: 1px solid black ;\">//testVoltageMargining --verbose, /switchCard/prbsTestFull --portMode portMode25G, /switchCard/verifyVoltage --margin high</td>\n<td style=\"border: 1px solid black ;\">2018-05-01 16:23:47+00</td>\n<td style=\"border: 1px solid black ;\">ess</td>\n<td style=\"border: 1px solid black ;\">J19</td>\n<td style=\"border: 1px solid black ;\">FAIL</td></tr>\n<tr style=\"background-color: #CFCFA3;\"><td style=\"border: 1px solid black ;\">SSJ18163946</td>\n<td style=\"border: 1px solid black ;\">LFARISASY-90900-210/G0</td>\n<td style=\"border: 1px solid black ;\">634705</td>\n<td style=\"border: 1px solid black ;\">##! INVALID SETUP: Reported by test /switchCard/testAllVgaDfe ==> Possible bad contact on ports: 33/2</td>\n<td style=\"border: 1px solid black ;\">2018-05-01 17:35:03+00</td>\n<td style=\"border: 1px solid black ;\">burnin</td>\n<td style=\"border: 1px solid black ;\">J22</td>\n<td style=\"border: 1px solid black ;\">FAIL</td></tr>\n<tr style=\"background-color: #FFFFDB;\"><td style=\"border: 1px solid black ;\">SSJ18154977</td>\n<td style=\"border: 1px solid black ;\">LFARISASY-51808-220/A0</td>\n<td style=\"border: 1px solid black ;\">628696</td>\n<td style=\"border: 1px solid black ;\">/fabriccards/2/testVoltageMargining --verbose True, /fabriccards/2/fvtTest --testFanSpeed True --verbose False</td>\n<td style=\"border: 1px solid black ;\">2018-05-01 18:09:33-05</td>\n<td style=\"border: 1px solid black ;\">fvt</td>\n<td style=\"border: 1px solid black ;\">RESISTOR</td>\n<td style=\"border: 1px solid black ;\">PASS</td></tr>\n<tr style=\"background-color: #CFCFA3;\"><td style=\"border: 1px solid black ;\">SSJ17353307</td>\n<td style=\"border: 1px solid black ;\">LFARISASY-91910-204/A0</td>\n<td style=\"border: 1px solid black ;\">636874</td>\n<td style=\"border: 1px solid black ;\">/switchCard/init3</td>\n<td style=\"border: 1px solid black ;\">2018-05-01 21:18:22-05</td>\n<td style=\"border: 1px solid black ;\">fvt</td>\n<td style=\"border: 1px solid black ;\">C663</td>\n<td style=\"border: 1px solid black ;\">FAIL</td></tr>\n<tr style=\"background-color: #FFFFDB;\"><td style=\"border: 1px solid black ;\">SSJ18116861</td>\n<td style=\"border: 1px solid black ;\">LFARISASY-91674-206/B0</td>\n<td style=\"border: 1px solid black ;\">627542</td>\n<td style=\"border: 1px solid black ;\">==================== Exception raised in 'python /usr/bin/fvt-configure-fixed --useDb --arss 10.90.216.36 dut1 --pca PCA0060606A0 --sn SSJ18116861 --kvn 111 --sku DCS-7160-32CQ --mac 44:4c:a8:fd:5b:08 --asy ASY0167306A0 --logDir /log/DCS-7160-32CQ/1811/SSJ18116861/fvt-configure/configure-5 --runId 1590516 --cpuPca PCA0082202A0 --cpuSn SSJ17503489 --deviation  --cpuDeviation  ' (PID 26890) ====================</td>\n<td style=\"border: 1px solid black ;\">2018-05-01 21:33:13-05</td>\n<td style=\"border: 1px solid black ;\">fvt-configure</td>\n<td style=\"border: 1px solid black ;\">REPLACED CPU</td>\n<td style=\"border: 1px solid black ;\">FAIL</td></tr>\n<tr style=\"background-color: #CFCFA3;\"><td style=\"border: 1px solid black ;\">SSJ18163373</td>\n<td style=\"border: 1px solid black ;\">LFARISASY-71947-204/C0</td>\n<td style=\"border: 1px solid black ;\">146360</td>\n<td style=\"border: 1px solid black ;\">TestSetupFailure: Powering up the board for the first time failed. Unable to connect. Check console/power connections as well as console connector card. If these are good, check CPU/memory.</td>\n<td style=\"border: 1px solid black ;\">2018-05-01 21:57:22+00</td>\n<td style=\"border: 1px solid black ;\">fvt-configure</td>\n<td style=\"border: 1px solid black ;\">C8</td>\n<td style=\"border: 1px solid black ;\">PASS</td></tr>\n<tr style=\"background-color: #FFFFDB;\"><td style=\"border: 1px solid black ;\">SSJ18116967</td>\n<td style=\"border: 1px solid black ;\">LFARISASY-91674-206/B0</td>\n<td style=\"border: 1px solid black ;\">627542</td>\n<td style=\"border: 1px solid black ;\">==================== Exception raised in 'python /usr/bin/fvt-configure-fixed --useDb --arss 10.255.253.45 dut22 --pca PCA0060606A0 --sn SSJ18116967 --kvn 111 --sku DCS-7160-32CQ --mac 44:4c:a8:fd:4a:48 --asy ASY0167306A0 --logDir /log/DCS-7160-32CQ/1811/SSJ18116967/fvt-configure/configure-2 --runId 1576372 --cpuPca PCA0082202A0 --cpuSn SSJ18070804 --deviation  --cpuDeviation  ' (PID 29824) ====================</td>\n<td style=\"border: 1px solid black ;\">2018-05-01 21:58:28-05</td>\n<td style=\"border: 1px solid black ;\">fvt-configure</td>\n<td style=\"border: 1px solid black ;\">REPLACED J3</td>\n<td style=\"border: 1px solid black ;\">PASS</td></tr>\n<tr style=\"background-color: #CFCFA3;\"><td style=\"border: 1px solid black ;\">SSJ17049131</td>\n<td style=\"border: 1px solid black ;\">LFARISASY-90875-208/D0R</td>\n<td style=\"border: 1px solid black ;\">635083</td>\n<td style=\"border: 1px solid black ;\">TestSetupFailure: Test failied while running dsh -c \"init2;//testFanSpeed;exit()\"</td>\n<td style=\"border: 1px solid black ;\">2018-05-01 22:33:42+00</td>\n<td style=\"border: 1px solid black ;\">fst</td>\n<td style=\"border: 1px solid black ;\">CPU FAN1</td>\n<td style=\"border: 1px solid black ;\">PASS</td></tr>\n<tr style=\"background-color: #FFFFDB;\"><td style=\"border: 1px solid black ;\">SSJ18155415</td>\n<td style=\"border: 1px solid black ;\">LFARISASY-51808-220/A0</td>\n<td style=\"border: 1px solid black ;\">628696</td>\n<td style=\"border: 1px solid black ;\">FAIL: /fabriccards/1/rearLeds/testCountOffLeds</td>\n<td style=\"border: 1px solid black ;\">2018-05-01 22:36:31+00</td>\n<td style=\"border: 1px solid black ;\">fvt-interactive</td>\n<td style=\"border: 1px solid black ;\">R495 R496</td>\n<td style=\"border: 1px solid black ;\">PASS</td></tr>\n<tr style=\"background-color: #CFCFA3;\"><td style=\"border: 1px solid black ;\">SSJ18154908</td>\n<td style=\"border: 1px solid black ;\">LFARISASY-51808-220/A0</td>\n<td style=\"border: 1px solid black ;\">628696</td>\n<td style=\"border: 1px solid black ;\">FAIL: /fabriccards/4/cardEjector/testEjector --timeout 180</td>\n<td style=\"border: 1px solid black ;\">2018-05-01 22:45:36+00</td>\n<td style=\"border: 1px solid black ;\">fvt-interactive</td>\n<td style=\"border: 1px solid black ;\">CHASSIS</td>\n<td style=\"border: 1px solid black ;\">FAIL</td></tr>\n<tr style=\"background-color: #FFFFDB;\"><td style=\"border: 1px solid black ;\">SSJ18114739</td>\n<td style=\"border: 1px solid black ;\">LFARISASY-91911-104/B0</td>\n<td style=\"border: 1px solid black ;\">636874</td>\n<td style=\"border: 1px solid black ;\">##! INVALID SETUP: Reported by test /switchCard/testLinkUp ==> Link down on the following front-panel ports : 29,30. Check the loopback modules/cables inserted.</td>\n<td style=\"border: 1px solid black ;\">2018-05-01 22:48:02+00</td>\n<td style=\"border: 1px solid black ;\">fvt</td>\n<td style=\"border: 1px solid black ;\">U41</td>\n<td style=\"border: 1px solid black ;\">FAIL</td></tr>\n<tr style=\"background-color: #CFCFA3;\"><td style=\"border: 1px solid black ;\">SSJ18116623</td>\n<td style=\"border: 1px solid black ;\">LFARISASY-91923-104/E1</td>\n<td style=\"border: 1px solid black ;\">637183</td>\n<td style=\"border: 1px solid black ;\">/switchCard/sol/testAuthN</td>\n<td style=\"border: 1px solid black ;\">2018-05-02 00:12:46-05</td>\n<td style=\"border: 1px solid black ;\">burnin</td>\n<td style=\"border: 1px solid black ;\">U37</td>\n<td style=\"border: 1px solid black ;\">FAIL</td></tr>\n<tr style=\"background-color: #FFFFDB;\"><td style=\"border: 1px solid black ;\">SSJ17409106</td>\n<td style=\"border: 1px solid black ;\">LFARISASY-91878-204/A0</td>\n<td style=\"border: 1px solid black ;\">635083</td>\n<td style=\"border: 1px solid black ;\">//testTraffic -l None -d 300 -s 64 --allow --cells --no-ocb, //testTraffic -l None -d 60 -s 9208 --allow --cells --no-ocb, //testTraffic -l</td>\n<td style=\"border: 1px solid black ;\">2018-05-02 00:24:36+00</td>\n<td style=\"border: 1px solid black ;\">ess</td>\n<td style=\"border: 1px solid black ;\">U15</td>\n<td style=\"border: 1px solid black ;\">FAIL</td></tr>\n<tr style=\"background-color: #CFCFA3;\"><td style=\"border: 1px solid black ;\">SSJ18114309</td>\n<td style=\"border: 1px solid black ;\">LFARISASY-91923-204/E1</td>\n<td style=\"border: 1px solid black ;\">637183</td>\n<td style=\"border: 1px solid black ;\">ScriptBugFailureErrorCode = 87\nScriptBugFailure:</td>\n<td style=\"border: 1px solid black ;\">2018-05-02 00:35:59+00</td>\n<td style=\"border: 1px solid black ;\">fvt-configure</td>\n<td style=\"border: 1px solid black ;\">ROOK</td>\n<td style=\"border: 1px solid black ;\">PASS</td></tr>\n<tr style=\"background-color: #FFFFDB;\"><td style=\"border: 1px solid black ;\">SSJ17420401</td>\n<td style=\"border: 1px solid black ;\">LFARISASY-90528-208/A0</td>\n<td style=\"border: 1px solid black ;\">627542</td>\n<td style=\"border: 1px solid black ;\">PANIC:</td>\n<td style=\"border: 1px solid black ;\">2018-05-02 00:53:03+00</td>\n<td style=\"border: 1px solid black ;\">fvt-configure</td>\n<td style=\"border: 1px solid black ;\">REPLACED Y3</td>\n<td style=\"border: 1px solid black ;\">FAIL</td></tr>\n<tr style=\"background-color: #CFCFA3;\"><td style=\"border: 1px solid black ;\">SSJ18116564</td>\n<td style=\"border: 1px solid black ;\">LFARISASY-91923-204/F0</td>\n<td style=\"border: 1px solid black ;\">637183</td>\n<td style=\"border: 1px solid black ;\">FAIL: //testInteractive</td>\n<td style=\"border: 1px solid black ;\">2018-05-02 01:15:57+00</td>\n<td style=\"border: 1px solid black ;\">fvt-interactive</td>\n<td style=\"border: 1px solid black ;\">D70</td>\n<td style=\"border: 1px solid black ;\">PASS</td></tr>\n<tr style=\"background-color: #FFFFDB;\"><td style=\"border: 1px solid black ;\">SSJ17429055</td>\n<td style=\"border: 1px solid black ;\">LFARISASY-91878-204/A0</td>\n<td style=\"border: 1px solid black ;\">635083</td>\n<td style=\"border: 1px solid black ;\">//testFeAndFapMbist, //testFeAndFapDco, /switchCardUpper/testPcieAuditPath</td>\n<td style=\"border: 1px solid black ;\">2018-05-02 02:17:29+00</td>\n<td style=\"border: 1px solid black ;\">ess</td>\n<td style=\"border: 1px solid black ;\">U64,U45 -CPU</td>\n<td style=\"border: 1px solid black ;\">PASS</td></tr>\n<tr style=\"background-color: #CFCFA3;\"><td style=\"border: 1px solid black ;\">SSJ18051163</td>\n<td style=\"border: 1px solid black ;\">LFARISASY-91923-204/E1</td>\n<td style=\"border: 1px solid black ;\">637183</td>\n<td style=\"border: 1px solid black ;\">TestSetupFailure: ServerError: Mercury Query failed with code 400: Query error: Pca types ([\"RearCard\" \"SwitchCard\" \"SwitchCard\"]) do not match what's expected for given ChassisType ([\"CpuCard\" \"SwitchCard\" \"RearCard\"]).</td>\n<td style=\"border: 1px solid black ;\">2018-05-02 02:23:19+00</td>\n<td style=\"border: 1px solid black ;\">fvt-configure</td>\n<td style=\"border: 1px solid black ;\">CPU</td>\n<td style=\"border: 1px solid black ;\">PASS</td></tr>\n<tr style=\"background-color: #FFFFDB;\"><td style=\"border: 1px solid black ;\">SSJ18110532</td>\n<td style=\"border: 1px solid black ;\">LFARISASY-51248-208/B0</td>\n<td style=\"border: 1px solid black ;\">628696</td>\n<td style=\"border: 1px solid black ;\">-bash-4.3# PANIC: Failed runInDsh command:  --no-audit -c /supervisors/1/initialize /supervisors/1/sol/programSol -p /mnt/usb1/prefdl</td>\n<td style=\"border: 1px solid black ;\">2018-05-02 03:30:21+00</td>\n<td style=\"border: 1px solid black ;\">fvt-configure</td>\n<td style=\"border: 1px solid black ;\">U12</td>\n<td style=\"border: 1px solid black ;\">FAIL</td></tr>\n<tr style=\"background-color: #CFCFA3;\"><td style=\"border: 1px solid black ;\">SSJ18132569</td>\n<td style=\"border: 1px solid black ;\">LFARISASY-91923-204/F0</td>\n<td style=\"border: 1px solid black ;\">637183</td>\n<td style=\"border: 1px solid black ;\">ScriptBugFailureErrorCode = 87\nScriptBugFailure:</td>\n<td style=\"border: 1px solid black ;\">2018-05-02 05:05:20+00</td>\n<td style=\"border: 1px solid black ;\">fvt-configure</td>\n<td style=\"border: 1px solid black ;\">U26,L27,L27</td>\n<td style=\"border: 1px solid black ;\">PASS</td></tr>\n<tr style=\"background-color: #FFFFDB;\"><td style=\"border: 1px solid black ;\">SSJ17414530</td>\n<td style=\"border: 1px solid black ;\">LFARISASY-90909-210/C0R</td>\n<td style=\"border: 1px solid black ;\">633956</td>\n<td style=\"border: 1px solid black ;\">/switchCard/fppModule/13/testAll  --argString --margin nominal, /switchCard/fppModule/13/testLowSpeedSignals , /switchCard/execTest --stati</td>\n<td style=\"border: 1px solid black ;\">2018-05-02 05:07:22+00</td>\n<td style=\"border: 1px solid black ;\">fvt</td>\n<td style=\"border: 1px solid black ;\">R566</td>\n<td style=\"border: 1px solid black ;\">PASS</td></tr>\n<tr style=\"background-color: #CFCFA3;\"><td style=\"border: 1px solid black ;\">SSJ18160457</td>\n<td style=\"border: 1px solid black ;\">LFARISASY-90889-210/F0</td>\n<td style=\"border: 1px solid black ;\">633993</td>\n<td style=\"border: 1px solid black ;\">/switchCard/trafficTestSc --pkts 1G:60,10G:60,40G:120 --patt rand --pktSize 64 --loopback none --duration 60 --eyescan 1 --speed</td>\n<td style=\"border: 1px solid black ;\">2018-05-02 11:41:20-05</td>\n<td style=\"border: 1px solid black ;\">fvt</td>\n<td style=\"border: 1px solid black ;\">MEM-00171</td>\n<td style=\"border: 1px solid black ;\">PASS</td></tr>\n<tr style=\"background-color: #FFFFDB;\"><td style=\"border: 1px solid black ;\">SSJ17471064</td>\n<td style=\"border: 1px solid black ;\">LFARISASY-51704-211/A0</td>\n<td style=\"border: 1px solid black ;\">634663</td>\n<td style=\"border: 1px solid black ;\">/linecards/4/tridentFvtTest --intervals 2 --verbose 0 --duration 180 --pwm 100</td>\n<td style=\"border: 1px solid black ;\">2018-05-02 13:18:44+00</td>\n<td style=\"border: 1px solid black ;\">burnin</td>\n<td style=\"border: 1px solid black ;\">J7,U12</td>\n<td style=\"border: 1px solid black ;\">FAIL</td></tr>\n<tr style=\"background-color: #CFCFA3;\"><td style=\"border: 1px solid black ;\">SSJ18114315</td>\n<td style=\"border: 1px solid black ;\">LFARISASY-91923-204/E1</td>\n<td style=\"border: 1px solid black ;\">637183</td>\n<td style=\"border: 1px solid black ;\">//testTraffic -l None -s 9216 -d 1800 -n 15 --speed 100G</td>\n<td style=\"border: 1px solid black ;\">2018-05-02 13:29:37-05</td>\n<td style=\"border: 1px solid black ;\">burnin</td>\n<td style=\"border: 1px solid black ;\">U64</td>\n<td style=\"border: 1px solid black ;\">PASS</td></tr>\n<tr style=\"background-color: #FFFFDB;\"><td style=\"border: 1px solid black ;\">SSJ18082917</td>\n<td style=\"border: 1px solid black ;\">LFARISASY-90920-207/B0</td>\n<td style=\"border: 1px solid black ;\">633993</td>\n<td style=\"border: 1px solid black ;\">//testTraffic -l None -s 9216 -d 600 -n 5 --allow --speed 10GBase-T</td>\n<td style=\"border: 1px solid black ;\">2018-05-02 14:22:20+00</td>\n<td style=\"border: 1px solid black ;\">ess</td>\n<td style=\"border: 1px solid black ;\">U9</td>\n<td style=\"border: 1px solid black ;\">FAIL</td></tr>\n<tr style=\"background-color: #CFCFA3;\"><td style=\"border: 1px solid black ;\">SSJ17422138</td>\n<td style=\"border: 1px solid black ;\">LFARISASY-71935-205/A0</td>\n<td style=\"border: 1px solid black ;\">633993</td>\n<td style=\"border: 1px solid black ;\">//testTraffic -l None -d 600 --cells -s 1500 --allow --no-ocb --ppm 500000</td>\n<td style=\"border: 1px solid black ;\">2018-05-02 14:29:15-05</td>\n<td style=\"border: 1px solid black ;\">ess</td>\n<td style=\"border: 1px solid black ;\">U13</td>\n<td style=\"border: 1px solid black ;\">FAIL</td></tr>\n<tr style=\"background-color: #FFFFDB;\"><td style=\"border: 1px solid black ;\">SSJ18160022</td>\n<td style=\"border: 1px solid black ;\">LFARISASY-91907-203/E0</td>\n<td style=\"border: 1px solid black ;\">634705</td>\n<td style=\"border: 1px solid black ;\">FAIL:             GPI Fault                  0\t17:51:49.621000</td>\n<td style=\"border: 1px solid black ;\">2018-05-02 14:30:27+00</td>\n<td style=\"border: 1px solid black ;\">fvt-interactive</td>\n<td style=\"border: 1px solid black ;\">D56</td>\n<td style=\"border: 1px solid black ;\">PASS</td></tr>\n<tr style=\"background-color: #CFCFA3;\"><td style=\"border: 1px solid black ;\">SSJ17454850</td>\n<td style=\"border: 1px solid black ;\">LFARISASY-90890-210/E0</td>\n<td style=\"border: 1px solid black ;\">637183</td>\n<td style=\"border: 1px solid black ;\">/switchCard/verifyVoltage --margin low</td>\n<td style=\"border: 1px solid black ;\">2018-05-02 15:43:04+00</td>\n<td style=\"border: 1px solid black ;\">burnin</td>\n<td style=\"border: 1px solid black ;\">U39,Y2,U5,U9,U12</td>\n<td style=\"border: 1px solid black ;\">PASS</td></tr>\n<tr style=\"background-color: #FFFFDB;\"><td style=\"border: 1px solid black ;\">SSJ18179143</td>\n<td style=\"border: 1px solid black ;\">LFARISASY-91936-203/C0</td>\n<td style=\"border: 1px solid black ;\">636479</td>\n<td style=\"border: 1px solid black ;\">//testTraffic -l None --allow --cells --belk -d 90</td>\n<td style=\"border: 1px solid black ;\">2018-05-02 17:55:03+00</td>\n<td style=\"border: 1px solid black ;\">ess</td>\n<td style=\"border: 1px solid black ;\">U 50</td>\n<td style=\"border: 1px solid black ;\">PASS</td></tr>\n<tr style=\"background-color: #CFCFA3;\"><td style=\"border: 1px solid black ;\">SSJ18179118</td>\n<td style=\"border: 1px solid black ;\">LFARISASY-91936-203/C0</td>\n<td style=\"border: 1px solid black ;\">636479</td>\n<td style=\"border: 1px solid black ;\">//testTraffic -l None --allow --cells --belk -d 90</td>\n<td style=\"border: 1px solid black ;\">2018-05-02 17:59:17+00</td>\n<td style=\"border: 1px solid black ;\">ess</td>\n<td style=\"border: 1px solid black ;\">U 50</td>\n<td style=\"border: 1px solid black ;\">PASS</td></tr>\n<tr style=\"background-color: #FFFFDB;\"><td style=\"border: 1px solid black ;\">SSJ18179136</td>\n<td style=\"border: 1px solid black ;\">LFARISASY-91936-203/C0</td>\n<td style=\"border: 1px solid black ;\">636479</td>\n<td style=\"border: 1px solid black ;\">//testTraffic -l None --allow --cells --belk -d 90</td>\n<td style=\"border: 1px solid black ;\">2018-05-02 18:00:50+00</td>\n<td style=\"border: 1px solid black ;\">ess</td>\n<td style=\"border: 1px solid black ;\">U 9</td>\n<td style=\"border: 1px solid black ;\">PASS</td></tr>\n<tr style=\"background-color: #CFCFA3;\"><td style=\"border: 1px solid black ;\">SSJ18179138</td>\n<td style=\"border: 1px solid black ;\">LFARISASY-91936-203/C0</td>\n<td style=\"border: 1px solid black ;\">636479</td>\n<td style=\"border: 1px solid black ;\">//testTraffic -l None --allow --cells --belk -d 90</td>\n<td style=\"border: 1px solid black ;\">2018-05-02 18:02:00+00</td>\n<td style=\"border: 1px solid black ;\">ess</td>\n<td style=\"border: 1px solid black ;\">U 9</td>\n<td style=\"border: 1px solid black ;\">PASS</td></tr>\n<tr style=\"background-color: #FFFFDB;\"><td style=\"border: 1px solid black ;\">SSJ18179177</td>\n<td style=\"border: 1px solid black ;\">LFARISASY-91936-203/C0</td>\n<td style=\"border: 1px solid black ;\">636479</td>\n<td style=\"border: 1px solid black ;\">//testTraffic -l None --allow --cells --belk -d 90</td>\n<td style=\"border: 1px solid black ;\">2018-05-02 18:08:05+00</td>\n<td style=\"border: 1px solid black ;\">ess</td>\n<td style=\"border: 1px solid black ;\">U 9</td>\n<td style=\"border: 1px solid black ;\">PASS</td></tr>\n<tr style=\"background-color: #CFCFA3;\"><td style=\"border: 1px solid black ;\">SSJ18090136</td>\n<td style=\"border: 1px solid black ;\">LFARISASY-91923-204/E1</td>\n<td style=\"border: 1px solid black ;\">637183</td>\n<td style=\"border: 1px solid black ;\">//testPowerLoadSharing</td>\n<td style=\"border: 1px solid black ;\">2018-05-02 18:46:37+00</td>\n<td style=\"border: 1px solid black ;\">burnin</td>\n<td style=\"border: 1px solid black ;\">PSU1</td>\n<td style=\"border: 1px solid black ;\">FAIL</td></tr>\n<tr style=\"background-color: #FFFFDB;\"><td style=\"border: 1px solid black ;\">SSJ18134021</td>\n<td style=\"border: 1px solid black ;\">LFARISASY-91923-204/F0</td>\n<td style=\"border: 1px solid black ;\">637183</td>\n<td style=\"border: 1px solid black ;\">FAIL: //testInteractive</td>\n<td style=\"border: 1px solid black ;\">2018-05-02 19:48:57-05</td>\n<td style=\"border: 1px solid black ;\">fvt-interactive</td>\n<td style=\"border: 1px solid black ;\">D60</td>\n<td style=\"border: 1px solid black ;\">PASS</td></tr>\n<tr style=\"background-color: #CFCFA3;\"><td style=\"border: 1px solid black ;\">SSJ18129084</td>\n<td style=\"border: 1px solid black ;\">LFARISASY-91936-203/C0</td>\n<td style=\"border: 1px solid black ;\">636479</td>\n<td style=\"border: 1px solid black ;\">//testTraffic -l None --allow --cells --belk -d 90</td>\n<td style=\"border: 1px solid black ;\">2018-05-02 19:54:26+00</td>\n<td style=\"border: 1px solid black ;\">ess</td>\n<td style=\"border: 1px solid black ;\">U 9</td>\n<td style=\"border: 1px solid black ;\">PASS</td></tr>\n<tr style=\"background-color: #FFFFDB;\"><td style=\"border: 1px solid black ;\">SSJ18020929</td>\n<td style=\"border: 1px solid black ;\">LFARISASY-91923-204/E0</td>\n<td style=\"border: 1px solid black ;\">637183</td>\n<td style=\"border: 1px solid black ;\">==================== Exception raised in 'python /usr/bin/fvt-configure-losangeles --useDb --arss 10.90.216.32 dut27 --sn SSJ18020929 --kvn 111 --sku DCS-7260CX3-64 --mac 74:83:ef:64:f5:c2 --asy ASY0250504E0 --logDir /log/DCS-7260CX3-64/1802/SSJ18020929/fvt-configure/configure-2 --runId 1402955 --deviation D0004141 ' (PID 17839) ====================</td>\n<td style=\"border: 1px solid black ;\">2018-05-02 23:03:54+00</td>\n<td style=\"border: 1px solid black ;\">fvt-configure</td>\n<td style=\"border: 1px solid black ;\">ROOK</td>\n<td style=\"border: 1px solid black ;\">FAIL</td></tr>\n<tr style=\"background-color: #CFCFA3;\"><td style=\"border: 1px solid black ;\">SSJ17499026</td>\n<td style=\"border: 1px solid black ;\">LFARISASY-91954-203/B0</td>\n<td style=\"border: 1px solid black ;\">635083</td>\n<td style=\"border: 1px solid black ;\">/switchCardUpper/testPcieAuditPath, /switchCardUpper/testPcieAuditPath</td>\n<td style=\"border: 1px solid black ;\">2018-05-02 23:24:06-05</td>\n<td style=\"border: 1px solid black ;\">ess</td>\n<td style=\"border: 1px solid black ;\">U9</td>\n<td style=\"border: 1px solid black ;\">PASS</td></tr>\n<tr style=\"background-color: #FFFFDB;\"><td style=\"border: 1px solid black ;\">SSJ18020710</td>\n<td style=\"border: 1px solid black ;\">LFARISASY-90890-210/F0</td>\n<td style=\"border: 1px solid black ;\">146360</td>\n<td style=\"border: 1px solid black ;\">##! INVALID SETUP: Reported by test //checkSetup ==> System not test ready. Please check the following ports (indexed starting at one): [23, 24]</td>\n<td style=\"border: 1px solid black ;\">2018-05-03 00:48:01+00</td>\n<td style=\"border: 1px solid black ;\">fvt</td>\n<td style=\"border: 1px solid black ;\">U12</td>\n<td style=\"border: 1px solid black ;\">FAIL</td></tr>\n<tr style=\"background-color: #CFCFA3;\"><td style=\"border: 1px solid black ;\">SSJ17473019</td>\n<td style=\"border: 1px solid black ;\">LFARISASY-91904-202/A0</td>\n<td style=\"border: 1px solid black ;\">636107</td>\n<td style=\"border: 1px solid black ;\">/switchCard/testTraffic -d 120 -s 9208 -l None --allow-mix-speeds -r 100GBase-4 --force-init --ppm 800000, /switchCard/testTraffic -d 120 -</td>\n<td style=\"border: 1px solid black ;\">2018-05-03 01:22:25+00</td>\n<td style=\"border: 1px solid black ;\">fvt</td>\n<td style=\"border: 1px solid black ;\">U64,U65,C200</td>\n<td style=\"border: 1px solid black ;\">FAIL</td></tr>\n<tr style=\"background-color: #FFFFDB;\"><td style=\"border: 1px solid black ;\">SSJ18109022</td>\n<td style=\"border: 1px solid black ;\">LFARISASY-91936-203/C0</td>\n<td style=\"border: 1px solid black ;\">635083</td>\n<td style=\"border: 1px solid black ;\">PANIC: Timed out running 'idseeprom -d 1.0x53 read | prefdl --decode - > /tmp/lowerSwitchCardMfgdata'. Output was:\n=============== Exception raised in 'python /bin/idseeprom -d 1.0x53 read ' (PID 2498; PPID 2404) ===============</td>\n<td style=\"border: 1px solid black ;\">2018-05-03 03:13:08+00</td>\n<td style=\"border: 1px solid black ;\">fvt-configure</td>\n<td style=\"border: 1px solid black ;\">U74</td>\n<td style=\"border: 1px solid black ;\">FAIL</td></tr>\n<tr style=\"background-color: #CFCFA3;\"><td style=\"border: 1px solid black ;\">SSJ18155032</td>\n<td style=\"border: 1px solid black ;\">LFARISASY-51808-220/A0</td>\n<td style=\"border: 1px solid black ;\">628696</td>\n<td style=\"border: 1px solid black ;\">/fabriccards/3/switchFvtTest --duration 600 --intervals 2 --verbose False --cards [u'None'] --cores [u'None'] --eyeScan True</td>\n<td style=\"border: 1px solid black ;\">2018-05-03 03:25:46+00</td>\n<td style=\"border: 1px solid black ;\">fvt</td>\n<td style=\"border: 1px solid black ;\">J2 J3</td>\n<td style=\"border: 1px solid black ;\">PASS</td></tr>\n<tr style=\"background-color: #FFFFDB;\"><td style=\"border: 1px solid black ;\">SSJ18139022</td>\n<td style=\"border: 1px solid black ;\">LFARISASY-91954-203/B0</td>\n<td style=\"border: 1px solid black ;\">635083</td>\n<td style=\"border: 1px solid black ;\">//testFeAndFapMbist, //testFeAndFapDco, //testRovRails</td>\n<td style=\"border: 1px solid black ;\">2018-05-03 03:31:08+00</td>\n<td style=\"border: 1px solid black ;\">fvt</td>\n<td style=\"border: 1px solid black ;\">U127</td>\n<td style=\"border: 1px solid black ;\">PASS</td></tr>\n<tr style=\"background-color: #CFCFA3;\"><td style=\"border: 1px solid black ;\">SSJ17449103</td>\n<td style=\"border: 1px solid black ;\">LFARISASY-71951-203/C0</td>\n<td style=\"border: 1px solid black ;\">635083</td>\n<td style=\"border: 1px solid black ;\">/switchCardUpper/testPcieAuditPath, /switchCardUpper/testPcieAuditPath</td>\n<td style=\"border: 1px solid black ;\">2018-05-03 04:21:20+00</td>\n<td style=\"border: 1px solid black ;\">ess</td>\n<td style=\"border: 1px solid black ;\">U9</td>\n<td style=\"border: 1px solid black ;\">PASS</td></tr>\n<tr style=\"background-color: #FFFFDB;\"><td style=\"border: 1px solid black ;\">SSJ18152233</td>\n<td style=\"border: 1px solid black ;\">LFARISASY-51808-220/A0</td>\n<td style=\"border: 1px solid black ;\">628696</td>\n<td style=\"border: 1px solid black ;\">/fabriccards/2/fvtTest --testFanSpeed True --verbose False</td>\n<td style=\"border: 1px solid black ;\">2018-05-03 04:22:54+00</td>\n<td style=\"border: 1px solid black ;\">fvt</td>\n<td style=\"border: 1px solid black ;\">J4</td>\n<td style=\"border: 1px solid black ;\">PASS</td></tr>\n<tr style=\"background-color: #CFCFA3;\"><td style=\"border: 1px solid black ;\">SSJ18049095</td>\n<td style=\"border: 1px solid black ;\">LFARISASY-91936-203/C0</td>\n<td style=\"border: 1px solid black ;\">635083</td>\n<td style=\"border: 1px solid black ;\">//power test voltage high, //power test voltage high, //power test voltage high</td>\n<td style=\"border: 1px solid black ;\">2018-05-03 04:53:10+00</td>\n<td style=\"border: 1px solid black ;\">ess</td>\n<td style=\"border: 1px solid black ;\">PSU1,PSU2</td>\n<td style=\"border: 1px solid black ;\">FAIL</td></tr>\n<tr style=\"background-color: #FFFFDB;\"><td style=\"border: 1px solid black ;\">SSJ18116921</td>\n<td style=\"border: 1px solid black ;\">LFARISASY-91674-106/B0</td>\n<td style=\"border: 1px solid black ;\">627542</td>\n<td style=\"border: 1px solid black ;\">/switchCard/setupTestFull --portMode portMode25G --media Copper --ports range(128)</td>\n<td style=\"border: 1px solid black ;\">2018-05-03 04:54:50+00</td>\n<td style=\"border: 1px solid black ;\">burnin</td>\n<td style=\"border: 1px solid black ;\">RESEAT HEATSINK</td>\n<td style=\"border: 1px solid black ;\">FAIL</td></tr>\n<tr style=\"background-color: #CFCFA3;\"><td style=\"border: 1px solid black ;\">SSJ17403641</td>\n<td style=\"border: 1px solid black ;\">LFARISASY-91918-202/A0</td>\n<td style=\"border: 1px solid black ;\">636874</td>\n<td style=\"border: 1px solid black ;\">TestSetupFailure: Powering up the board for the first time failed. Unable to connect. Check console/power connections as well as console connector card. If these are good, check CPU/memory.</td>\n<td style=\"border: 1px solid black ;\">2018-05-03 05:16:41+00</td>\n<td style=\"border: 1px solid black ;\">fvt-configure</td>\n<td style=\"border: 1px solid black ;\">PCA-708-02,U14</td>\n<td style=\"border: 1px solid black ;\">FAIL</td></tr>\n<tr style=\"background-color: #FFFFDB;\"><td style=\"border: 1px solid black ;\">SSJ18129008</td>\n<td style=\"border: 1px solid black ;\">LFARISASY-91936-203/C0</td>\n<td style=\"border: 1px solid black ;\">635083</td>\n<td style=\"border: 1px solid black ;\">/switchCardUpper/testPcieAuditPath</td>\n<td style=\"border: 1px solid black ;\">2018-05-03 05:24:39+00</td>\n<td style=\"border: 1px solid black ;\">ess</td>\n<td style=\"border: 1px solid black ;\">U9</td>\n<td style=\"border: 1px solid black ;\">PASS</td></tr>\n<tr style=\"background-color: #CFCFA3;\"><td style=\"border: 1px solid black ;\">SSJ17449087</td>\n<td style=\"border: 1px solid black ;\">LFARISASY-71951-203/C0</td>\n<td style=\"border: 1px solid black ;\">635083</td>\n<td style=\"border: 1px solid black ;\">//tuneFapDramsAndWriteToFdl</td>\n<td style=\"border: 1px solid black ;\">2018-05-03 13:42:07+00</td>\n<td style=\"border: 1px solid black ;\">fvt</td>\n<td style=\"border: 1px solid black ;\">U137,L223,U127,U 127,U 45</td>\n<td style=\"border: 1px solid black ;\">PASS</td></tr>\n<tr style=\"background-color: #FFFFDB;\"><td style=\"border: 1px solid black ;\">SSJ18161132</td>\n<td style=\"border: 1px solid black ;\">LFARISASY-51704-211/A0</td>\n<td style=\"border: 1px solid black ;\">634663</td>\n<td style=\"border: 1px solid black ;\">/linecards/8/fvtConfig --fdlFile None --programQspi False --plxEepromBinFile /usr/share/DosFirmwareImages/PLX87xx_LC_vCA.bin --p</td>\n<td style=\"border: 1px solid black ;\">2018-05-03 14:49:36+00</td>\n<td style=\"border: 1px solid black ;\">fvt-configure</td>\n<td style=\"border: 1px solid black ;\">C743</td>\n<td style=\"border: 1px solid black ;\">PASS</td></tr>\n<tr style=\"background-color: #CFCFA3;\"><td style=\"border: 1px solid black ;\">SSJ18172378</td>\n<td style=\"border: 1px solid black ;\">LFARISASY-91939-210/A0</td>\n<td style=\"border: 1px solid black ;\">633993</td>\n<td style=\"border: 1px solid black ;\">FAIL: //testInteractive</td>\n<td style=\"border: 1px solid black ;\">2018-05-03 14:50:30+00</td>\n<td style=\"border: 1px solid black ;\">fvt-interactive</td>\n<td style=\"border: 1px solid black ;\">D16</td>\n<td style=\"border: 1px solid black ;\">PASS</td></tr>\n<tr style=\"background-color: #FFFFDB;\"><td style=\"border: 1px solid black ;\">SSJ18163387</td>\n<td style=\"border: 1px solid black ;\">LFARISASY-71947-204/C0</td>\n<td style=\"border: 1px solid black ;\">633993</td>\n<td style=\"border: 1px solid black ;\">/switchCard/fpgas/0/testRefClkFreq --clks=clk1_25Mhz,clk2_25Mhz,clk3_100Mhz,clk4_156Mhz,clk5_156Mhz,clk6_100Mhz,clk7_100Mhz,clk8</td>\n<td style=\"border: 1px solid black ;\">2018-05-03 16:20:32+00</td>\n<td style=\"border: 1px solid black ;\">ess</td>\n<td style=\"border: 1px solid black ;\">U90</td>\n<td style=\"border: 1px solid black ;\">PASS</td></tr>\n<tr style=\"background-color: #CFCFA3;\"><td style=\"border: 1px solid black ;\">SSJ18152734</td>\n<td style=\"border: 1px solid black ;\">LFARISASY-51704-211/A0</td>\n<td style=\"border: 1px solid black ;\">634663</td>\n<td style=\"border: 1px solid black ;\">/linecards/5/tridentFvtTest --intervals 2 --verbose 0 --duration 180 --pwm 100</td>\n<td style=\"border: 1px solid black ;\">2018-05-03 16:29:24+00</td>\n<td style=\"border: 1px solid black ;\">burnin</td>\n<td style=\"border: 1px solid black ;\">J4</td>\n<td style=\"border: 1px solid black ;\">PASS</td></tr>\n<tr style=\"background-color: #FFFFDB;\"><td style=\"border: 1px solid black ;\">SSJ18116064</td>\n<td style=\"border: 1px solid black ;\">LFARISASY-91905-202/B0</td>\n<td style=\"border: 1px solid black ;\">634705</td>\n<td style=\"border: 1px solid black ;\">ScriptBugFailureErrorCode = 87\nScriptBugFailure:</td>\n<td style=\"border: 1px solid black ;\">2018-05-03 17:28:36+00</td>\n<td style=\"border: 1px solid black ;\">fvt-configure</td>\n<td style=\"border: 1px solid black ;\">J4</td>\n<td style=\"border: 1px solid black ;\">FAIL</td></tr>\n<tr style=\"background-color: #CFCFA3;\"><td style=\"border: 1px solid black ;\">SSJ18152647</td>\n<td style=\"border: 1px solid black ;\">LFARISASY-51704-211/A0</td>\n<td style=\"border: 1px solid black ;\">634663</td>\n<td style=\"border: 1px solid black ;\">FAIL: /linecards/4/generalLedTest</td>\n<td style=\"border: 1px solid black ;\">2018-05-03 17:29:33+00</td>\n<td style=\"border: 1px solid black ;\">fvt-interactive</td>\n<td style=\"border: 1px solid black ;\">D46</td>\n<td style=\"border: 1px solid black ;\">PASS</td></tr>\n<tr style=\"background-color: #FFFFDB;\"><td style=\"border: 1px solid black ;\">SSJ18164000</td>\n<td style=\"border: 1px solid black ;\">LFARISASY-90900-210/G0</td>\n<td style=\"border: 1px solid black ;\">634437</td>\n<td style=\"border: 1px solid black ;\">##! INVALID SETUP: Reported by test /switchCard/testAllVgaDfe ==> Possible bad contact on ports: 32/4</td>\n<td style=\"border: 1px solid black ;\">2018-05-03 17:39:33+00</td>\n<td style=\"border: 1px solid black ;\">burnin</td>\n<td style=\"border: 1px solid black ;\">J21</td>\n<td style=\"border: 1px solid black ;\">PASS</td></tr>\n<tr style=\"background-color: #CFCFA3;\"><td style=\"border: 1px solid black ;\">SSJ18132592</td>\n<td style=\"border: 1px solid black ;\">LFARISASY-91923-204/F0</td>\n<td style=\"border: 1px solid black ;\">637183</td>\n<td style=\"border: 1px solid black ;\">TestSetupFailure: ServerError: Mercury Query failed with code 400: Query error: Found a match for 'PCA0094903B0' but subquery returned error: DEV-04278 is not found in the list of valid DEVs for PCA-00949-03-B0: [{DEV-03830 optional} {DEV-04056 optional} {DEV-04061 optional} {DEV-04141 optional} {DEV-04000 optional} {DEV-04110 optional} {DEV-04197 optional} {DEV-04131 optional} {DEV-04351 optional} {DEV-04199 optional}], using query: {\"deviations\": [], \"asy\": \"ASY0250504F0\", \"pcas\": [{\"deviations\": [], \"pca\": \"PCA0097803A0\"}, {\"deviations\": [\"D0004278\"], \"pca\": \"PCA0094903B0\"}, {\"deviations\": [\"D0004340\"], \"pca\": \"PCA0098506A0\"}]}</td>\n<td style=\"border: 1px solid black ;\">2018-05-03 17:57:16-05</td>\n<td style=\"border: 1px solid black ;\">fvt-configure</td>\n<td style=\"border: 1px solid black ;\">SW</td>\n<td style=\"border: 1px solid black ;\">PASS</td></tr>\n<tr style=\"background-color: #FFFFDB;\"><td style=\"border: 1px solid black ;\">SSJ18160008</td>\n<td style=\"border: 1px solid black ;\">LFARISASY-91907-203/E0</td>\n<td style=\"border: 1px solid black ;\">633993</td>\n<td style=\"border: 1px solid black ;\">/switchCard/testTempAlert</td>\n<td style=\"border: 1px solid black ;\">2018-05-03 19:22:43+00</td>\n<td style=\"border: 1px solid black ;\">ess</td>\n<td style=\"border: 1px solid black ;\">U180</td>\n<td style=\"border: 1px solid black ;\">FAIL</td></tr>\n<tr style=\"background-color: #CFCFA3;\"><td style=\"border: 1px solid black ;\">SSJ18160521</td>\n<td style=\"border: 1px solid black ;\">LFARISASY-90889-210/F0</td>\n<td style=\"border: 1px solid black ;\">634705</td>\n<td style=\"border: 1px solid black ;\">TestSetupFailure: The MAC address does not fall into any of the defined address blocks.</td>\n<td style=\"border: 1px solid black ;\">2018-05-03 20:25:40+00</td>\n<td style=\"border: 1px solid black ;\">fvt-configure</td>\n<td style=\"border: 1px solid black ;\">J9</td>\n<td style=\"border: 1px solid black ;\">PASS</td></tr>\n<tr style=\"background-color: #FFFFDB;\"><td style=\"border: 1px solid black ;\">SSJ17463670</td>\n<td style=\"border: 1px solid black ;\">LFARISASY-91923-204/C0</td>\n<td style=\"border: 1px solid black ;\">637183</td>\n<td style=\"border: 1px solid black ;\">//testTraffic -l None -s 245 -d 300 -n auto --speed 100G --ppm 400000</td>\n<td style=\"border: 1px solid black ;\">2018-05-03 22:30:35+00</td>\n<td style=\"border: 1px solid black ;\">fvt</td>\n<td style=\"border: 1px solid black ;\">U64</td>\n<td style=\"border: 1px solid black ;\">FAIL</td></tr>\n<tr style=\"background-color: #CFCFA3;\"><td style=\"border: 1px solid black ;\">SSJ18179221</td>\n<td style=\"border: 1px solid black ;\">LFARISASY-90916-210/A0</td>\n<td style=\"border: 1px solid black ;\">635083</td>\n<td style=\"border: 1px solid black ;\">FAIL: /cpuCard/rearLeds/testCountOffLeds</td>\n<td style=\"border: 1px solid black ;\">2018-05-03 23:54:05-05</td>\n<td style=\"border: 1px solid black ;\">fvt-interactive</td>\n<td style=\"border: 1px solid black ;\">CPU -D2</td>\n<td style=\"border: 1px solid black ;\">PASS</td></tr>\n<tr style=\"background-color: #FFFFDB;\"><td style=\"border: 1px solid black ;\">SSJ17372325</td>\n<td style=\"border: 1px solid black ;\">LFARISASY-90939-203/B0</td>\n<td style=\"border: 1px solid black ;\">633956</td>\n<td style=\"border: 1px solid black ;\">/switchCard/testTraffic -d 60 -s 128 -l None -r 40GBase-4 --allow --ppm 800000</td>\n<td style=\"border: 1px solid black ;\">2018-05-04 00:13:01+00</td>\n<td style=\"border: 1px solid black ;\">burnin</td>\n<td style=\"border: 1px solid black ;\">U12</td>\n<td style=\"border: 1px solid black ;\">FAIL</td></tr>\n<tr style=\"background-color: #CFCFA3;\"><td style=\"border: 1px solid black ;\">SSJ18172367</td>\n<td style=\"border: 1px solid black ;\">LFARISASY-91939-210/A0</td>\n<td style=\"border: 1px solid black ;\">636874</td>\n<td style=\"border: 1px solid black ;\">FAIL: //testInteractive</td>\n<td style=\"border: 1px solid black ;\">2018-05-04 00:16:27+00</td>\n<td style=\"border: 1px solid black ;\">fvt-interactive</td>\n<td style=\"border: 1px solid black ;\">D12</td>\n<td style=\"border: 1px solid black ;\">PASS</td></tr>\n<tr style=\"background-color: #FFFFDB;\"><td style=\"border: 1px solid black ;\">SSJ18142917</td>\n<td style=\"border: 1px solid black ;\">LFARISASY-50689-111/B1</td>\n<td style=\"border: 1px solid black ;\">628696</td>\n<td style=\"border: 1px solid black ;\">==================== Exception raised in 'python /usr/bin/fvt-configure-sup --useDb --arss 10.90.216.31 supervisor12-1 --pca PCA0019010B1 --expectedSerialNumber SSJ18142917 --kvn 111 --sku 7300-SUP-D --mac 74:83:ef:9e:0f:a5 --asy ASY0068911B0 --sn SSJ18142917 --logDir /log/7300-SUP-D/1814/SSJ18142917/fvt-configure/configure-2 --runId 1613658 --deviation  ' (PID 27576) ====================</td>\n<td style=\"border: 1px solid black ;\">2018-05-04 00:41:35+00</td>\n<td style=\"border: 1px solid black ;\">fvt-configure</td>\n<td style=\"border: 1px solid black ;\">U61,U13</td>\n<td style=\"border: 1px solid black ;\">FAIL</td></tr>\n<tr style=\"background-color: #CFCFA3;\"><td style=\"border: 1px solid black ;\">SSJ17409057</td>\n<td style=\"border: 1px solid black ;\">LFARISASY-71942-202/A0</td>\n<td style=\"border: 1px solid black ;\">635083</td>\n<td style=\"border: 1px solid black ;\">//testTraffic -l None -d 300 -r 40GBase-4 -n 25 -s 9208 --no-ocb, //testTraffic -l None -d 60 -s 64 --allow --no-ocb, //testTraffic -l Phy</td>\n<td style=\"border: 1px solid black ;\">2018-05-04 01:08:35+00</td>\n<td style=\"border: 1px solid black ;\">fvt</td>\n<td style=\"border: 1px solid black ;\">U36</td>\n<td style=\"border: 1px solid black ;\">FAIL</td></tr>\n<tr style=\"background-color: #FFFFDB;\"><td style=\"border: 1px solid black ;\">SSJ17403413</td>\n<td style=\"border: 1px solid black ;\">LFARISASY-90901-210/F0</td>\n<td style=\"border: 1px solid black ;\">146360</td>\n<td style=\"border: 1px solid black ;\">PANIC: Error configuring papaya FPGA.</td>\n<td style=\"border: 1px solid black ;\">2018-05-04 01:57:52+00</td>\n<td style=\"border: 1px solid black ;\">fvt-configure</td>\n<td style=\"border: 1px solid black ;\">U8</td>\n<td style=\"border: 1px solid black ;\">FAIL</td></tr>\n<tr style=\"background-color: #CFCFA3;\"><td style=\"border: 1px solid black ;\">SSJ18155121</td>\n<td style=\"border: 1px solid black ;\">LFARISASY-51808-220/A0</td>\n<td style=\"border: 1px solid black ;\">628696</td>\n<td style=\"border: 1px solid black ;\">/fabriccards/1/testPowerCycleStandby, /fabriccards/1/fvtTest --testFanSpeed True --verbose False, /fabriccards/1/switchFvtTest --duration 6</td>\n<td style=\"border: 1px solid black ;\">2018-05-04 02:25:07+00</td>\n<td style=\"border: 1px solid black ;\">fvt</td>\n<td style=\"border: 1px solid black ;\">J3 J4</td>\n<td style=\"border: 1px solid black ;\">PASS</td></tr>\n<tr style=\"background-color: #FFFFDB;\"><td style=\"border: 1px solid black ;\">SSJ18116903</td>\n<td style=\"border: 1px solid black ;\">LFARISASY-91674-206/B0</td>\n<td style=\"border: 1px solid black ;\">627542</td>\n<td style=\"border: 1px solid black ;\">/switchCard/verifyVoltage --margin high</td>\n<td style=\"border: 1px solid black ;\">2018-05-04 02:30:53+00</td>\n<td style=\"border: 1px solid black ;\">ess</td>\n<td style=\"border: 1px solid black ;\">REPLACED LB</td>\n<td style=\"border: 1px solid black ;\">PASS</td></tr>\n<tr style=\"background-color: #CFCFA3;\"><td style=\"border: 1px solid black ;\">SSJ18090136</td>\n<td style=\"border: 1px solid black ;\">LFARISASY-91923-204/E1</td>\n<td style=\"border: 1px solid black ;\">637183</td>\n<td style=\"border: 1px solid black ;\">//testPowerLoadSharing</td>\n<td style=\"border: 1px solid black ;\">2018-05-04 03:49:45+00</td>\n<td style=\"border: 1px solid black ;\">fvt</td>\n<td style=\"border: 1px solid black ;\">J1 &J2</td>\n<td style=\"border: 1px solid black ;\">PASS</td></tr>\n<tr style=\"background-color: #FFFFDB;\"><td style=\"border: 1px solid black ;\">SSJ18152358</td>\n<td style=\"border: 1px solid black ;\">LFARISASY-51808-220/A0</td>\n<td style=\"border: 1px solid black ;\">628696</td>\n<td style=\"border: 1px solid black ;\">/fabriccards/4/testEjectorClosed, /fabriccards/4/testEjectorStability --duration 60 --closed True --poll 0.1, /fabriccards/4/fvtTest --test</td>\n<td style=\"border: 1px solid black ;\">2018-05-04 03:58:20+00</td>\n<td style=\"border: 1px solid black ;\">fvt</td>\n<td style=\"border: 1px solid black ;\">CHASSIS</td>\n<td style=\"border: 1px solid black ;\">PASS</td></tr>\n<tr style=\"background-color: #CFCFA3;\"><td style=\"border: 1px solid black ;\">SSJ18152013</td>\n<td style=\"border: 1px solid black ;\">LFARISASY-51808-220/A0</td>\n<td style=\"border: 1px solid black ;\">628696</td>\n<td style=\"border: 1px solid black ;\">/fabriccards/2/testEjectorClosed, /fabriccards/2/testEjectorStability --duration 60 --closed True --poll 0.1, /fabriccards/2/fvtTest --test</td>\n<td style=\"border: 1px solid black ;\">2018-05-04 04:00:14+00</td>\n<td style=\"border: 1px solid black ;\">ess</td>\n<td style=\"border: 1px solid black ;\">CHASSIS</td>\n<td style=\"border: 1px solid black ;\">PASS</td></tr>\n<tr style=\"background-color: #FFFFDB;\"><td style=\"border: 1px solid black ;\">SSJ18080510</td>\n<td style=\"border: 1px solid black ;\">LFARISASY-91923-204/E1</td>\n<td style=\"border: 1px solid black ;\">637183</td>\n<td style=\"border: 1px solid black ;\">/switchCard/trident2/selfTest --test 50</td>\n<td style=\"border: 1px solid black ;\">2018-05-04 04:23:45+00</td>\n<td style=\"border: 1px solid black ;\">burnin</td>\n<td style=\"border: 1px solid black ;\">HEAT SINK</td>\n<td style=\"border: 1px solid black ;\">PASS</td></tr>\n<tr style=\"background-color: #CFCFA3;\"><td style=\"border: 1px solid black ;\">SSJ18154744</td>\n<td style=\"border: 1px solid black ;\">LFARISASY-51808-220/A0</td>\n<td style=\"border: 1px solid black ;\">628696</td>\n<td style=\"border: 1px solid black ;\">/fabriccards/3/smbusMux/testOwnership</td>\n<td style=\"border: 1px solid black ;\">2018-05-04 05:01:49+00</td>\n<td style=\"border: 1px solid black ;\">fvt-configure</td>\n<td style=\"border: 1px solid black ;\">U3</td>\n<td style=\"border: 1px solid black ;\">FAIL</td></tr>\n<tr style=\"background-color: #FFFFDB;\"><td style=\"border: 1px solid black ;\">SSJ18154908</td>\n<td style=\"border: 1px solid black ;\">LFARISASY-51808-220/A0</td>\n<td style=\"border: 1px solid black ;\">628696</td>\n<td style=\"border: 1px solid black ;\">FAIL: /fabriccards/1/cardEjector/testEjector --timeout 180</td>\n<td style=\"border: 1px solid black ;\">2018-05-04 05:07:27+00</td>\n<td style=\"border: 1px solid black ;\">fvt-interactive</td>\n<td style=\"border: 1px solid black ;\">CHASSIS</td>\n<td style=\"border: 1px solid black ;\">PASS</td></tr>\n<tr style=\"background-color: #CFCFA3;\"><td style=\"border: 1px solid black ;\">SSJ17450275</td>\n<td style=\"border: 1px solid black ;\">LFARISASY-91923-204/C0</td>\n<td style=\"border: 1px solid black ;\">637183</td>\n<td style=\"border: 1px solid black ;\">TestSetupFailure: ServerError: Mercury Query failed with code 400: Query error: PCA-00985-05-A0 is not found in the list of valid PCAs for ASY-02505-04-F0: [PCA-00985-06-A0 PCA-00949-03-C0 PCA-00949-03-B0 PCA-00978-03-A0], using query: {\"deviations\": [], \"asy\": \"ASY0250504F0\", \"pcas\": [{\"deviations\": [], \"pca\": \"PCA0097803A0\"}, {\"deviations\": [\"D0003830\"], \"pca\": \"PCA0094903B0\"}, {\"deviations\": [], \"pca\": \"PCA0098505A0\"}]}</td>\n<td style=\"border: 1px solid black ;\">2018-05-04 05:10:21+00</td>\n<td style=\"border: 1px solid black ;\">fvt-configure</td>\n<td style=\"border: 1px solid black ;\">R558</td>\n<td style=\"border: 1px solid black ;\">PASS</td></tr>\n<tr style=\"background-color: #FFFFDB;\"><td style=\"border: 1px solid black ;\">SSJ18134065</td>\n<td style=\"border: 1px solid black ;\">LFARISASY-91923-204/E1</td>\n<td style=\"border: 1px solid black ;\">637183</td>\n<td style=\"border: 1px solid black ;\">Are all LEDs green? (yes/no):=============== Exception raised in 'python /usr/bin/dsh --no-audit //testInteractive ' (PID 2856; PPID 2853) ===============</td>\n<td style=\"border: 1px solid black ;\">2018-05-04 05:37:35+00</td>\n<td style=\"border: 1px solid black ;\">fvt-interactive</td>\n<td style=\"border: 1px solid black ;\">D265</td>\n<td style=\"border: 1px solid black ;\">PASS</td></tr>\n<tr style=\"background-color: #CFCFA3;\"><td style=\"border: 1px solid black ;\">SSJ18161273</td>\n<td style=\"border: 1px solid black ;\">LFARISASY-51704-211/A0</td>\n<td style=\"border: 1px solid black ;\">634663</td>\n<td style=\"border: 1px solid black ;\">/linecards/7/xcvrs/20/testAll --margin low, /linecards/7/xcvrs/18/testAll --margin low, /linecards/7/xcvrs/17/testAll --margin low, /lineca</td>\n<td style=\"border: 1px solid black ;\">2018-05-04 13:24:20+00</td>\n<td style=\"border: 1px solid black ;\">fvt</td>\n<td style=\"border: 1px solid black ;\">R937,U85,U101,U86,U101,U102</td>\n<td style=\"border: 1px solid black ;\">PASS</td></tr>\n<tr style=\"background-color: #FFFFDB;\"><td style=\"border: 1px solid black ;\">SSJ18082917</td>\n<td style=\"border: 1px solid black ;\">LFARISASY-90920-207/B0</td>\n<td style=\"border: 1px solid black ;\">633993</td>\n<td style=\"border: 1px solid black ;\">//testTraffic -l None -s 9216 -d 600 -n 5 --allow --speed 10GBase-T</td>\n<td style=\"border: 1px solid black ;\">2018-05-04 14:27:32+00</td>\n<td style=\"border: 1px solid black ;\">ess</td>\n<td style=\"border: 1px solid black ;\">U9</td>\n<td style=\"border: 1px solid black ;\">FAIL</td></tr>\n<tr style=\"background-color: #CFCFA3;\"><td style=\"border: 1px solid black ;\">SSJ18140940</td>\n<td style=\"border: 1px solid black ;\">LFARISASY-51704-211/A0</td>\n<td style=\"border: 1px solid black ;\">634663</td>\n<td style=\"border: 1px solid black ;\">/linecards/4/loopbackPresenceTest</td>\n<td style=\"border: 1px solid black ;\">2018-05-04 14:31:02+00</td>\n<td style=\"border: 1px solid black ;\">burnin</td>\n<td style=\"border: 1px solid black ;\">U29</td>\n<td style=\"border: 1px solid black ;\">PASS</td></tr>\n<tr style=\"background-color: #FFFFDB;\"><td style=\"border: 1px solid black ;\">SSJ17429034</td>\n<td style=\"border: 1px solid black ;\">LFARISASY-71951-203/C0</td>\n<td style=\"border: 1px solid black ;\">636479</td>\n<td style=\"border: 1px solid black ;\">//testPrbs -l None --allow --fabric --link-down-warn -d 300 --belk --sflow</td>\n<td style=\"border: 1px solid black ;\">2018-05-04 15:41:18+00</td>\n<td style=\"border: 1px solid black ;\">fvt</td>\n<td style=\"border: 1px solid black ;\">LOWER CARD</td>\n<td style=\"border: 1px solid black ;\">PASS</td></tr>\n<tr style=\"background-color: #CFCFA3;\"><td style=\"border: 1px solid black ;\">SSJ18164327</td>\n<td style=\"border: 1px solid black ;\">LFARISASY-90898-211/D0</td>\n<td style=\"border: 1px solid black ;\">634437</td>\n<td style=\"border: 1px solid black ;\">/switchCard/trafficTestSc --pkts 2 --patt mixed --pktSize 9216 --loopback none --duration 60 --eyescan 1 --speed 10G --monitor 1, /switchCa</td>\n<td style=\"border: 1px solid black ;\">2018-05-04 16:07:13+00</td>\n<td style=\"border: 1px solid black ;\">fvt</td>\n<td style=\"border: 1px solid black ;\">J7</td>\n<td style=\"border: 1px solid black ;\">PASS</td></tr>\n<tr style=\"background-color: #FFFFDB;\"><td style=\"border: 1px solid black ;\">SSJ18172242</td>\n<td style=\"border: 1px solid black ;\">LFARISASY-90889-210/F0</td>\n<td style=\"border: 1px solid black ;\">634437</td>\n<td style=\"border: 1px solid black ;\">##! INVALID SETUP: Reported by test //checkSetup ==> System not test ready. Please check the following ports (indexed starting at one): [19, 20]</td>\n<td style=\"border: 1px solid black ;\">2018-05-04 16:23:39+00</td>\n<td style=\"border: 1px solid black ;\">fvt</td>\n<td style=\"border: 1px solid black ;\">J10</td>\n<td style=\"border: 1px solid black ;\">PASS</td></tr>\n<tr style=\"background-color: #CFCFA3;\"><td style=\"border: 1px solid black ;\">SSJ18164002</td>\n<td style=\"border: 1px solid black ;\">LFARISASY-90900-210/G0</td>\n<td style=\"border: 1px solid black ;\">634705</td>\n<td style=\"border: 1px solid black ;\">FAIL: //testInteractive</td>\n<td style=\"border: 1px solid black ;\">2018-05-04 16:53:07+00</td>\n<td style=\"border: 1px solid black ;\">fvt-interactive</td>\n<td style=\"border: 1px solid black ;\">D174,D175</td>\n<td style=\"border: 1px solid black ;\">PASS</td></tr>\n<tr style=\"background-color: #FFFFDB;\"><td style=\"border: 1px solid black ;\">SSJ18152750</td>\n<td style=\"border: 1px solid black ;\">LFARISASY-51704-211/A0</td>\n<td style=\"border: 1px solid black ;\">634663</td>\n<td style=\"border: 1px solid black ;\">/linecards/8/xcvrs/7/testAll --margin low, /linecards/8/xcvrs/11/testAll --margin low, /linecards/8/fvtTest --verbose 0</td>\n<td style=\"border: 1px solid black ;\">2018-05-04 17:05:49+00</td>\n<td style=\"border: 1px solid black ;\">fvt</td>\n<td style=\"border: 1px solid black ;\">R1032,R997,R1033,R998</td>\n<td style=\"border: 1px solid black ;\">PASS</td></tr>\n<tr style=\"background-color: #CFCFA3;\"><td style=\"border: 1px solid black ;\">SSJ18170653</td>\n<td style=\"border: 1px solid black ;\">LFARISASY-90573-212/B0</td>\n<td style=\"border: 1px solid black ;\">633993</td>\n<td style=\"border: 1px solid black ;\">/cpuCard/testMemthrash --duration 100</td>\n<td style=\"border: 1px solid black ;\">2018-05-04 19:20:40+00</td>\n<td style=\"border: 1px solid black ;\">fvt</td>\n<td style=\"border: 1px solid black ;\">MEM-00171</td>\n<td style=\"border: 1px solid black ;\">PASS</td></tr>\n<tr style=\"background-color: #FFFFDB;\"><td style=\"border: 1px solid black ;\">SSJ18170648</td>\n<td style=\"border: 1px solid black ;\">LFARISASY-90573-212/B0</td>\n<td style=\"border: 1px solid black ;\">633993</td>\n<td style=\"border: 1px solid black ;\">FAIL: //testInteractive</td>\n<td style=\"border: 1px solid black ;\">2018-05-04 19:45:44+00</td>\n<td style=\"border: 1px solid black ;\">fvt-interactive</td>\n<td style=\"border: 1px solid black ;\">D9</td>\n<td style=\"border: 1px solid black ;\">PASS</td></tr>\n<tr style=\"background-color: #CFCFA3;\"><td style=\"border: 1px solid black ;\">SSJ18163750</td>\n<td style=\"border: 1px solid black ;\">LFARISASY-91923-204/F0</td>\n<td style=\"border: 1px solid black ;\">637183</td>\n<td style=\"border: 1px solid black ;\">//testTraffic -l None -s 9216 -d 1800 -n 15 --speed 100G</td>\n<td style=\"border: 1px solid black ;\">2018-05-04 20:42:21-05</td>\n<td style=\"border: 1px solid black ;\">burnin</td>\n<td style=\"border: 1px solid black ;\">J21</td>\n<td style=\"border: 1px solid black ;\">FAIL</td></tr>\n<tr style=\"background-color: #FFFFDB;\"><td style=\"border: 1px solid black ;\">SSJ18020929</td>\n<td style=\"border: 1px solid black ;\">LFARISASY-91923-204/E0</td>\n<td style=\"border: 1px solid black ;\">637183</td>\n<td style=\"border: 1px solid black ;\">TestSetupFailure: Could not find the usb key. Is it inserted?</td>\n<td style=\"border: 1px solid black ;\">2018-05-05 00:13:12+00</td>\n<td style=\"border: 1px solid black ;\">fvt-configure</td>\n<td style=\"border: 1px solid black ;\">PCA-00979-03</td>\n<td style=\"border: 1px solid black ;\">PASS</td></tr>\n<tr style=\"background-color: #CFCFA3;\"><td style=\"border: 1px solid black ;\">SSJ18163457</td>\n<td style=\"border: 1px solid black ;\">LFARISASY-91923-204/F0</td>\n<td style=\"border: 1px solid black ;\">637183</td>\n<td style=\"border: 1px solid black ;\">FAIL: //testInteractive</td>\n<td style=\"border: 1px solid black ;\">2018-05-05 00:17:03+00</td>\n<td style=\"border: 1px solid black ;\">fvt-interactive</td>\n<td style=\"border: 1px solid black ;\">FRONT LIGHT PIPE</td>\n<td style=\"border: 1px solid black ;\">PASS</td></tr>\n<tr style=\"background-color: #FFFFDB;\"><td style=\"border: 1px solid black ;\">SSJ18163436</td>\n<td style=\"border: 1px solid black ;\">LFARISASY-91923-204/F0</td>\n<td style=\"border: 1px solid black ;\">637183</td>\n<td style=\"border: 1px solid black ;\">PANIC: Failed to get mfgdata for Rear card.</td>\n<td style=\"border: 1px solid black ;\">2018-05-05 00:39:21+00</td>\n<td style=\"border: 1px solid black ;\">fvt-configure</td>\n<td style=\"border: 1px solid black ;\">REAR FAN</td>\n<td style=\"border: 1px solid black ;\">PASS</td></tr>\n<tr style=\"background-color: #CFCFA3;\"><td style=\"border: 1px solid black ;\">SSJ18163741</td>\n<td style=\"border: 1px solid black ;\">LFARISASY-91923-204/F0</td>\n<td style=\"border: 1px solid black ;\">637183</td>\n<td style=\"border: 1px solid black ;\">ScriptBugFailureErrorCode = 87\nScriptBugFailure:</td>\n<td style=\"border: 1px solid black ;\">2018-05-05 00:59:40+00</td>\n<td style=\"border: 1px solid black ;\">fvt-configure</td>\n<td style=\"border: 1px solid black ;\">ROOK</td>\n<td style=\"border: 1px solid black ;\">PASS</td></tr>\n<tr style=\"background-color: #FFFFDB;\"><td style=\"border: 1px solid black ;\">SSJ18080477</td>\n<td style=\"border: 1px solid black ;\">LFARISASY-91923-204/E1</td>\n<td style=\"border: 1px solid black ;\">637183</td>\n<td style=\"border: 1px solid black ;\">==================== Exception raised in 'python /usr/bin/mfg --useDb --station ess --dutType fixed --arss 10.255.253.44 --logDir /log/DCS-7260CX3-64/1808/SSJ18080477/ess/run-4 --logName /log/DCS-7260CX3-64/1808/SSJ18080477/ess/run-4.log --testbed dut10 --asy ASY0250504E0 --pca PCA0094903B0 --sn SSJ18080477 --sku DCS-7260CX3-64 --mac 74:83:ef:6a:17:fa --deviation  --runId 1609959 ' (PID 30825) ====================</td>\n<td style=\"border: 1px solid black ;\">2018-05-05 01:34:23+00</td>\n<td style=\"border: 1px solid black ;\">ess</td>\n<td style=\"border: 1px solid black ;\">CPU CPLD</td>\n<td style=\"border: 1px solid black ;\">PASS</td></tr>\n<tr style=\"background-color: #CFCFA3;\"><td style=\"border: 1px solid black ;\">SSJ18110239</td>\n<td style=\"border: 1px solid black ;\">LFARISASY-51248-208/B0</td>\n<td style=\"border: 1px solid black ;\">628696</td>\n<td style=\"border: 1px solid black ;\">/supervisors/1/test1588InChassis</td>\n<td style=\"border: 1px solid black ;\">2018-05-05 02:07:39+00</td>\n<td style=\"border: 1px solid black ;\">fvt</td>\n<td style=\"border: 1px solid black ;\">J2 U79</td>\n<td style=\"border: 1px solid black ;\">FAIL</td></tr>\n<tr style=\"background-color: #FFFFDB;\"><td style=\"border: 1px solid black ;\">SSJ18179241</td>\n<td style=\"border: 1px solid black ;\">LFARISASY-90916-210/A0</td>\n<td style=\"border: 1px solid black ;\">635083</td>\n<td style=\"border: 1px solid black ;\">==================== Exception raised in 'python /usr/bin/fvt-configure-ptreyes --useDb --arss 10.90.216.31 dut12 --pca  --sn SSJ18179241 --kvn 111 --sku DCS-7260CX-64 --mac 44:4c:a8:7d:f6:70 --asy ASY0181310A0 --logDir /log/DCS-7260CX-64/1817/SSJ18179241/fvt-configure/configure-4 --runId 1601391 --deviation  ' (PID 12803) ====================</td>\n<td style=\"border: 1px solid black ;\">2018-05-05 02:12:46+00</td>\n<td style=\"border: 1px solid black ;\">fvt-configure</td>\n<td style=\"border: 1px solid black ;\">FLASH</td>\n<td style=\"border: 1px solid black ;\">PASS</td></tr>\n<tr style=\"background-color: #CFCFA3;\"><td style=\"border: 1px solid black ;\">SSJ18152242</td>\n<td style=\"border: 1px solid black ;\">LFARISASY-51808-120/A0</td>\n<td style=\"border: 1px solid black ;\">628696</td>\n<td style=\"border: 1px solid black ;\">/fabriccards/1/testLinkUp --prbsTest True --duration 30 --cores [u'None'] --linecards [u'None']</td>\n<td style=\"border: 1px solid black ;\">2018-05-05 02:16:20+00</td>\n<td style=\"border: 1px solid black ;\">burnin</td>\n<td style=\"border: 1px solid black ;\">CHASSIS,ASY LABEL</td>\n<td style=\"border: 1px solid black ;\">FAIL</td></tr>\n<tr style=\"background-color: #FFFFDB;\"><td style=\"border: 1px solid black ;\">SSJ18152028</td>\n<td style=\"border: 1px solid black ;\">LFARISASY-51808-220/A0</td>\n<td style=\"border: 1px solid black ;\">628696</td>\n<td style=\"border: 1px solid black ;\">==================== Exception raised in 'python /usr/bin/mfg --useDb --station fvt-configure --dutType card --arss 10.255.253.43 --logDir /log/7324X-FM/1815/SSJ18152028/fvt-configure/configure-4 --logName /log/7324X-FM/1815/SSJ18152028/fvt-configure/configure-4.log --testbed chassis120-card-fabric3 --asy ASY0180820A0 --pca PCA0072520A0 --sn SSJ18152028 --sku 7324X-FM --mac  --swiName /images/EOS-sequoia.swi --deviation  --runId 1600172 ' (PID 13542) ====================</td>\n<td style=\"border: 1px solid black ;\">2018-05-05 03:26:37+00</td>\n<td style=\"border: 1px solid black ;\">fvt-configure</td>\n<td style=\"border: 1px solid black ;\">U18</td>\n<td style=\"border: 1px solid black ;\">PASS</td></tr>\n<tr style=\"background-color: #CFCFA3;\"><td style=\"border: 1px solid black ;\">SSJ17374720</td>\n<td style=\"border: 1px solid black ;\">LFARISASY-52543-207/A0</td>\n<td style=\"border: 1px solid black ;\">7885</td>\n<td style=\"border: 1px solid black ;\">/linecards/4/programCayenneFpga --filename /usr/share/DosFpgaImages/cayenne-qsfp.ajam</td>\n<td style=\"border: 1px solid black ;\">2018-05-05 08:08:42-05</td>\n<td style=\"border: 1px solid black ;\">fvt-configure</td>\n<td style=\"border: 1px solid black ;\">U201</td>\n<td style=\"border: 1px solid black ;\">PASS</td></tr>\n<tr style=\"background-color: #FFFFDB;\"><td style=\"border: 1px solid black ;\">SSJ18172800</td>\n<td style=\"border: 1px solid black ;\">LFARISASY-71935-205/B0</td>\n<td style=\"border: 1px solid black ;\">633993</td>\n<td style=\"border: 1px solid black ;\">TestSetupFailure: Powering up the board for the first time failed. Unable to connect. Check console/power connections as well as console connector card. If these are good, check CPU/memory.</td>\n<td style=\"border: 1px solid black ;\">2018-05-05 10:19:16-05</td>\n<td style=\"border: 1px solid black ;\">fvt-configure</td>\n<td style=\"border: 1px solid black ;\">L2</td>\n<td style=\"border: 1px solid black ;\">FAIL</td></tr>\n<tr style=\"background-color: #CFCFA3;\"><td style=\"border: 1px solid black ;\">SSJ18163371</td>\n<td style=\"border: 1px solid black ;\">LFARISASY-71947-204/C0</td>\n<td style=\"border: 1px solid black ;\">633993</td>\n<td style=\"border: 1px solid black ;\">/fanChassis/4/fans/1/testFanSpeed, /cpuCard/testCpld</td>\n<td style=\"border: 1px solid black ;\">2018-05-05 14:43:25+00</td>\n<td style=\"border: 1px solid black ;\">fvt</td>\n<td style=\"border: 1px solid black ;\">J7</td>\n<td style=\"border: 1px solid black ;\">PASS</td></tr>\n<tr style=\"background-color: #FFFFDB;\"><td style=\"border: 1px solid black ;\">SSJ18170729</td>\n<td style=\"border: 1px solid black ;\">LFARISASY-90573-212/B0</td>\n<td style=\"border: 1px solid black ;\">633993</td>\n<td style=\"border: 1px solid black ;\">//temp test -t 50</td>\n<td style=\"border: 1px solid black ;\">2018-05-05 15:39:32+00</td>\n<td style=\"border: 1px solid black ;\">burnin</td>\n<td style=\"border: 1px solid black ;\">U15</td>\n<td style=\"border: 1px solid black ;\">PASS</td></tr>\n<tr style=\"background-color: #CFCFA3;\"><td style=\"border: 1px solid black ;\">SSJ18116967</td>\n<td style=\"border: 1px solid black ;\">LFARISASY-91674-206/B0</td>\n<td style=\"border: 1px solid black ;\">634705</td>\n<td style=\"border: 1px solid black ;\">/switchCard/setupTestFull --portMode portMode25G --media Copper --ports range(128)</td>\n<td style=\"border: 1px solid black ;\">2018-05-05 15:47:24+00</td>\n<td style=\"border: 1px solid black ;\">burnin</td>\n<td style=\"border: 1px solid black ;\">J19,J19</td>\n<td style=\"border: 1px solid black ;\">PASS</td></tr>\n<tr style=\"background-color: #FFFFDB;\"><td style=\"border: 1px solid black ;\">SSJ17330556</td>\n<td style=\"border: 1px solid black ;\">LFARISASY-52544-207/A0</td>\n<td style=\"border: 1px solid black ;\">7885</td>\n<td style=\"border: 1px solid black ;\">/linecards/6/testFapMbist</td>\n<td style=\"border: 1px solid black ;\">2018-05-05 16:01:56+00</td>\n<td style=\"border: 1px solid black ;\">fvt</td>\n<td style=\"border: 1px solid black ;\">Q4</td>\n<td style=\"border: 1px solid black ;\">PASS</td></tr>\n<tr style=\"background-color: #CFCFA3;\"><td style=\"border: 1px solid black ;\">SSJ17403630</td>\n<td style=\"border: 1px solid black ;\">LFARISASY-91918-202/A0</td>\n<td style=\"border: 1px solid black ;\">634705</td>\n<td style=\"border: 1px solid black ;\">PANIC: Failed testing the memory size</td>\n<td style=\"border: 1px solid black ;\">2018-05-05 17:25:22+00</td>\n<td style=\"border: 1px solid black ;\">fvt-configure</td>\n<td style=\"border: 1px solid black ;\">MEM-00181</td>\n<td style=\"border: 1px solid black ;\">FAIL</td></tr>\n<tr style=\"background-color: #FFFFDB;\"><td style=\"border: 1px solid black ;\">SSJ18179217</td>\n<td style=\"border: 1px solid black ;\">LFARISASY-90916-210/A0</td>\n<td style=\"border: 1px solid black ;\">635083</td>\n<td style=\"border: 1px solid black ;\">FAIL: /cpuCard/rearLeds/testCountOffLeds</td>\n<td style=\"border: 1px solid black ;\">2018-05-05 18:16:23-05</td>\n<td style=\"border: 1px solid black ;\">fvt-interactive</td>\n<td style=\"border: 1px solid black ;\">D1 -CPU</td>\n<td style=\"border: 1px solid black ;\">PASS</td></tr>\n<tr style=\"background-color: #CFCFA3;\"><td style=\"border: 1px solid black ;\">SSJ18044071</td>\n<td style=\"border: 1px solid black ;\">LFARISASY-90528-208/B0</td>\n<td style=\"border: 1px solid black ;\">627542</td>\n<td style=\"border: 1px solid black ;\">PANIC: Could not boot the latest diagnositc image off of the usb key! This could be a hardware or software problem. Output was:</td>\n<td style=\"border: 1px solid black ;\">2018-05-05 18:20:11-05</td>\n<td style=\"border: 1px solid black ;\">fvt-configure</td>\n<td style=\"border: 1px solid black ;\">REPLACED CPU</td>\n<td style=\"border: 1px solid black ;\">FAIL</td></tr>\n<tr style=\"background-color: #FFFFDB;\"><td style=\"border: 1px solid black ;\">SSJ18122171</td>\n<td style=\"border: 1px solid black ;\">LFARISASY-71947-204/C0</td>\n<td style=\"border: 1px solid black ;\">633993</td>\n<td style=\"border: 1px solid black ;\">TestSetupFailure: Powering up the board for the first time failed. Unable to connect. Check console/power connections as well as console connector card. If these are good, check CPU/memory.</td>\n<td style=\"border: 1px solid black ;\">2018-05-05 18:54:58+00</td>\n<td style=\"border: 1px solid black ;\">fvt-configure</td>\n<td style=\"border: 1px solid black ;\">PCA-00708-02</td>\n<td style=\"border: 1px solid black ;\">PASS</td></tr>\n<tr style=\"background-color: #CFCFA3;\"><td style=\"border: 1px solid black ;\">SSJ18163980</td>\n<td style=\"border: 1px solid black ;\">LFARISASY-90900-210/G0</td>\n<td style=\"border: 1px solid black ;\">634437</td>\n<td style=\"border: 1px solid black ;\">-bash-4.3# PANIC: Failed runInDsh command: /cpuCard/programDpm</td>\n<td style=\"border: 1px solid black ;\">2018-05-05 20:02:30+00</td>\n<td style=\"border: 1px solid black ;\">fvt-configure</td>\n<td style=\"border: 1px solid black ;\">U12</td>\n<td style=\"border: 1px solid black ;\">PASS</td></tr>\n<tr style=\"background-color: #FFFFDB;\"><td style=\"border: 1px solid black ;\">SSJ18133693</td>\n<td style=\"border: 1px solid black ;\">LFARISASY-91923-204/F0</td>\n<td style=\"border: 1px solid black ;\">637183</td>\n<td style=\"border: 1px solid black ;\">==================== Exception raised in 'python /usr/bin/fvt-configure-losangeles --useDb --arss 10.90.216.38 dut22 --sn SSJ18133693 --kvn 111 --sku DCS-7260CX3-64 --mac 74:83:ef:85:dc:d3 --asy ASY0250504F0 --logDir /log/DCS-7260CX3-64/1813/SSJ18133693/fvt-configure/configure-3 --runId 1578967 --deviation  ' (PID 16528) ====================</td>\n<td style=\"border: 1px solid black ;\">2018-05-05 21:21:41+00</td>\n<td style=\"border: 1px solid black ;\">fvt-configure</td>\n<td style=\"border: 1px solid black ;\">J2</td>\n<td style=\"border: 1px solid black ;\">FAIL</td></tr>\n<tr style=\"background-color: #CFCFA3;\"><td style=\"border: 1px solid black ;\">SSJ17409011</td>\n<td style=\"border: 1px solid black ;\">LFARISASY-91878-204/A0</td>\n<td style=\"border: 1px solid black ;\">635083</td>\n<td style=\"border: 1px solid black ;\">//testFeAndFapDco --may-update-prefdl-disabled-lanes, /switchCardLower/faps/4/testKapsBist, /switchCardLower/faps/4/testArmCoreBcmAccel, //</td>\n<td style=\"border: 1px solid black ;\">2018-05-05 23:37:42-05</td>\n<td style=\"border: 1px solid black ;\">fvt</td>\n<td style=\"border: 1px solid black ;\">U61</td>\n<td style=\"border: 1px solid black ;\">FAIL</td></tr>\n<tr style=\"background-color: #FFFFDB;\"><td style=\"border: 1px solid black ;\">SSJ18163710</td>\n<td style=\"border: 1px solid black ;\">LFARISASY-91923-204/F0</td>\n<td style=\"border: 1px solid black ;\">637183</td>\n<td style=\"border: 1px solid black ;\">==================== Exception raised in 'python /usr/bin/fvt-configure-losangeles --useDb --arss 10.255.253.41 dut21 --sn SSJ18163710 --kvn 111 --sku DCS-7260CX3-64 --mac 74:83:ef:a3:c5:08 --asy ASY0250504F0 --logDir /log/DCS-7260CX3-64/1816/SSJ18163710/fvt-configure/configure-2 --runId 1620404 --deviation  ' (PID 11611) ====================</td>\n<td style=\"border: 1px solid black ;\">2018-05-05 23:44:11+00</td>\n<td style=\"border: 1px solid black ;\">fvt-configure</td>\n<td style=\"border: 1px solid black ;\">SSD</td>\n<td style=\"border: 1px solid black ;\">PASS</td></tr>\n<tr style=\"background-color: #CFCFA3;\"><td style=\"border: 1px solid black ;\">SSJ17353503</td>\n<td style=\"border: 1px solid black ;\">LFARISASY-90920-207/A0</td>\n<td style=\"border: 1px solid black ;\">633956</td>\n<td style=\"border: 1px solid black ;\">//testTraffic -l None -s 9216 -d 600 -n 5 --allow --speed 10GBase-T</td>\n<td style=\"border: 1px solid black ;\">2018-05-06 01:04:39+00</td>\n<td style=\"border: 1px solid black ;\">burnin</td>\n<td style=\"border: 1px solid black ;\">C479</td>\n<td style=\"border: 1px solid black ;\">FAIL</td></tr>\n<tr style=\"background-color: #FFFFDB;\"><td style=\"border: 1px solid black ;\">SSJ18163530</td>\n<td style=\"border: 1px solid black ;\">LFARISASY-91923-204/F0</td>\n<td style=\"border: 1px solid black ;\">637183</td>\n<td style=\"border: 1px solid black ;\">==================== Exception raised in 'python /usr/bin/fvt-configure-losangeles --useDb --arss 10.255.253.45 dut11 --sn SSJ18163530 --kvn 111 --sku DCS-7260CX3-64 --mac 74:83:ef:a4:10:30 --asy ASY0250504F0 --logDir /log/DCS-7260CX3-64/1816/SSJ18163530/fvt-configure/configure-1 --runId 1621550 --deviation  ' (PID 11170) ====================</td>\n<td style=\"border: 1px solid black ;\">2018-05-06 03:55:57+00</td>\n<td style=\"border: 1px solid black ;\">fvt-configure</td>\n<td style=\"border: 1px solid black ;\">PCA-00964-02</td>\n<td style=\"border: 1px solid black ;\">PASS</td></tr>\n<tr style=\"background-color: #CFCFA3;\"><td style=\"border: 1px solid black ;\">SSJ17210660</td>\n<td style=\"border: 1px solid black ;\">LFARISASY-90572-211/C0R</td>\n<td style=\"border: 1px solid black ;\">633956</td>\n<td style=\"border: 1px solid black ;\">//testXcvrSmbus, /switchCard/testTraffic --pkts 10G:60,40G:60 --pktSize 64 --duration 30 --ports all --patt 0xa5a4a3a2, /switchCard/testTra</td>\n<td style=\"border: 1px solid black ;\">2018-05-06 04:02:39+00</td>\n<td style=\"border: 1px solid black ;\">fvt</td>\n<td style=\"border: 1px solid black ;\">J13</td>\n<td style=\"border: 1px solid black ;\">FAIL</td></tr>\n<tr style=\"background-color: #FFFFDB;\"><td style=\"border: 1px solid black ;\">SSJ18163630</td>\n<td style=\"border: 1px solid black ;\">LFARISASY-91923-204/F0</td>\n<td style=\"border: 1px solid black ;\">637183</td>\n<td style=\"border: 1px solid black ;\">TestSetupFailure: Aboot programming failed</td>\n<td style=\"border: 1px solid black ;\">2018-05-06 04:24:25+00</td>\n<td style=\"border: 1px solid black ;\">fvt-configure</td>\n<td style=\"border: 1px solid black ;\">ABOOT</td>\n<td style=\"border: 1px solid black ;\">PASS</td></tr>\n<tr style=\"background-color: #CFCFA3;\"><td style=\"border: 1px solid black ;\">SSJ18179225</td>\n<td style=\"border: 1px solid black ;\">LFARISASY-90916-210/A0</td>\n<td style=\"border: 1px solid black ;\">635083</td>\n<td style=\"border: 1px solid black ;\">logger.info( 'Setting chamber temperature to 25C.' )</td>\n<td style=\"border: 1px solid black ;\">2018-05-06 04:26:51+00</td>\n<td style=\"border: 1px solid black ;\">ess</td>\n<td style=\"border: 1px solid black ;\">FAPS5,U26 HEATSINK,RESEAT HEATSINK,RESEAT HEATSINK</td>\n<td style=\"border: 1px solid black ;\">FAIL</td></tr>\n<tr style=\"background-color: #FFFFDB;\"><td style=\"border: 1px solid black ;\">SSJ18163587</td>\n<td style=\"border: 1px solid black ;\">LFARISASY-91923-204/F0</td>\n<td style=\"border: 1px solid black ;\">637183</td>\n<td style=\"border: 1px solid black ;\">//testTraffic -l None -s 9216 -d 300 -n 15 --speed 100G, //testTraffic -l None -s 2048 -d 300 -n 15 --speed 40G, //testTraffic -l None -s 2</td>\n<td style=\"border: 1px solid black ;\">2018-05-06 04:35:26+00</td>\n<td style=\"border: 1px solid black ;\">fvt</td>\n<td style=\"border: 1px solid black ;\">J19</td>\n<td style=\"border: 1px solid black ;\">PASS</td></tr>\n<tr style=\"background-color: #CFCFA3;\"><td style=\"border: 1px solid black ;\">SSJ18179219</td>\n<td style=\"border: 1px solid black ;\">LFARISASY-90916-210/A0</td>\n<td style=\"border: 1px solid black ;\">635083</td>\n<td style=\"border: 1px solid black ;\">PANIC: Failed testing the memory size</td>\n<td style=\"border: 1px solid black ;\">2018-05-06 04:42:28+00</td>\n<td style=\"border: 1px solid black ;\">fvt-configure</td>\n<td style=\"border: 1px solid black ;\">U48 - CPU</td>\n<td style=\"border: 1px solid black ;\">PASS</td></tr>\n</table>\n", 
    "prod_nums": [
        41, 
        24, 
        24, 
        22, 
        16, 
        16, 
        10, 
        9, 
        8, 
        7, 
        7, 
        7, 
        5, 
        3, 
        1
    ], 
    "topFails": {
        "counts": [
            9, 
            6, 
            3, 
            3, 
            2
        ], 
        "labels": [
            "FAIL: //testInteractive", 
            "//testTraffic -l None --allow --cells --belk -d ", 
            "ScriptBugFailureErrorCode = \nScriptBugFailure:", 
            "FAIL:             GPI Fault                  \t::.", 
            "TestSetupFailure: Powering up the board for the first time failed. Unable to connect. Check console/power connections as well as console connector card. If these are good, check CPU/memory."
        ], 
        "xlabels": [
            {
                "text": "FAIL: //testInteractive"
            }, 
            {
                "text": "//testTraffic -l None --a"
            }, 
            {
                "text": "ScriptBugFailureErrorCode"
            }, 
            {
                "text": "FAIL:             GPI Fau"
            }, 
            {
                "text": "TestSetupFailure: Powerin"
            }
        ]
    }, 
    "Accs": [
        75.76, 
        63.16, 
        62.5, 
        52.94, 
        88.89, 
        88.89, 
        83.33, 
        55.56, 
        66.67, 
        42.86, 
        60.0, 
        66.67, 
        25.0, 
        25.0, 
        0.0
    ]
}