{
    "Fails": [
        18.52, 
        25.0, 
        7.69, 
        33.33, 
        21.43, 
        23.08, 
        0.0, 
        33.33, 
        25.0, 
        50.0, 
        0.0, 
        66.67, 
        50.0, 
        75.0, 
        50.0, 
        0.0, 
        100.0, 
        100.0
    ], 
    "numFail": [
        5, 
        6, 
        1, 
        6, 
        3, 
        3, 
        0, 
        2, 
        1, 
        3, 
        0, 
        2, 
        1, 
        3, 
        1, 
        0, 
        2, 
        3
    ], 
    "numPass": [
        22, 
        18, 
        12, 
        12, 
        11, 
        10, 
        4, 
        4, 
        3, 
        3, 
        1, 
        1, 
        1, 
        1, 
        1, 
        1, 
        0, 
        0
    ], 
    "Labels": [
        "634663", 
        "637183", 
        "633872", 
        "7885", 
        "633993", 
        "633956", 
        "636479", 
        "635083", 
        "634437", 
        "627542", 
        "636874", 
        "635157", 
        "628696", 
        "622377", 
        "634788", 
        "636107", 
        "632861", 
        "634705"
    ], 
    "Quart": "2018_W47", 
    "topFixes": {
        "counts": [
            7, 
            4, 
            3, 
            3, 
            2
        ], 
        "labels": [
            "EJECTOR CHASSIS", 
            "J4", 
            "CPU CARD", 
            "J6", 
            "U19"
        ]
    }, 
    "prod_labels": [
        "634663", 
        "637183", 
        "633956", 
        "7885", 
        "633993", 
        "633872", 
        "634705", 
        "627542", 
        "635083", 
        "622377", 
        "635157", 
        "634788", 
        "634437", 
        "636479", 
        "636874", 
        "628696", 
        "632861", 
        "146360", 
        "636107"
    ], 
    "failsWithTest": {
        "ess": [
            [
                0, 
                0, 
                3, 
                0, 
                2
            ], 
            [
                "", 
                "", 
                "EJECTOR CHASSIS", 
                "", 
                "CPU CARD"
            ]
        ], 
        "fst-interactive": [
            [
                0, 
                0, 
                0, 
                0, 
                0
            ], 
            [
                "", 
                "", 
                "", 
                "", 
                ""
            ]
        ], 
        "edvt": [
            [
                0, 
                0, 
                0, 
                0, 
                0
            ], 
            [
                "", 
                "", 
                "", 
                "", 
                ""
            ]
        ], 
        "fvt-configure": [
            [
                0, 
                0, 
                0, 
                3, 
                0
            ], 
            [
                "", 
                "", 
                "", 
                "R3134,C1130", 
                ""
            ]
        ], 
        "burnin": [
            [
                0, 
                0, 
                0, 
                1, 
                1
            ], 
            [
                "", 
                "", 
                "", 
                "U9", 
                "HEAT SINK"
            ]
        ], 
        "fvt": [
            [
                9, 
                0, 
                3, 
                1, 
                0
            ], 
            [
                "FAN1 TO FAN2,RESEAT FAN2,FAN1,FAN2,FAN7,FAN8,FAN 6,FAN 4", 
                "", 
                "EJECTOR CHASSIS", 
                "U169,U170", 
                ""
            ]
        ], 
        "fvt-interactive": [
            [
                0, 
                6, 
                0, 
                0, 
                0
            ], 
            [
                "", 
                "LIGHT PIPE,D9,D4,VERIFY OK,J9", 
                "", 
                "", 
                ""
            ]
        ]
    }, 
    "table": "<br><table style=\"border: 1px solid black ;border-collapse:collapse;font-size: small;\">\n\t\t\t\t\t\t<tr style=\"background-color: #CFCFA3;\">\n\t\t\t\t\t\t\t<th style=\"border: 1px solid black ;\">Serial Number</th>\n\t\t\t\t\t\t\t<th style=\"border: 1px solid black ;\">Part Number</th>\n\t\t\t\t\t\t\t<th style=\"border: 1px solid black ;\">Tech</th>\n\t\t\t\t\t\t\t<th style=\"border: 1px solid black ;\">Fail Text</th>\n\t\t\t\t\t\t\t<th style=\"border: 1px solid black ;\">Debug Time</th>\n\t\t\t\t\t\t\t<th style=\"border: 1px solid black ;\">Failed Test</th>\n\t\t\t\t\t\t\t<th style=\"border: 1px solid black ;\">Fix</th>\n\t\t\t\t\t\t\t<th style=\"border: 1px solid black ;\">Pass/Fail</th>\n\t\t\t\t\t\t</tr><tr style=\"background-color: #FFFFDB;\"><td style=\"border: 1px solid black ;\">SSJ18450608</td>\n<td style=\"border: 1px solid black ;\">LFARISASY-51704-115/A1</td>\n<td style=\"border: 1px solid black ;\">634663</td>\n<td style=\"border: 1px solid black ;\">/linecards/6/tridentFvtTest --intervals 2 --verbose 0 --duration 180 --pwm 100</td>\n<td style=\"border: 1px solid black ;\">2018-11-19 08:51:32-06</td>\n<td style=\"border: 1px solid black ;\">burnin</td>\n<td style=\"border: 1px solid black ;\">J4</td>\n<td style=\"border: 1px solid black ;\">PASS</td></tr>\n<tr style=\"background-color: #CFCFA3;\"><td style=\"border: 1px solid black ;\">SSJ18450784</td>\n<td style=\"border: 1px solid black ;\">LFARISASY-50827-107/A1</td>\n<td style=\"border: 1px solid black ;\">634663</td>\n<td style=\"border: 1px solid black ;\">##! INVALID SETUP: Reported by test /linecards/4/loopbackPresenceTest ==> Missing/Faulty loopbacks in front panel ports 25, 29</td>\n<td style=\"border: 1px solid black ;\">2018-11-19 10:22:01-06</td>\n<td style=\"border: 1px solid black ;\">fvt</td>\n<td style=\"border: 1px solid black ;\">J18,J19</td>\n<td style=\"border: 1px solid black ;\">PASS</td></tr>\n<tr style=\"background-color: #FFFFDB;\"><td style=\"border: 1px solid black ;\">SSJ18421995</td>\n<td style=\"border: 1px solid black ;\">LFARISASY-51704-115/A1</td>\n<td style=\"border: 1px solid black ;\">634663</td>\n<td style=\"border: 1px solid black ;\">##! INVALID SETUP: Reported by test /linecards/8/testLinkUp --duration 30 --prbsTest True --fanPwm 100 ==> Try re-inserting/replacing the loopbacks in the following ports and retesting:</td>\n<td style=\"border: 1px solid black ;\">2018-11-19 10:47:11-06</td>\n<td style=\"border: 1px solid black ;\">ess</td>\n<td style=\"border: 1px solid black ;\">J17</td>\n<td style=\"border: 1px solid black ;\">FAIL</td></tr>\n<tr style=\"background-color: #CFCFA3;\"><td style=\"border: 1px solid black ;\">SSJ18372602</td>\n<td style=\"border: 1px solid black ;\">LFARISASY-91939-110/A0</td>\n<td style=\"border: 1px solid black ;\">622377</td>\n<td style=\"border: 1px solid black ;\">//initialize</td>\n<td style=\"border: 1px solid black ;\">2018-11-19 10:47:28-06</td>\n<td style=\"border: 1px solid black ;\">burnin</td>\n<td style=\"border: 1px solid black ;\">U6</td>\n<td style=\"border: 1px solid black ;\">FAIL</td></tr>\n<tr style=\"background-color: #FFFFDB;\"><td style=\"border: 1px solid black ;\">SSJ18450353</td>\n<td style=\"border: 1px solid black ;\">LFARISASY-51704-115/A1</td>\n<td style=\"border: 1px solid black ;\">634663</td>\n<td style=\"border: 1px solid black ;\">TestSetupFailure: Could not connect to the console on supervisor10-2. Check that it is connected and powered on.</td>\n<td style=\"border: 1px solid black ;\">2018-11-19 11:24:51-06</td>\n<td style=\"border: 1px solid black ;\">burnin</td>\n<td style=\"border: 1px solid black ;\">J4</td>\n<td style=\"border: 1px solid black ;\">PASS</td></tr>\n<tr style=\"background-color: #CFCFA3;\"><td style=\"border: 1px solid black ;\">SSJ17369054</td>\n<td style=\"border: 1px solid black ;\">LFARISASY-71943-101/B0R</td>\n<td style=\"border: 1px solid black ;\">636479</td>\n<td style=\"border: 1px solid black ;\">//power test voltage low, //testTraffic -l None -d 60 -s 512 --allow --no-ocb, //testTraffic -l None -d 300 -s 64 --allow --cells --no-ocb</td>\n<td style=\"border: 1px solid black ;\">2018-11-19 11:35:59-06</td>\n<td style=\"border: 1px solid black ;\">fvt</td>\n<td style=\"border: 1px solid black ;\">CPU CARD</td>\n<td style=\"border: 1px solid black ;\">PASS</td></tr>\n<tr style=\"background-color: #FFFFDB;\"><td style=\"border: 1px solid black ;\">SSJ18440479</td>\n<td style=\"border: 1px solid black ;\">LFARISASY-51446-110/B1</td>\n<td style=\"border: 1px solid black ;\">633872</td>\n<td style=\"border: 1px solid black ;\">[2018-11-14 14:22:32 UTC] ##! INVALID SETUP: Reported by test /fabriccards/2/testEjectorClosed ==> Card ejector open. Please close ejector.</td>\n<td style=\"border: 1px solid black ;\">2018-11-19 12:01:40-06</td>\n<td style=\"border: 1px solid black ;\">ess</td>\n<td style=\"border: 1px solid black ;\">EJECTOR CHASSIS</td>\n<td style=\"border: 1px solid black ;\">PASS</td></tr>\n<tr style=\"background-color: #CFCFA3;\"><td style=\"border: 1px solid black ;\">SSJ18441564</td>\n<td style=\"border: 1px solid black ;\">LFARISASY-52576-204/B0</td>\n<td style=\"border: 1px solid black ;\">7885</td>\n<td style=\"border: 1px solid black ;\">/linecards/4/testDramBist, /linecards/4/testDramBist, /linecards/4/testPrbs -l None -d 300 --mode Prbs31 --allow --fabric --continuous --be</td>\n<td style=\"border: 1px solid black ;\">2018-11-19 12:38:26-06</td>\n<td style=\"border: 1px solid black ;\">edvt</td>\n<td style=\"border: 1px solid black ;\">U97</td>\n<td style=\"border: 1px solid black ;\">PASS</td></tr>\n<tr style=\"background-color: #FFFFDB;\"><td style=\"border: 1px solid black ;\">SSJ18324916</td>\n<td style=\"border: 1px solid black ;\">LFARISASY-51704-115/A1</td>\n<td style=\"border: 1px solid black ;\">634663</td>\n<td style=\"border: 1px solid black ;\">##! INVALID SETUP: Reported by test /linecards/3/testLinkUp --duration 30 --prbsTest True --fanPwm 100 ==></td>\n<td style=\"border: 1px solid black ;\">2018-11-19 12:57:12-06</td>\n<td style=\"border: 1px solid black ;\">fvt</td>\n<td style=\"border: 1px solid black ;\">U52</td>\n<td style=\"border: 1px solid black ;\">PASS</td></tr>\n<tr style=\"background-color: #CFCFA3;\"><td style=\"border: 1px solid black ;\">SSJ18450690</td>\n<td style=\"border: 1px solid black ;\">LFARISASY-50827-107/A1</td>\n<td style=\"border: 1px solid black ;\">634663</td>\n<td style=\"border: 1px solid black ;\">/linecards/8/showTemp, /linecards/8/tempSensorFaultTest, /linecards/8/showTemp, /linecards/8/fvtTest --verbose 0, /linecards/8/showTemp</td>\n<td style=\"border: 1px solid black ;\">2018-11-19 13:01:17-06</td>\n<td style=\"border: 1px solid black ;\">fvt</td>\n<td style=\"border: 1px solid black ;\">U8</td>\n<td style=\"border: 1px solid black ;\">PASS</td></tr>\n<tr style=\"background-color: #FFFFDB;\"><td style=\"border: 1px solid black ;\">SSJ18422618</td>\n<td style=\"border: 1px solid black ;\">LFARISASY-52787-104/A0</td>\n<td style=\"border: 1px solid black ;\">7885</td>\n<td style=\"border: 1px solid black ;\">/linecards/4/testTraffic -l None -d 300 -s 9208 --allow, /linecards/4/testTraffic -l None -d 90 -s 64 --allow --cells --no-ocb, /linecards/</td>\n<td style=\"border: 1px solid black ;\">2018-11-19 13:22:29-06</td>\n<td style=\"border: 1px solid black ;\">fvt</td>\n<td style=\"border: 1px solid black ;\">LB14</td>\n<td style=\"border: 1px solid black ;\">FAIL</td></tr>\n<tr style=\"background-color: #CFCFA3;\"><td style=\"border: 1px solid black ;\">SSJ18441979</td>\n<td style=\"border: 1px solid black ;\">LFARISASY-52787-104/A0</td>\n<td style=\"border: 1px solid black ;\">7885</td>\n<td style=\"border: 1px solid black ;\">/linecards/7/testPrbs -l None -d 300 --mode Prbs31 --allow --fabric, /linecards/7/testTraffic -l Phy -d 60 -s 512 --allow --no-ocb, /lineca</td>\n<td style=\"border: 1px solid black ;\">2018-11-19 14:14:17+00</td>\n<td style=\"border: 1px solid black ;\">fvt</td>\n<td style=\"border: 1px solid black ;\">J2</td>\n<td style=\"border: 1px solid black ;\">FAIL</td></tr>\n<tr style=\"background-color: #FFFFDB;\"><td style=\"border: 1px solid black ;\">SSJ18354232</td>\n<td style=\"border: 1px solid black ;\">LFARISASY-90921-107/B0</td>\n<td style=\"border: 1px solid black ;\">633993</td>\n<td style=\"border: 1px solid black ;\">//testTraffic -l None -s 9216 -d 120 -n 5 --allow --speed 10GBase-T, //testTraffic -l None -s 512 -d 120 -n 25 --allow --speed 10GBase-T</td>\n<td style=\"border: 1px solid black ;\">2018-11-19 14:56:37+00</td>\n<td style=\"border: 1px solid black ;\">fvt</td>\n<td style=\"border: 1px solid black ;\">LOOPBACK</td>\n<td style=\"border: 1px solid black ;\">PASS</td></tr>\n<tr style=\"background-color: #CFCFA3;\"><td style=\"border: 1px solid black ;\">SSJ18450611</td>\n<td style=\"border: 1px solid black ;\">LFARISASY-51704-115/A1</td>\n<td style=\"border: 1px solid black ;\">634663</td>\n<td style=\"border: 1px solid black ;\">##! INVALID SETUP: Reported by test /linecards/6/testLinkUp --duration 30 --prbsTest True --fanPwm 100 ==></td>\n<td style=\"border: 1px solid black ;\">2018-11-19 15:03:43+00</td>\n<td style=\"border: 1px solid black ;\">ess</td>\n<td style=\"border: 1px solid black ;\">J5</td>\n<td style=\"border: 1px solid black ;\">PASS</td></tr>\n<tr style=\"background-color: #FFFFDB;\"><td style=\"border: 1px solid black ;\">SSJ18296417</td>\n<td style=\"border: 1px solid black ;\">LFARISASY-91911-110/A1</td>\n<td style=\"border: 1px solid black ;\">622377</td>\n<td style=\"border: 1px solid black ;\">/switchCard/testPrbs -l None -r 25GBase -d 120 --allow-mix-speeds</td>\n<td style=\"border: 1px solid black ;\">2018-11-19 16:15:27-06</td>\n<td style=\"border: 1px solid black ;\">burnin</td>\n<td style=\"border: 1px solid black ;\">U44</td>\n<td style=\"border: 1px solid black ;\">FAIL</td></tr>\n<tr style=\"background-color: #CFCFA3;\"><td style=\"border: 1px solid black ;\">SSJ18322522</td>\n<td style=\"border: 1px solid black ;\">LFARISASY-52576-204/B0</td>\n<td style=\"border: 1px solid black ;\">7885</td>\n<td style=\"border: 1px solid black ;\">/linecards/3/testPrbs -l None -d 300 --mode Prbs31 --allow --fabric --belk --sflow, /linecards/3/testTraffic -l None -d 300 -s 9208 --allow</td>\n<td style=\"border: 1px solid black ;\">2018-11-19 16:46:16+00</td>\n<td style=\"border: 1px solid black ;\">fvt</td>\n<td style=\"border: 1px solid black ;\">LB28</td>\n<td style=\"border: 1px solid black ;\">PASS</td></tr>\n<tr style=\"background-color: #FFFFDB;\"><td style=\"border: 1px solid black ;\">SSJ17379048</td>\n<td style=\"border: 1px solid black ;\">LFARISASY-71943-101/B0R</td>\n<td style=\"border: 1px solid black ;\">636479</td>\n<td style=\"border: 1px solid black ;\">TestSetupFailure: Failed to get root login to the dut due to timeout. Details: Timeout (600 seconds) trying to discover the current mode but got</td>\n<td style=\"border: 1px solid black ;\">2018-11-19 16:57:27+00</td>\n<td style=\"border: 1px solid black ;\">ess</td>\n<td style=\"border: 1px solid black ;\">CPU CARD</td>\n<td style=\"border: 1px solid black ;\">PASS</td></tr>\n<tr style=\"background-color: #CFCFA3;\"><td style=\"border: 1px solid black ;\">SSJ18442150</td>\n<td style=\"border: 1px solid black ;\">LFARISASY-52543-209/A0</td>\n<td style=\"border: 1px solid black ;\">632861</td>\n<td style=\"border: 1px solid black ;\">/linecards/4/testPrbs -l None -d 300 --mode Prbs31 --allow --fabric --belk --sflow, /linecards/4/testTraffic -l None -d 300 -s 9208 --allow</td>\n<td style=\"border: 1px solid black ;\">2018-11-19 17:00:19+00</td>\n<td style=\"border: 1px solid black ;\">fvt</td>\n<td style=\"border: 1px solid black ;\">J17,J22</td>\n<td style=\"border: 1px solid black ;\">FAIL</td></tr>\n<tr style=\"background-color: #FFFFDB;\"><td style=\"border: 1px solid black ;\">SSJ18450320</td>\n<td style=\"border: 1px solid black ;\">LFARISASY-51704-115/A1</td>\n<td style=\"border: 1px solid black ;\">634663</td>\n<td style=\"border: 1px solid black ;\">TestSetupFailure: Could not connect to the console on supervisor10-2. Check that it is connected and powered on.</td>\n<td style=\"border: 1px solid black ;\">2018-11-19 17:02:01+00</td>\n<td style=\"border: 1px solid black ;\">burnin</td>\n<td style=\"border: 1px solid black ;\">J6,J7</td>\n<td style=\"border: 1px solid black ;\">PASS</td></tr>\n<tr style=\"background-color: #CFCFA3;\"><td style=\"border: 1px solid black ;\">SSJ18450411</td>\n<td style=\"border: 1px solid black ;\">LFARISASY-51704-115/A1</td>\n<td style=\"border: 1px solid black ;\">634663</td>\n<td style=\"border: 1px solid black ;\">/linecards/9/testLinkUp --duration 30 --prbsTest True --fanPwm 100, /linecards/9/dumpSerdesSetting --debug True --neighbor True, /linecards</td>\n<td style=\"border: 1px solid black ;\">2018-11-19 17:06:50+00</td>\n<td style=\"border: 1px solid black ;\">burnin</td>\n<td style=\"border: 1px solid black ;\">J4,J7</td>\n<td style=\"border: 1px solid black ;\">PASS</td></tr>\n<tr style=\"background-color: #FFFFDB;\"><td style=\"border: 1px solid black ;\">SSJ18296076</td>\n<td style=\"border: 1px solid black ;\">LFARISASY-52544-108/A0</td>\n<td style=\"border: 1px solid black ;\">7885</td>\n<td style=\"border: 1px solid black ;\">/linecards/7/testFapMbist</td>\n<td style=\"border: 1px solid black ;\">2018-11-19 17:19:51+00</td>\n<td style=\"border: 1px solid black ;\">fvt</td>\n<td style=\"border: 1px solid black ;\">C699</td>\n<td style=\"border: 1px solid black ;\">PASS</td></tr>\n<tr style=\"background-color: #CFCFA3;\"><td style=\"border: 1px solid black ;\">SSJ18442619</td>\n<td style=\"border: 1px solid black ;\">LFARISASY-91919-102/B0</td>\n<td style=\"border: 1px solid black ;\">633956</td>\n<td style=\"border: 1px solid black ;\">FAIL: //testInteractive</td>\n<td style=\"border: 1px solid black ;\">2018-11-19 17:27:58-06</td>\n<td style=\"border: 1px solid black ;\">fvt-interactive</td>\n<td style=\"border: 1px solid black ;\">D4</td>\n<td style=\"border: 1px solid black ;\">PASS</td></tr>\n<tr style=\"background-color: #FFFFDB;\"><td style=\"border: 1px solid black ;\">SSJ18452027</td>\n<td style=\"border: 1px solid black ;\">LFARISASY-52787-104/A0</td>\n<td style=\"border: 1px solid black ;\">7885</td>\n<td style=\"border: 1px solid black ;\">/linecards/5/init2</td>\n<td style=\"border: 1px solid black ;\">2018-11-19 17:41:09+00</td>\n<td style=\"border: 1px solid black ;\">ess</td>\n<td style=\"border: 1px solid black ;\">L59</td>\n<td style=\"border: 1px solid black ;\">FAIL</td></tr>\n<tr style=\"background-color: #CFCFA3;\"><td style=\"border: 1px solid black ;\">SSJ18440503</td>\n<td style=\"border: 1px solid black ;\">LFARISASY-51446-110/B1</td>\n<td style=\"border: 1px solid black ;\">633872</td>\n<td style=\"border: 1px solid black ;\">[2018-11-14 23:57:49 UTC] ##! INVALID SETUP: Reported by test /fabriccards/6/testEjectorClosed ==> Card ejector open. Please close ejector.</td>\n<td style=\"border: 1px solid black ;\">2018-11-19 17:44:08+00</td>\n<td style=\"border: 1px solid black ;\">ess</td>\n<td style=\"border: 1px solid black ;\">EJECTOR CHASSIS</td>\n<td style=\"border: 1px solid black ;\">PASS</td></tr>\n<tr style=\"background-color: #FFFFDB;\"><td style=\"border: 1px solid black ;\">SSJ18440091</td>\n<td style=\"border: 1px solid black ;\">LFARISASY-51446-110/B1</td>\n<td style=\"border: 1px solid black ;\">633872</td>\n<td style=\"border: 1px solid black ;\">[2018-11-15 02:54:50 UTC] ##! INVALID SETUP: Reported by test /fabriccards/4/testEjectorClosed ==> Card ejector open. Please close ejector.</td>\n<td style=\"border: 1px solid black ;\">2018-11-19 17:47:47+00</td>\n<td style=\"border: 1px solid black ;\">ess</td>\n<td style=\"border: 1px solid black ;\">EJECTOR CHASSIS</td>\n<td style=\"border: 1px solid black ;\">PASS</td></tr>\n<tr style=\"background-color: #CFCFA3;\"><td style=\"border: 1px solid black ;\">SSJ18450696</td>\n<td style=\"border: 1px solid black ;\">LFARISASY-50827-107/A1</td>\n<td style=\"border: 1px solid black ;\">634663</td>\n<td style=\"border: 1px solid black ;\">/linecards/6/testLinkReady</td>\n<td style=\"border: 1px solid black ;\">2018-11-19 17:52:01+00</td>\n<td style=\"border: 1px solid black ;\">fvt</td>\n<td style=\"border: 1px solid black ;\">Z006</td>\n<td style=\"border: 1px solid black ;\">FAIL</td></tr>\n<tr style=\"background-color: #FFFFDB;\"><td style=\"border: 1px solid black ;\">SSJ18380034</td>\n<td style=\"border: 1px solid black ;\">LFARISASY-52787-104/A0</td>\n<td style=\"border: 1px solid black ;\">632861</td>\n<td style=\"border: 1px solid black ;\">/linecards/5/testTraffic -l None -d 90 -s 64 --allow --cells --no-ocb, /linecards/5/testTraffic -l None -d 90 -s 64 --allow --cells-to-fabr</td>\n<td style=\"border: 1px solid black ;\">2018-11-19 18:11:27+00</td>\n<td style=\"border: 1px solid black ;\">fvt</td>\n<td style=\"border: 1px solid black ;\">U308</td>\n<td style=\"border: 1px solid black ;\">FAIL</td></tr>\n<tr style=\"background-color: #CFCFA3;\"><td style=\"border: 1px solid black ;\">SSJ18432787</td>\n<td style=\"border: 1px solid black ;\">LFARISASY-52062-108/B0</td>\n<td style=\"border: 1px solid black ;\">637183</td>\n<td style=\"border: 1px solid black ;\">/fabriccards/3/testPrbs --duration 1800 --mode FecAuto --continuous True</td>\n<td style=\"border: 1px solid black ;\">2018-11-19 18:26:00-06</td>\n<td style=\"border: 1px solid black ;\">ess</td>\n<td style=\"border: 1px solid black ;\">J9</td>\n<td style=\"border: 1px solid black ;\">PASS</td></tr>\n<tr style=\"background-color: #FFFFDB;\"><td style=\"border: 1px solid black ;\">SSJ18225103</td>\n<td style=\"border: 1px solid black ;\">LFARISASY-52527-104/B1</td>\n<td style=\"border: 1px solid black ;\">633872</td>\n<td style=\"border: 1px solid black ;\">/fabriccards/5/initialize, /fabriccards/5/testPrbs --duration 300 --continuous False</td>\n<td style=\"border: 1px solid black ;\">2018-11-19 18:36:16+00</td>\n<td style=\"border: 1px solid black ;\">fvt</td>\n<td style=\"border: 1px solid black ;\">U99</td>\n<td style=\"border: 1px solid black ;\">PASS</td></tr>\n<tr style=\"background-color: #CFCFA3;\"><td style=\"border: 1px solid black ;\">SSJ18450769</td>\n<td style=\"border: 1px solid black ;\">LFARISASY-50827-107/A1</td>\n<td style=\"border: 1px solid black ;\">634663</td>\n<td style=\"border: 1px solid black ;\">##! INVALID SETUP: Reported by test /linecards/5/loopbackPresenceTest ==> Missing/Faulty loopbacks in front panel ports 7</td>\n<td style=\"border: 1px solid black ;\">2018-11-19 18:36:40+00</td>\n<td style=\"border: 1px solid black ;\">fvt</td>\n<td style=\"border: 1px solid black ;\">J18</td>\n<td style=\"border: 1px solid black ;\">PASS</td></tr>\n<tr style=\"background-color: #FFFFDB;\"><td style=\"border: 1px solid black ;\">SSJ18326370</td>\n<td style=\"border: 1px solid black ;\">LFARISASY-91923-104/F0</td>\n<td style=\"border: 1px solid black ;\">637183</td>\n<td style=\"border: 1px solid black ;\">//testTraffic -l None -s 9216 -d 300 -n 15 --speed 100G, //testTraffic -l None -s 245 -d 300 -n auto --speed 100G --ppm 400000, /switchCard</td>\n<td style=\"border: 1px solid black ;\">2018-11-19 19:22:38-06</td>\n<td style=\"border: 1px solid black ;\">fvt</td>\n<td style=\"border: 1px solid black ;\">J19</td>\n<td style=\"border: 1px solid black ;\">FAIL</td></tr>\n<tr style=\"background-color: #CFCFA3;\"><td style=\"border: 1px solid black ;\">SSJ18197739</td>\n<td style=\"border: 1px solid black ;\">LFARISASY-51704-111/A1</td>\n<td style=\"border: 1px solid black ;\">634663</td>\n<td style=\"border: 1px solid black ;\">/linecards/9/testLinkReady</td>\n<td style=\"border: 1px solid black ;\">2018-11-19 20:15:45+00</td>\n<td style=\"border: 1px solid black ;\">fvt</td>\n<td style=\"border: 1px solid black ;\">U52</td>\n<td style=\"border: 1px solid black ;\">PASS</td></tr>\n<tr style=\"background-color: #FFFFDB;\"><td style=\"border: 1px solid black ;\">SSJ18441353</td>\n<td style=\"border: 1px solid black ;\">LFARISASY-52121-107/B0</td>\n<td style=\"border: 1px solid black ;\">634437</td>\n<td style=\"border: 1px solid black ;\">/supervisors/1/testStorageDevices, /supervisors/1/testStorageDevices</td>\n<td style=\"border: 1px solid black ;\">2018-11-19 20:19:38+00</td>\n<td style=\"border: 1px solid black ;\">ess</td>\n<td style=\"border: 1px solid black ;\">J6,J6</td>\n<td style=\"border: 1px solid black ;\">PASS</td></tr>\n<tr style=\"background-color: #CFCFA3;\"><td style=\"border: 1px solid black ;\">SSJ18402728</td>\n<td style=\"border: 1px solid black ;\">LFARISASY-52121-107/B0</td>\n<td style=\"border: 1px solid black ;\">634437</td>\n<td style=\"border: 1px solid black ;\">PANIC: Unable to get into aboot mode. This could mean an unprogrammed boot flash, a bad processor or memory, or a power problem.</td>\n<td style=\"border: 1px solid black ;\">2018-11-19 20:26:58+00</td>\n<td style=\"border: 1px solid black ;\">fvt-configure</td>\n<td style=\"border: 1px solid black ;\">U65</td>\n<td style=\"border: 1px solid black ;\">PASS</td></tr>\n<tr style=\"background-color: #FFFFDB;\"><td style=\"border: 1px solid black ;\">SSJ18442390</td>\n<td style=\"border: 1px solid black ;\">LFARISASY-52544-109/A0</td>\n<td style=\"border: 1px solid black ;\">7885</td>\n<td style=\"border: 1px solid black ;\">/linecards/3/testPrbs -l None -d 300 --mode Prbs31 --allow --fabric --continuous, /linecards/3/testTraffic -l None -d 300 -s 9208 --allow,</td>\n<td style=\"border: 1px solid black ;\">2018-11-19 20:35:05+00</td>\n<td style=\"border: 1px solid black ;\">ess</td>\n<td style=\"border: 1px solid black ;\">J23</td>\n<td style=\"border: 1px solid black ;\">PASS</td></tr>\n<tr style=\"background-color: #CFCFA3;\"><td style=\"border: 1px solid black ;\">SSJ18442709</td>\n<td style=\"border: 1px solid black ;\">LFARISASY-91919-102/B0</td>\n<td style=\"border: 1px solid black ;\">633993</td>\n<td style=\"border: 1px solid black ;\">/fanChassis/4/fans/1/testFanSpeed, /cpuCard/testCpld</td>\n<td style=\"border: 1px solid black ;\">2018-11-19 20:37:29+00</td>\n<td style=\"border: 1px solid black ;\">fvt</td>\n<td style=\"border: 1px solid black ;\">R304</td>\n<td style=\"border: 1px solid black ;\">PASS</td></tr>\n<tr style=\"background-color: #FFFFDB;\"><td style=\"border: 1px solid black ;\">SSJ18413639</td>\n<td style=\"border: 1px solid black ;\">LFARISASY-91932-101/B0</td>\n<td style=\"border: 1px solid black ;\">633956</td>\n<td style=\"border: 1px solid black ;\">/switchCard/testTraffic -d 30 -s 128 -l None -r 1GBase-T --allow -n 50 -p 1,2,3,4,9,10,11,12,17,18,19,20,25,26,27,28,33,34,35,36, /switchCa</td>\n<td style=\"border: 1px solid black ;\">2018-11-19 20:50:56-06</td>\n<td style=\"border: 1px solid black ;\">fvt</td>\n<td style=\"border: 1px solid black ;\">J36</td>\n<td style=\"border: 1px solid black ;\">FAIL</td></tr>\n<tr style=\"background-color: #CFCFA3;\"><td style=\"border: 1px solid black ;\">SSJ18322480</td>\n<td style=\"border: 1px solid black ;\">LFARISASY-91907-103/E0</td>\n<td style=\"border: 1px solid black ;\">633993</td>\n<td style=\"border: 1px solid black ;\">TestSetupFailure: Failed to get root login to the dut due to timeout. Details: Timeout (600 seconds) trying to discover the current mode but got</td>\n<td style=\"border: 1px solid black ;\">2018-11-19 21:05:35+00</td>\n<td style=\"border: 1px solid black ;\">burnin</td>\n<td style=\"border: 1px solid black ;\">HEAT SINK</td>\n<td style=\"border: 1px solid black ;\">PASS</td></tr>\n<tr style=\"background-color: #FFFFDB;\"><td style=\"border: 1px solid black ;\">SSJ18238563</td>\n<td style=\"border: 1px solid black ;\">LFARISASY-91674-106/B0</td>\n<td style=\"border: 1px solid black ;\">622377</td>\n<td style=\"border: 1px solid black ;\">//initialize</td>\n<td style=\"border: 1px solid black ;\">2018-11-19 21:07:57+00</td>\n<td style=\"border: 1px solid black ;\">burnin</td>\n<td style=\"border: 1px solid black ;\">J3</td>\n<td style=\"border: 1px solid black ;\">FAIL</td></tr>\n<tr style=\"background-color: #CFCFA3;\"><td style=\"border: 1px solid black ;\">SSJ18337339</td>\n<td style=\"border: 1px solid black ;\">LFARISASY-91933-101/B0</td>\n<td style=\"border: 1px solid black ;\">633956</td>\n<td style=\"border: 1px solid black ;\">/switchCard/testTraffic -d 30 -s 128 -l None -r 1GBase-T --allow -n 50 -p 1,2,3,4,9,10,11,12,17,18,19,20,25,26,27,28,33,34,35,36, /switchCa</td>\n<td style=\"border: 1px solid black ;\">2018-11-19 21:13:11-06</td>\n<td style=\"border: 1px solid black ;\">fvt</td>\n<td style=\"border: 1px solid black ;\">J31</td>\n<td style=\"border: 1px solid black ;\">FAIL</td></tr>\n<tr style=\"background-color: #FFFFDB;\"><td style=\"border: 1px solid black ;\">SSJ18452247</td>\n<td style=\"border: 1px solid black ;\">LFARISASY-51446-110/B1</td>\n<td style=\"border: 1px solid black ;\">633872</td>\n<td style=\"border: 1px solid black ;\">/fabriccards/1/testSnake --duration 300 --loopbackMode Phy</td>\n<td style=\"border: 1px solid black ;\">2018-11-19 21:32:22+00</td>\n<td style=\"border: 1px solid black ;\">fvt</td>\n<td style=\"border: 1px solid black ;\">U21</td>\n<td style=\"border: 1px solid black ;\">PASS</td></tr>\n<tr style=\"background-color: #CFCFA3;\"><td style=\"border: 1px solid black ;\">SSJ18452220</td>\n<td style=\"border: 1px solid black ;\">LFARISASY-51446-110/B1</td>\n<td style=\"border: 1px solid black ;\">633872</td>\n<td style=\"border: 1px solid black ;\">/fabriccards/1/initialize, /fabriccards/1/testRovRails, /fabriccards/1/pcieSwitch/testLinkUp, /fabriccards/1/pcieSwitch/testLinkSpeed, /fab</td>\n<td style=\"border: 1px solid black ;\">2018-11-19 21:35:55+00</td>\n<td style=\"border: 1px solid black ;\">fvt</td>\n<td style=\"border: 1px solid black ;\">J6</td>\n<td style=\"border: 1px solid black ;\">PASS</td></tr>\n<tr style=\"background-color: #FFFFDB;\"><td style=\"border: 1px solid black ;\">SSJ18061464</td>\n<td style=\"border: 1px solid black ;\">LFARISASY-52527-104/B1</td>\n<td style=\"border: 1px solid black ;\">633872</td>\n<td style=\"border: 1px solid black ;\">/fabriccards/5/testPrbs --duration 1800 --continuous True, /fabriccards/5/testPrbs --duration 300 --continuous True</td>\n<td style=\"border: 1px solid black ;\">2018-11-19 22:37:44+00</td>\n<td style=\"border: 1px solid black ;\">ess</td>\n<td style=\"border: 1px solid black ;\">U13</td>\n<td style=\"border: 1px solid black ;\">FAIL</td></tr>\n<tr style=\"background-color: #CFCFA3;\"><td style=\"border: 1px solid black ;\">SSJ18442660</td>\n<td style=\"border: 1px solid black ;\">LFARISASY-91919-102/B0</td>\n<td style=\"border: 1px solid black ;\">633956</td>\n<td style=\"border: 1px solid black ;\">##! INVALID SETUP: Reported by command //verifyTestSetup ==> Error: Please check the following loopbacks are properly inserted: /switchCard/xcvrs/20</td>\n<td style=\"border: 1px solid black ;\">2018-11-19 22:44:02-06</td>\n<td style=\"border: 1px solid black ;\">fvt</td>\n<td style=\"border: 1px solid black ;\">708CARD</td>\n<td style=\"border: 1px solid black ;\">PASS</td></tr>\n<tr style=\"background-color: #FFFFDB;\"><td style=\"border: 1px solid black ;\">SSJ18392375</td>\n<td style=\"border: 1px solid black ;\">LFARISASY-50689-111/B1</td>\n<td style=\"border: 1px solid black ;\">628696</td>\n<td style=\"border: 1px solid black ;\">PANIC: Failed ATA screen test on Sup2</td>\n<td style=\"border: 1px solid black ;\">2018-11-19 22:56:40-06</td>\n<td style=\"border: 1px solid black ;\">fst</td>\n<td style=\"border: 1px solid black ;\">SSD</td>\n<td style=\"border: 1px solid black ;\">FAIL</td></tr>\n<tr style=\"background-color: #CFCFA3;\"><td style=\"border: 1px solid black ;\">SSJ18442620</td>\n<td style=\"border: 1px solid black ;\">LFARISASY-91919-102/B0</td>\n<td style=\"border: 1px solid black ;\">627542</td>\n<td style=\"border: 1px solid black ;\">TestSetupFailure: No DIMM found, please inspect CPU DIMM slot/module.</td>\n<td style=\"border: 1px solid black ;\">2018-11-19 22:59:21+00</td>\n<td style=\"border: 1px solid black ;\">fvt-configure</td>\n<td style=\"border: 1px solid black ;\">RESEAT DIMM</td>\n<td style=\"border: 1px solid black ;\">PASS</td></tr>\n<tr style=\"background-color: #FFFFDB;\"><td style=\"border: 1px solid black ;\">SSJ18361409</td>\n<td style=\"border: 1px solid black ;\">LFARISASY-52527-104/B1</td>\n<td style=\"border: 1px solid black ;\">633872</td>\n<td style=\"border: 1px solid black ;\">/fabriccards/5/testPrbs --duration 1800 --continuous True, /fabriccards/5/testPrbs --duration 300 --continuous True</td>\n<td style=\"border: 1px solid black ;\">2018-11-19 23:42:22+00</td>\n<td style=\"border: 1px solid black ;\">ess</td>\n<td style=\"border: 1px solid black ;\">U99,HEATSINK</td>\n<td style=\"border: 1px solid black ;\">PASS</td></tr>\n<tr style=\"background-color: #CFCFA3;\"><td style=\"border: 1px solid black ;\">SSJ18420642</td>\n<td style=\"border: 1px solid black ;\">LFARISASY-90909-110/D0</td>\n<td style=\"border: 1px solid black ;\">636874</td>\n<td style=\"border: 1px solid black ;\">TestSetupFailure: Unable to get into aboot mode but got non-standard ASCII characters. This could indicate a misprogrammed/corrupted Aboot or CPLD. Please check log for more information.</td>\n<td style=\"border: 1px solid black ;\">2018-11-19 23:46:47+00</td>\n<td style=\"border: 1px solid black ;\">fvt-configure</td>\n<td style=\"border: 1px solid black ;\">CPU</td>\n<td style=\"border: 1px solid black ;\">PASS</td></tr>\n<tr style=\"background-color: #FFFFDB;\"><td style=\"border: 1px solid black ;\">SSJ18213457</td>\n<td style=\"border: 1px solid black ;\">LFARISASY-91923-104/F0</td>\n<td style=\"border: 1px solid black ;\">637183</td>\n<td style=\"border: 1px solid black ;\">##! COMMAND FAIL: //initialize</td>\n<td style=\"border: 1px solid black ;\">2018-11-19 23:49:45+00</td>\n<td style=\"border: 1px solid black ;\">fvt-configure</td>\n<td style=\"border: 1px solid black ;\">U64</td>\n<td style=\"border: 1px solid black ;\">PASS</td></tr>\n<tr style=\"background-color: #CFCFA3;\"><td style=\"border: 1px solid black ;\">SSJ18442278</td>\n<td style=\"border: 1px solid black ;\">LFARISASY-52543-209/A0</td>\n<td style=\"border: 1px solid black ;\">635083</td>\n<td style=\"border: 1px solid black ;\">FAIL: /linecards/3/portLeds/testCountOffLeds</td>\n<td style=\"border: 1px solid black ;\">2018-11-20 00:03:53-06</td>\n<td style=\"border: 1px solid black ;\">fvt-interactive</td>\n<td style=\"border: 1px solid black ;\">LITEPIPE,LIGHT PIPE</td>\n<td style=\"border: 1px solid black ;\">PASS</td></tr>\n<tr style=\"background-color: #FFFFDB;\"><td style=\"border: 1px solid black ;\">SSJ18432797</td>\n<td style=\"border: 1px solid black ;\">LFARISASY-52062-108/B0</td>\n<td style=\"border: 1px solid black ;\">637183</td>\n<td style=\"border: 1px solid black ;\">/fabriccards/5/testPrbs --duration 1800 --mode FecAuto --continuous True, /fabriccards/5/testPrbs --duration 300 --mode FecAuto --continuou</td>\n<td style=\"border: 1px solid black ;\">2018-11-20 00:27:05+00</td>\n<td style=\"border: 1px solid black ;\">ess</td>\n<td style=\"border: 1px solid black ;\">J4</td>\n<td style=\"border: 1px solid black ;\">FAIL</td></tr>\n<tr style=\"background-color: #CFCFA3;\"><td style=\"border: 1px solid black ;\">SSJ18372716</td>\n<td style=\"border: 1px solid black ;\">LFARISASY-52544-109/A0</td>\n<td style=\"border: 1px solid black ;\">635083</td>\n<td style=\"border: 1px solid black ;\">/linecards/5/testPrbs -l None -d 300 --mode Prbs31 --allow --fabric, /linecards/5/testTraffic -l None -d 300 -s 9208 --allow, /linecards/5/</td>\n<td style=\"border: 1px solid black ;\">2018-11-20 01:22:57+00</td>\n<td style=\"border: 1px solid black ;\">fvt</td>\n<td style=\"border: 1px solid black ;\">U125</td>\n<td style=\"border: 1px solid black ;\">PASS</td></tr>\n<tr style=\"background-color: #FFFFDB;\"><td style=\"border: 1px solid black ;\">SSJ18243941</td>\n<td style=\"border: 1px solid black ;\">LFARISASY-90519-108/B0</td>\n<td style=\"border: 1px solid black ;\">627542</td>\n<td style=\"border: 1px solid black ;\">e/switch/cm-64-serdes, /DiagTestRunner/_run/CliTest.pexpect.TIMEOUT</td>\n<td style=\"border: 1px solid black ;\">2018-11-20 01:53:06+00</td>\n<td style=\"border: 1px solid black ;\">ess</td>\n<td style=\"border: 1px solid black ;\">RESEAT HEATSINK CPU</td>\n<td style=\"border: 1px solid black ;\">FAIL</td></tr>\n<tr style=\"background-color: #CFCFA3;\"><td style=\"border: 1px solid black ;\">SSJ18292560</td>\n<td style=\"border: 1px solid black ;\">LFARISASY-90519-108/B0</td>\n<td style=\"border: 1px solid black ;\">627542</td>\n<td style=\"border: 1px solid black ;\">e/traffic/64-ext-dma, /DiagTestRunner/_run/CliTest.pexpect.TIMEOUT</td>\n<td style=\"border: 1px solid black ;\">2018-11-20 02:09:10+00</td>\n<td style=\"border: 1px solid black ;\">ess</td>\n<td style=\"border: 1px solid black ;\">RESEAT HEATSINK CPU</td>\n<td style=\"border: 1px solid black ;\">FAIL</td></tr>\n<tr style=\"background-color: #FFFFDB;\"><td style=\"border: 1px solid black ;\">SSJ18337388</td>\n<td style=\"border: 1px solid black ;\">LFARISASY-91933-101/B0</td>\n<td style=\"border: 1px solid black ;\">633956</td>\n<td style=\"border: 1px solid black ;\">/switchCard/testTraffic -d 30 -s 128 -l None -r 1GBase-T --allow -n 50 -p 5,6,7,8,13,14,15,16,21,22,23,24,29,30,31,32,37,38,39,4, /switchCa</td>\n<td style=\"border: 1px solid black ;\">2018-11-20 02:40:23+00</td>\n<td style=\"border: 1px solid black ;\">fvt</td>\n<td style=\"border: 1px solid black ;\">J34,J33</td>\n<td style=\"border: 1px solid black ;\">PASS</td></tr>\n<tr style=\"background-color: #CFCFA3;\"><td style=\"border: 1px solid black ;\">SSJ18422197</td>\n<td style=\"border: 1px solid black ;\">LFARISASY-91918-102/B0</td>\n<td style=\"border: 1px solid black ;\">633956</td>\n<td style=\"border: 1px solid black ;\">##! COMMAND FAIL: /switchCard/fpgas/0/init</td>\n<td style=\"border: 1px solid black ;\">2018-11-20 03:04:39+00</td>\n<td style=\"border: 1px solid black ;\">fvt-configure</td>\n<td style=\"border: 1px solid black ;\">U71</td>\n<td style=\"border: 1px solid black ;\">PASS</td></tr>\n<tr style=\"background-color: #FFFFDB;\"><td style=\"border: 1px solid black ;\">SSJ18251238</td>\n<td style=\"border: 1px solid black ;\">LFARISASY-51510-121/A0</td>\n<td style=\"border: 1px solid black ;\">635083</td>\n<td style=\"border: 1px solid black ;\">/linecards/10/dpms/3/testLoggedFaults, /linecards/10/dpms/3/testLoggedFaults, /linecards/10/dpms/3/testLoggedFaults, /linecards/10/dpms/3/t</td>\n<td style=\"border: 1px solid black ;\">2018-11-20 03:09:46+00</td>\n<td style=\"border: 1px solid black ;\">burnin</td>\n<td style=\"border: 1px solid black ;\">U411</td>\n<td style=\"border: 1px solid black ;\">FAIL</td></tr>\n<tr style=\"background-color: #CFCFA3;\"><td style=\"border: 1px solid black ;\">SSJ18380898</td>\n<td style=\"border: 1px solid black ;\">LFARISASY-90890-110/G0</td>\n<td style=\"border: 1px solid black ;\">627542</td>\n<td style=\"border: 1px solid black ;\">FAIL: //testInteractive</td>\n<td style=\"border: 1px solid black ;\">2018-11-20 04:42:07+00</td>\n<td style=\"border: 1px solid black ;\">fvt-interactive</td>\n<td style=\"border: 1px solid black ;\">VERIFY OK</td>\n<td style=\"border: 1px solid black ;\">PASS</td></tr>\n<tr style=\"background-color: #FFFFDB;\"><td style=\"border: 1px solid black ;\">SSJ18170848</td>\n<td style=\"border: 1px solid black ;\">LFARISASY-52062-108/B0</td>\n<td style=\"border: 1px solid black ;\">637183</td>\n<td style=\"border: 1px solid black ;\">/fabriccards/5/testPrbsKeplerCold --duration 1800 --mode FecAuto --continuous True, /fabriccards/5/testPrbsKeplerCold --duration 300 --mode</td>\n<td style=\"border: 1px solid black ;\">2018-11-20 05:58:10+00</td>\n<td style=\"border: 1px solid black ;\">ess</td>\n<td style=\"border: 1px solid black ;\">J14</td>\n<td style=\"border: 1px solid black ;\">FAIL</td></tr>\n<tr style=\"background-color: #CFCFA3;\"><td style=\"border: 1px solid black ;\">SSJ18450634</td>\n<td style=\"border: 1px solid black ;\">LFARISASY-51704-115/A1</td>\n<td style=\"border: 1px solid black ;\">634663</td>\n<td style=\"border: 1px solid black ;\">##! INVALID SETUP: Reported by test /linecards/10/loopbackPresenceTest ==> Missing/Faulty loopbacks in front panel ports 8</td>\n<td style=\"border: 1px solid black ;\">2018-11-20 08:37:20-06</td>\n<td style=\"border: 1px solid black ;\">fvt</td>\n<td style=\"border: 1px solid black ;\">J7,J1</td>\n<td style=\"border: 1px solid black ;\">PASS</td></tr>\n<tr style=\"background-color: #FFFFDB;\"><td style=\"border: 1px solid black ;\">SSJ18450636</td>\n<td style=\"border: 1px solid black ;\">LFARISASY-51704-115/A1</td>\n<td style=\"border: 1px solid black ;\">634663</td>\n<td style=\"border: 1px solid black ;\">TestSetupFailure: Could not connect to the console on supervisor10-2. Check that it is connected and powered on.</td>\n<td style=\"border: 1px solid black ;\">2018-11-20 09:32:26-06</td>\n<td style=\"border: 1px solid black ;\">burnin</td>\n<td style=\"border: 1px solid black ;\">J5</td>\n<td style=\"border: 1px solid black ;\">FAIL</td></tr>\n<tr style=\"background-color: #CFCFA3;\"><td style=\"border: 1px solid black ;\">SSJ18450269</td>\n<td style=\"border: 1px solid black ;\">LFARISASY-51704-115/A1</td>\n<td style=\"border: 1px solid black ;\">634663</td>\n<td style=\"border: 1px solid black ;\">/linecards/6/fvtTest --verbose 0</td>\n<td style=\"border: 1px solid black ;\">2018-11-20 09:39:13-06</td>\n<td style=\"border: 1px solid black ;\">burnin</td>\n<td style=\"border: 1px solid black ;\">J6</td>\n<td style=\"border: 1px solid black ;\">PASS</td></tr>\n<tr style=\"background-color: #FFFFDB;\"><td style=\"border: 1px solid black ;\">SSJ18235785</td>\n<td style=\"border: 1px solid black ;\">LFARISASY-51808-120/A0</td>\n<td style=\"border: 1px solid black ;\">635157</td>\n<td style=\"border: 1px solid black ;\">##! INVALID SETUP: Reported by test /fabriccards/2/testLinkUp --prbsTest True --duration 30 --cores [u'None'] --linecards [u'None'] ==> Invalid link status on linecard connectors 4.</td>\n<td style=\"border: 1px solid black ;\">2018-11-20 10:18:23-06</td>\n<td style=\"border: 1px solid black ;\">fvt</td>\n<td style=\"border: 1px solid black ;\">U67,U67</td>\n<td style=\"border: 1px solid black ;\">FAIL</td></tr>\n<tr style=\"background-color: #CFCFA3;\"><td style=\"border: 1px solid black ;\">SSJ18374768</td>\n<td style=\"border: 1px solid black ;\">LFARISASY-51068-105/A1</td>\n<td style=\"border: 1px solid black ;\">634663</td>\n<td style=\"border: 1px solid black ;\">/linecards/5/testLinkReady</td>\n<td style=\"border: 1px solid black ;\">2018-11-20 11:11:59-06</td>\n<td style=\"border: 1px solid black ;\">burnin</td>\n<td style=\"border: 1px solid black ;\">J15</td>\n<td style=\"border: 1px solid black ;\">PASS</td></tr>\n<tr style=\"background-color: #FFFFDB;\"><td style=\"border: 1px solid black ;\">SSJ18450219</td>\n<td style=\"border: 1px solid black ;\">LFARISASY-51704-115/A1</td>\n<td style=\"border: 1px solid black ;\">634663</td>\n<td style=\"border: 1px solid black ;\">/linecards/9/setupServer --slot -1 --what fc</td>\n<td style=\"border: 1px solid black ;\">2018-11-20 12:34:23-06</td>\n<td style=\"border: 1px solid black ;\">fvt</td>\n<td style=\"border: 1px solid black ;\">J7</td>\n<td style=\"border: 1px solid black ;\">PASS</td></tr>\n<tr style=\"background-color: #CFCFA3;\"><td style=\"border: 1px solid black ;\">SSJ18452860</td>\n<td style=\"border: 1px solid black ;\">LFARISASY-91673-106/A0</td>\n<td style=\"border: 1px solid black ;\">633993</td>\n<td style=\"border: 1px solid black ;\">FAIL: //testInteractive</td>\n<td style=\"border: 1px solid black ;\">2018-11-20 12:45:43-06</td>\n<td style=\"border: 1px solid black ;\">fvt-interactive</td>\n<td style=\"border: 1px solid black ;\">LIGHT PIPE</td>\n<td style=\"border: 1px solid black ;\">PASS</td></tr>\n<tr style=\"background-color: #FFFFDB;\"><td style=\"border: 1px solid black ;\">SSJ18380992</td>\n<td style=\"border: 1px solid black ;\">LFARISASY-90890-110/G0</td>\n<td style=\"border: 1px solid black ;\">633993</td>\n<td style=\"border: 1px solid black ;\">FAIL: //testInteractive</td>\n<td style=\"border: 1px solid black ;\">2018-11-20 15:28:57+00</td>\n<td style=\"border: 1px solid black ;\">fvt-interactive</td>\n<td style=\"border: 1px solid black ;\">D9</td>\n<td style=\"border: 1px solid black ;\">PASS</td></tr>\n<tr style=\"background-color: #CFCFA3;\"><td style=\"border: 1px solid black ;\">SSJ18459066</td>\n<td style=\"border: 1px solid black ;\">LFARISASY-91935-104/A0</td>\n<td style=\"border: 1px solid black ;\">636479</td>\n<td style=\"border: 1px solid black ;\">TestSetupFailure: Failed to get root login to the dut due to timeout. Details: Timeout (600 seconds) trying to discover the current mode but got</td>\n<td style=\"border: 1px solid black ;\">2018-11-20 15:30:21+00</td>\n<td style=\"border: 1px solid black ;\">ess</td>\n<td style=\"border: 1px solid black ;\">CPU CARD</td>\n<td style=\"border: 1px solid black ;\">PASS</td></tr>\n<tr style=\"background-color: #FFFFDB;\"><td style=\"border: 1px solid black ;\">SSJ18450804</td>\n<td style=\"border: 1px solid black ;\">LFARISASY-50827-107/A1</td>\n<td style=\"border: 1px solid black ;\">634663</td>\n<td style=\"border: 1px solid black ;\">/linecards/4/marginingTest, /linecards/4/fvtTest --verbose 0</td>\n<td style=\"border: 1px solid black ;\">2018-11-20 15:51:36+00</td>\n<td style=\"border: 1px solid black ;\">fvt</td>\n<td style=\"border: 1px solid black ;\">C495</td>\n<td style=\"border: 1px solid black ;\">PASS</td></tr>\n<tr style=\"background-color: #CFCFA3;\"><td style=\"border: 1px solid black ;\">SSJ18420215</td>\n<td style=\"border: 1px solid black ;\">LFARISASY-90923-105/B0</td>\n<td style=\"border: 1px solid black ;\">636107</td>\n<td style=\"border: 1px solid black ;\">TestSetupFailure: Powering up the board for the first time failed. Unable to connect. Check console/power connections as well as console connector card. If these are good, check CPU/memory.</td>\n<td style=\"border: 1px solid black ;\">2018-11-20 16:12:30-06</td>\n<td style=\"border: 1px solid black ;\">fvt-configure</td>\n<td style=\"border: 1px solid black ;\">CPUCARD U20</td>\n<td style=\"border: 1px solid black ;\">PASS</td></tr>\n<tr style=\"background-color: #FFFFDB;\"><td style=\"border: 1px solid black ;\">SSJ18442581</td>\n<td style=\"border: 1px solid black ;\">LFARISASY-91919-102/B0</td>\n<td style=\"border: 1px solid black ;\">633993</td>\n<td style=\"border: 1px solid black ;\">FAIL: //testInteractive</td>\n<td style=\"border: 1px solid black ;\">2018-11-20 16:40:06+00</td>\n<td style=\"border: 1px solid black ;\">fvt-interactive</td>\n<td style=\"border: 1px solid black ;\">D4</td>\n<td style=\"border: 1px solid black ;\">PASS</td></tr>\n<tr style=\"background-color: #CFCFA3;\"><td style=\"border: 1px solid black ;\">SSJ18450615</td>\n<td style=\"border: 1px solid black ;\">LFARISASY-51704-115/A1</td>\n<td style=\"border: 1px solid black ;\">634663</td>\n<td style=\"border: 1px solid black ;\">/linecards/10/dumpSerdesSetting --debug True --neighbor True, /linecards/10/tridentFvtTest --intervals 2 --verbose 0 --duration 180 --pwm 1</td>\n<td style=\"border: 1px solid black ;\">2018-11-20 16:40:55+00</td>\n<td style=\"border: 1px solid black ;\">burnin</td>\n<td style=\"border: 1px solid black ;\">J4</td>\n<td style=\"border: 1px solid black ;\">PASS</td></tr>\n<tr style=\"background-color: #FFFFDB;\"><td style=\"border: 1px solid black ;\">SSJ18402886</td>\n<td style=\"border: 1px solid black ;\">LFARISASY-52121-107/B0</td>\n<td style=\"border: 1px solid black ;\">634437</td>\n<td style=\"border: 1px solid black ;\">/supervisors/1/testBroadsyncInTestChassis, /midplane/scd/testRefClkFreq --clks=bsyncClkLine10,bsyncClkLine11,bsyncClkLine12,bsyncClkLine13,</td>\n<td style=\"border: 1px solid black ;\">2018-11-20 16:48:31+00</td>\n<td style=\"border: 1px solid black ;\">fvt</td>\n<td style=\"border: 1px solid black ;\">U19</td>\n<td style=\"border: 1px solid black ;\">PASS</td></tr>\n<tr style=\"background-color: #CFCFA3;\"><td style=\"border: 1px solid black ;\">SSJ18441424</td>\n<td style=\"border: 1px solid black ;\">LFARISASY-52121-107/B0</td>\n<td style=\"border: 1px solid black ;\">634437</td>\n<td style=\"border: 1px solid black ;\">/supervisors/1/testBroadsyncInTestChassis, /midplane/scd/testRefClkFreq --clks=bsyncClkLine10,bsyncClkLine11,bsyncClkLine12,bsyncClkLine13,</td>\n<td style=\"border: 1px solid black ;\">2018-11-20 16:54:14+00</td>\n<td style=\"border: 1px solid black ;\">fvt</td>\n<td style=\"border: 1px solid black ;\">U19</td>\n<td style=\"border: 1px solid black ;\">FAIL</td></tr>\n<tr style=\"background-color: #FFFFDB;\"><td style=\"border: 1px solid black ;\">SSJ18241240</td>\n<td style=\"border: 1px solid black ;\">LFARISASY-51808-120/A0</td>\n<td style=\"border: 1px solid black ;\">635157</td>\n<td style=\"border: 1px solid black ;\">##! INVALID SETUP: Reported by test /fabriccards/3/testLinkUp --prbsTest True --duration 30 --cores [u'None'] --linecards [u'None'] ==> Invalid link status on linecard connectors 5.</td>\n<td style=\"border: 1px solid black ;\">2018-11-20 16:59:22+00</td>\n<td style=\"border: 1px solid black ;\">fvt</td>\n<td style=\"border: 1px solid black ;\">U67,U67</td>\n<td style=\"border: 1px solid black ;\">FAIL</td></tr>\n<tr style=\"background-color: #CFCFA3;\"><td style=\"border: 1px solid black ;\">SSJ18450730</td>\n<td style=\"border: 1px solid black ;\">LFARISASY-50827-107/A1</td>\n<td style=\"border: 1px solid black ;\">634663</td>\n<td style=\"border: 1px solid black ;\">/linecards/7/fvtConfig --pca None --fdlFile None --programQspi False --plxEepromBinFile /usr/share/DosFirmwareImages/PLX87xx_LC_</td>\n<td style=\"border: 1px solid black ;\">2018-11-20 17:02:26+00</td>\n<td style=\"border: 1px solid black ;\">fvt-configure</td>\n<td style=\"border: 1px solid black ;\">Z403</td>\n<td style=\"border: 1px solid black ;\">PASS</td></tr>\n<tr style=\"background-color: #FFFFDB;\"><td style=\"border: 1px solid black ;\">SSJ18450829</td>\n<td style=\"border: 1px solid black ;\">LFARISASY-50827-107/A1</td>\n<td style=\"border: 1px solid black ;\">634663</td>\n<td style=\"border: 1px solid black ;\">/linecards/3/fvtConfig --pca None --fdlFile None --programQspi False --plxEepromBinFile /usr/share/DosFirmwareImages/PLX87xx_LC_</td>\n<td style=\"border: 1px solid black ;\">2018-11-20 17:05:14+00</td>\n<td style=\"border: 1px solid black ;\">fvt-configure</td>\n<td style=\"border: 1px solid black ;\">Z403</td>\n<td style=\"border: 1px solid black ;\">PASS</td></tr>\n<tr style=\"background-color: #CFCFA3;\"><td style=\"border: 1px solid black ;\">SSJ18412302</td>\n<td style=\"border: 1px solid black ;\">LFARISASY-52527-104/B1</td>\n<td style=\"border: 1px solid black ;\">633872</td>\n<td style=\"border: 1px solid black ;\">[2018-11-16 20:13:40 UTC] ##! INVALID SETUP: Reported by test /fabriccards/5/testEjectorClosed ==> Card ejector open. Please close ejector.</td>\n<td style=\"border: 1px solid black ;\">2018-11-20 17:19:09-06</td>\n<td style=\"border: 1px solid black ;\">fvt</td>\n<td style=\"border: 1px solid black ;\">EJECTOR CHASSIS</td>\n<td style=\"border: 1px solid black ;\">PASS</td></tr>\n<tr style=\"background-color: #FFFFDB;\"><td style=\"border: 1px solid black ;\">SSJ18460368</td>\n<td style=\"border: 1px solid black ;\">LFARISASY-91919-102/B0</td>\n<td style=\"border: 1px solid black ;\">633993</td>\n<td style=\"border: 1px solid black ;\">##! COMMAND FAIL: /cpuCard/programDpm</td>\n<td style=\"border: 1px solid black ;\">2018-11-20 17:21:19+00</td>\n<td style=\"border: 1px solid black ;\">fvt-configure</td>\n<td style=\"border: 1px solid black ;\">PWR-00160-04</td>\n<td style=\"border: 1px solid black ;\">PASS</td></tr>\n<tr style=\"background-color: #CFCFA3;\"><td style=\"border: 1px solid black ;\">SSJ18459036</td>\n<td style=\"border: 1px solid black ;\">LFARISASY-91935-104/A0</td>\n<td style=\"border: 1px solid black ;\">635083</td>\n<td style=\"border: 1px solid black ;\">//testPrbs -l None --allow --fabric --link-down-warn -d 300 --sflow, //testTraffic -l None -d 300 -s 9208 --allow, //testTraffic -l None -d</td>\n<td style=\"border: 1px solid black ;\">2018-11-20 17:21:48-06</td>\n<td style=\"border: 1px solid black ;\">fvt</td>\n<td style=\"border: 1px solid black ;\">U110 - UPPER FAPS2</td>\n<td style=\"border: 1px solid black ;\">PASS</td></tr>\n<tr style=\"background-color: #FFFFDB;\"><td style=\"border: 1px solid black ;\">SSJ18412329</td>\n<td style=\"border: 1px solid black ;\">LFARISASY-52527-104/B1</td>\n<td style=\"border: 1px solid black ;\">633872</td>\n<td style=\"border: 1px solid black ;\">[2018-11-16 02:01:13 UTC] ##! INVALID SETUP: Reported by test /fabriccards/5/testEjectorClosed ==> Card ejector open. Please close ejector.</td>\n<td style=\"border: 1px solid black ;\">2018-11-20 17:27:34-06</td>\n<td style=\"border: 1px solid black ;\">fvt</td>\n<td style=\"border: 1px solid black ;\">EJECTOR CHASSIS</td>\n<td style=\"border: 1px solid black ;\">PASS</td></tr>\n<tr style=\"background-color: #CFCFA3;\"><td style=\"border: 1px solid black ;\">SSJ18380937</td>\n<td style=\"border: 1px solid black ;\">LFARISASY-90890-110/G0</td>\n<td style=\"border: 1px solid black ;\">633993</td>\n<td style=\"border: 1px solid black ;\">=============== Exception raised in 'python /bin/dsh /cpuCard/programDpm ' (PID 2348; PPID 2201) ===============\r\n(Pdb) ==================== Exception raised in 'python /usr/bin/fvt-configure-fixed --useDb --arss 10.90.216.35 dut7 --pca PCA0053703E0 --sn SSJ18380937 --kvn 111 --sku DCS-7050TX-64 --mac 98:5d:82:46:77:8a --asy ASY0137210D0 --logDir /log/DCS-7050TX-64/1838/SSJ18380937/fvt-configure/configure-2 --runId 2235967 --swiName None --cpuPca PCA0045920C0 --cpuSn SSJ18430876 --deviation  --cpuDeviation D0004480 ' (PID 661) ====================</td>\n<td style=\"border: 1px solid black ;\">2018-11-20 18:13:23+00</td>\n<td style=\"border: 1px solid black ;\">fvt-configure</td>\n<td style=\"border: 1px solid black ;\">MEM-00171</td>\n<td style=\"border: 1px solid black ;\">FAIL</td></tr>\n<tr style=\"background-color: #FFFFDB;\"><td style=\"border: 1px solid black ;\">SSJ18189023</td>\n<td style=\"border: 1px solid black ;\">LFARISASY-91936-203/C0</td>\n<td style=\"border: 1px solid black ;\">636479</td>\n<td style=\"border: 1px solid black ;\">//power test voltage high, //power test voltage high, //power test voltage high</td>\n<td style=\"border: 1px solid black ;\">2018-11-20 19:43:56+00</td>\n<td style=\"border: 1px solid black ;\">ess</td>\n<td style=\"border: 1px solid black ;\">U 6</td>\n<td style=\"border: 1px solid black ;\">PASS</td></tr>\n<tr style=\"background-color: #CFCFA3;\"><td style=\"border: 1px solid black ;\">SSJ18380966</td>\n<td style=\"border: 1px solid black ;\">LFARISASY-90890-110/G0</td>\n<td style=\"border: 1px solid black ;\">633993</td>\n<td style=\"border: 1px solid black ;\">##! INVALID SETUP: Reported by test //checkSetup ==> System not test ready. Please check the following ports (indexed starting at one): [9, 10, 11, 12]</td>\n<td style=\"border: 1px solid black ;\">2018-11-20 20:19:05+00</td>\n<td style=\"border: 1px solid black ;\">fvt</td>\n<td style=\"border: 1px solid black ;\">LOOP BACK</td>\n<td style=\"border: 1px solid black ;\">PASS</td></tr>\n<tr style=\"background-color: #FFFFDB;\"><td style=\"border: 1px solid black ;\">SSJ18442434</td>\n<td style=\"border: 1px solid black ;\">LFARISASY-52544-109/A0R</td>\n<td style=\"border: 1px solid black ;\">7885</td>\n<td style=\"border: 1px solid black ;\">/linecards/8/init2</td>\n<td style=\"border: 1px solid black ;\">2018-11-20 20:34:13+00</td>\n<td style=\"border: 1px solid black ;\">burnin</td>\n<td style=\"border: 1px solid black ;\">U9</td>\n<td style=\"border: 1px solid black ;\">PASS</td></tr>\n<tr style=\"background-color: #CFCFA3;\"><td style=\"border: 1px solid black ;\">SSJ18380916</td>\n<td style=\"border: 1px solid black ;\">LFARISASY-90890-110/G0</td>\n<td style=\"border: 1px solid black ;\">633993</td>\n<td style=\"border: 1px solid black ;\">TestSetupFailure: Internal Flash should be 4096 MB</td>\n<td style=\"border: 1px solid black ;\">2018-11-20 21:08:51+00</td>\n<td style=\"border: 1px solid black ;\">fvt-configure</td>\n<td style=\"border: 1px solid black ;\">MEM-00159</td>\n<td style=\"border: 1px solid black ;\">PASS</td></tr>\n<tr style=\"background-color: #FFFFDB;\"><td style=\"border: 1px solid black ;\">SSJ18442396</td>\n<td style=\"border: 1px solid black ;\">LFARISASY-52544-109/A0</td>\n<td style=\"border: 1px solid black ;\">7885</td>\n<td style=\"border: 1px solid black ;\">/linecards/3/init2</td>\n<td style=\"border: 1px solid black ;\">2018-11-20 21:47:34+00</td>\n<td style=\"border: 1px solid black ;\">fvt</td>\n<td style=\"border: 1px solid black ;\">U169,U170</td>\n<td style=\"border: 1px solid black ;\">PASS</td></tr>\n<tr style=\"background-color: #CFCFA3;\"><td style=\"border: 1px solid black ;\">SSJ18430242</td>\n<td style=\"border: 1px solid black ;\">LFARISASY-51446-110/B1</td>\n<td style=\"border: 1px solid black ;\">633872</td>\n<td style=\"border: 1px solid black ;\">/fabriccards/1/testPrbs --duration 300 --continuous False, /fabriccards/1/testSnake --duration 300 --loopbackMode Phy</td>\n<td style=\"border: 1px solid black ;\">2018-11-20 22:52:09+00</td>\n<td style=\"border: 1px solid black ;\">fvt</td>\n<td style=\"border: 1px solid black ;\">EJECTOR CHASSIS,U21</td>\n<td style=\"border: 1px solid black ;\">PASS</td></tr>\n<tr style=\"background-color: #FFFFDB;\"><td style=\"border: 1px solid black ;\">SSJ18432797</td>\n<td style=\"border: 1px solid black ;\">LFARISASY-52062-108/B0</td>\n<td style=\"border: 1px solid black ;\">637183</td>\n<td style=\"border: 1px solid black ;\">/fabriccards/1/showFanSpeeds, /fabriccards/1/fanTest</td>\n<td style=\"border: 1px solid black ;\">2018-11-20 22:57:51+00</td>\n<td style=\"border: 1px solid black ;\">fvt</td>\n<td style=\"border: 1px solid black ;\">RESEAT FAN2</td>\n<td style=\"border: 1px solid black ;\">PASS</td></tr>\n<tr style=\"background-color: #CFCFA3;\"><td style=\"border: 1px solid black ;\">SSJ18412301</td>\n<td style=\"border: 1px solid black ;\">LFARISASY-52527-104/B1</td>\n<td style=\"border: 1px solid black ;\">633872</td>\n<td style=\"border: 1px solid black ;\">[2018-11-16 14:58:05 UTC] ##! INVALID SETUP: Reported by test /fabriccards/3/testEjectorClosed ==> Card ejector open. Please close ejector.</td>\n<td style=\"border: 1px solid black ;\">2018-11-20 23:19:46+00</td>\n<td style=\"border: 1px solid black ;\">fvt</td>\n<td style=\"border: 1px solid black ;\">EJECTOR CHASSIS</td>\n<td style=\"border: 1px solid black ;\">PASS</td></tr>\n<tr style=\"background-color: #FFFFDB;\"><td style=\"border: 1px solid black ;\">SSJ18204201</td>\n<td style=\"border: 1px solid black ;\">LFARISASY-52128-105/A1</td>\n<td style=\"border: 1px solid black ;\">634788</td>\n<td style=\"border: 1px solid black ;\">/linecards/4/dsps/3/linePorts/0/testBer --threshold 1e-6, /linecards/4/dsps/3/linePorts/1/testBer --threshold 1e-6</td>\n<td style=\"border: 1px solid black ;\">2018-11-20 23:30:36+00</td>\n<td style=\"border: 1px solid black ;\">fvt</td>\n<td style=\"border: 1px solid black ;\">JA7</td>\n<td style=\"border: 1px solid black ;\">FAIL</td></tr>\n<tr style=\"background-color: #CFCFA3;\"><td style=\"border: 1px solid black ;\">SSJ18451408</td>\n<td style=\"border: 1px solid black ;\">LFARISASY-52062-108/B0</td>\n<td style=\"border: 1px solid black ;\">637183</td>\n<td style=\"border: 1px solid black ;\">/fabriccards/1/showFanSpeeds, /fabriccards/1/fanTest</td>\n<td style=\"border: 1px solid black ;\">2018-11-20 23:40:32+00</td>\n<td style=\"border: 1px solid black ;\">fvt</td>\n<td style=\"border: 1px solid black ;\">FAN7</td>\n<td style=\"border: 1px solid black ;\">PASS</td></tr>\n<tr style=\"background-color: #FFFFDB;\"><td style=\"border: 1px solid black ;\">SSJ18451376</td>\n<td style=\"border: 1px solid black ;\">LFARISASY-52062-108/B0</td>\n<td style=\"border: 1px solid black ;\">637183</td>\n<td style=\"border: 1px solid black ;\">/fabriccards/5/showFanSpeeds, /fabriccards/5/fanTest</td>\n<td style=\"border: 1px solid black ;\">2018-11-20 23:57:01+00</td>\n<td style=\"border: 1px solid black ;\">fvt</td>\n<td style=\"border: 1px solid black ;\">FAN1 TO FAN2</td>\n<td style=\"border: 1px solid black ;\">PASS</td></tr>\n<tr style=\"background-color: #CFCFA3;\"><td style=\"border: 1px solid black ;\">SSJ18452973</td>\n<td style=\"border: 1px solid black ;\">LFARISASY-91673-106/A0</td>\n<td style=\"border: 1px solid black ;\">633956</td>\n<td style=\"border: 1px solid black ;\">/switchCard/trafficTestSmall --loopback None, /switchCard/trafficTestBig --loopback None, /switchCard/prbsTestFull --portMode portMode25G -</td>\n<td style=\"border: 1px solid black ;\">2018-11-21 00:37:07-06</td>\n<td style=\"border: 1px solid black ;\">fvt</td>\n<td style=\"border: 1px solid black ;\">J21</td>\n<td style=\"border: 1px solid black ;\">PASS</td></tr>\n<tr style=\"background-color: #FFFFDB;\"><td style=\"border: 1px solid black ;\">SSJ18451422</td>\n<td style=\"border: 1px solid black ;\">LFARISASY-52062-108/B0</td>\n<td style=\"border: 1px solid black ;\">637183</td>\n<td style=\"border: 1px solid black ;\">/fabriccards/2/muxGrab</td>\n<td style=\"border: 1px solid black ;\">2018-11-21 00:59:50+00</td>\n<td style=\"border: 1px solid black ;\">fvt-configure</td>\n<td style=\"border: 1px solid black ;\">Q8</td>\n<td style=\"border: 1px solid black ;\">FAIL</td></tr>\n<tr style=\"background-color: #CFCFA3;\"><td style=\"border: 1px solid black ;\">SSJ18451384</td>\n<td style=\"border: 1px solid black ;\">LFARISASY-52062-108/B0</td>\n<td style=\"border: 1px solid black ;\">637183</td>\n<td style=\"border: 1px solid black ;\">/fabriccards/1/muxGrab</td>\n<td style=\"border: 1px solid black ;\">2018-11-21 01:01:33+00</td>\n<td style=\"border: 1px solid black ;\">fvt-configure</td>\n<td style=\"border: 1px solid black ;\">C381</td>\n<td style=\"border: 1px solid black ;\">PASS</td></tr>\n<tr style=\"background-color: #FFFFDB;\"><td style=\"border: 1px solid black ;\">SSJ18423677</td>\n<td style=\"border: 1px solid black ;\">LFARISASY-91923-110/A0</td>\n<td style=\"border: 1px solid black ;\">637183</td>\n<td style=\"border: 1px solid black ;\">##! COMMAND FAIL: /switchCard/programPld</td>\n<td style=\"border: 1px solid black ;\">2018-11-21 01:18:11+00</td>\n<td style=\"border: 1px solid black ;\">fvt-configure</td>\n<td style=\"border: 1px solid black ;\">U64,U64</td>\n<td style=\"border: 1px solid black ;\">PASS</td></tr>\n<tr style=\"background-color: #CFCFA3;\"><td style=\"border: 1px solid black ;\">SSJ18451340</td>\n<td style=\"border: 1px solid black ;\">LFARISASY-52062-108/B0</td>\n<td style=\"border: 1px solid black ;\">637183</td>\n<td style=\"border: 1px solid black ;\">/fabriccards/2/showFanSpeeds, /fabriccards/2/fanTest</td>\n<td style=\"border: 1px solid black ;\">2018-11-21 01:33:33+00</td>\n<td style=\"border: 1px solid black ;\">fvt</td>\n<td style=\"border: 1px solid black ;\">FAN8</td>\n<td style=\"border: 1px solid black ;\">PASS</td></tr>\n<tr style=\"background-color: #FFFFDB;\"><td style=\"border: 1px solid black ;\">SSJ18451391</td>\n<td style=\"border: 1px solid black ;\">LFARISASY-52062-108/B0</td>\n<td style=\"border: 1px solid black ;\">637183</td>\n<td style=\"border: 1px solid black ;\">/fabriccards/2/muxGrab</td>\n<td style=\"border: 1px solid black ;\">2018-11-21 01:41:40+00</td>\n<td style=\"border: 1px solid black ;\">fvt-configure</td>\n<td style=\"border: 1px solid black ;\">C371</td>\n<td style=\"border: 1px solid black ;\">PASS</td></tr>\n<tr style=\"background-color: #CFCFA3;\"><td style=\"border: 1px solid black ;\">SSJ18260089</td>\n<td style=\"border: 1px solid black ;\">LFARISASY-52787-104/A0</td>\n<td style=\"border: 1px solid black ;\">635083</td>\n<td style=\"border: 1px solid black ;\">/linecards/8/testPrbs -l None -d 300 --mode Prbs31 --allow --fabric</td>\n<td style=\"border: 1px solid black ;\">2018-11-21 03:58:02+00</td>\n<td style=\"border: 1px solid black ;\">fvt</td>\n<td style=\"border: 1px solid black ;\">J1</td>\n<td style=\"border: 1px solid black ;\">PASS</td></tr>\n<tr style=\"background-color: #FFFFDB;\"><td style=\"border: 1px solid black ;\">SSJ18297262</td>\n<td style=\"border: 1px solid black ;\">LFARISASY-91923-104/F0</td>\n<td style=\"border: 1px solid black ;\">637183</td>\n<td style=\"border: 1px solid black ;\">logger.info( 'Allow new temperature to soak for 5 minutes.' )</td>\n<td style=\"border: 1px solid black ;\">2018-11-21 04:43:16+00</td>\n<td style=\"border: 1px solid black ;\">ess</td>\n<td style=\"border: 1px solid black ;\">ROOK</td>\n<td style=\"border: 1px solid black ;\">PASS</td></tr>\n<tr style=\"background-color: #CFCFA3;\"><td style=\"border: 1px solid black ;\">SSJ18380974</td>\n<td style=\"border: 1px solid black ;\">LFARISASY-90890-110/G0</td>\n<td style=\"border: 1px solid black ;\">633956</td>\n<td style=\"border: 1px solid black ;\">//init3_real --disablePhys True</td>\n<td style=\"border: 1px solid black ;\">2018-11-21 04:59:10+00</td>\n<td style=\"border: 1px solid black ;\">burnin</td>\n<td style=\"border: 1px solid black ;\">HEAT-SINK</td>\n<td style=\"border: 1px solid black ;\">FAIL</td></tr>\n<tr style=\"background-color: #FFFFDB;\"><td style=\"border: 1px solid black ;\">SSJ18415832</td>\n<td style=\"border: 1px solid black ;\">LFARISASY-52576-204/B0</td>\n<td style=\"border: 1px solid black ;\">7885</td>\n<td style=\"border: 1px solid black ;\">/linecards/7/testTraffic -l None -d 300 -s 9208 --allow, /linecards/7/testTraffic -l None -d 90 -s 64 --allow --cells --no-ocb, /linecards/</td>\n<td style=\"border: 1px solid black ;\">2018-11-21 05:17:00+00</td>\n<td style=\"border: 1px solid black ;\">fvt</td>\n<td style=\"border: 1px solid black ;\">U309</td>\n<td style=\"border: 1px solid black ;\">FAIL</td></tr>\n<tr style=\"background-color: #CFCFA3;\"><td style=\"border: 1px solid black ;\">SSJ18422824</td>\n<td style=\"border: 1px solid black ;\">LFARISASY-52128-105/A1</td>\n<td style=\"border: 1px solid black ;\">634788</td>\n<td style=\"border: 1px solid black ;\">/linecards/3/testPrbs -l Phy -d 300 --mode Prbs31 --allow --fabric --continuous</td>\n<td style=\"border: 1px solid black ;\">2018-11-21 05:36:07+00</td>\n<td style=\"border: 1px solid black ;\">ess</td>\n<td style=\"border: 1px solid black ;\">J6</td>\n<td style=\"border: 1px solid black ;\">PASS</td></tr>\n<tr style=\"background-color: #FFFFDB;\"><td style=\"border: 1px solid black ;\">SSJ18403001</td>\n<td style=\"border: 1px solid black ;\">LFARISASY-52787-104/A0</td>\n<td style=\"border: 1px solid black ;\">635083</td>\n<td style=\"border: 1px solid black ;\">/linecards/8/testPrbs -l None -d 300 --mode Prbs31 --allow --fabric, /linecards/8/testTraffic -l Phy -d 60 -s 512 --allow --no-ocb, /lineca</td>\n<td style=\"border: 1px solid black ;\">2018-11-21 05:50:51+00</td>\n<td style=\"border: 1px solid black ;\">fvt</td>\n<td style=\"border: 1px solid black ;\">J5</td>\n<td style=\"border: 1px solid black ;\">FAIL</td></tr>\n<tr style=\"background-color: #CFCFA3;\"><td style=\"border: 1px solid black ;\">SSJ18380973</td>\n<td style=\"border: 1px solid black ;\">LFARISASY-90890-110/G0</td>\n<td style=\"border: 1px solid black ;\">633956</td>\n<td style=\"border: 1px solid black ;\">[2018-11-20 17:50:30 UTC] ##! INVALID SETUP: Reported by command /switchCard/bcm84848Debug/fastPhyCableTest ==> PHY Ports:  18 failed the fast Phy cable test. Please inspect loopbacks.</td>\n<td style=\"border: 1px solid black ;\">2018-11-21 06:08:37+00</td>\n<td style=\"border: 1px solid black ;\">fvt</td>\n<td style=\"border: 1px solid black ;\">J10</td>\n<td style=\"border: 1px solid black ;\">PASS</td></tr>\n<tr style=\"background-color: #FFFFDB;\"><td style=\"border: 1px solid black ;\">SSJ18450311</td>\n<td style=\"border: 1px solid black ;\">LFARISASY-51704-115/A1</td>\n<td style=\"border: 1px solid black ;\">634663</td>\n<td style=\"border: 1px solid black ;\">/linecards/4/loopbackPresenceTest, /linecards/4/xcvrs/5/testAll --margin low --tolerance 15, /linecards/4/xcvrs/5/showDeviceInfo, /linecard</td>\n<td style=\"border: 1px solid black ;\">2018-11-21 07:21:57-06</td>\n<td style=\"border: 1px solid black ;\">fvt</td>\n<td style=\"border: 1px solid black ;\">J17</td>\n<td style=\"border: 1px solid black ;\">PASS</td></tr>\n<tr style=\"background-color: #CFCFA3;\"><td style=\"border: 1px solid black ;\">SSJ18380848</td>\n<td style=\"border: 1px solid black ;\">LFARISASY-90890-110/G0</td>\n<td style=\"border: 1px solid black ;\">633993</td>\n<td style=\"border: 1px solid black ;\">FAIL: //testInteractive</td>\n<td style=\"border: 1px solid black ;\">2018-11-21 08:41:12-06</td>\n<td style=\"border: 1px solid black ;\">fvt-interactive</td>\n<td style=\"border: 1px solid black ;\">J9</td>\n<td style=\"border: 1px solid black ;\">PASS</td></tr>\n<tr style=\"background-color: #FFFFDB;\"><td style=\"border: 1px solid black ;\">SSJ18450344</td>\n<td style=\"border: 1px solid black ;\">LFARISASY-51704-115/A1</td>\n<td style=\"border: 1px solid black ;\">634663</td>\n<td style=\"border: 1px solid black ;\">FAIL: Linecard4/led.0</td>\n<td style=\"border: 1px solid black ;\">2018-11-21 08:41:33-06</td>\n<td style=\"border: 1px solid black ;\">fst-interactive</td>\n<td style=\"border: 1px solid black ;\">D104</td>\n<td style=\"border: 1px solid black ;\">PASS</td></tr>\n<tr style=\"background-color: #CFCFA3;\"><td style=\"border: 1px solid black ;\">SSJ18450724</td>\n<td style=\"border: 1px solid black ;\">LFARISASY-50827-107/A1</td>\n<td style=\"border: 1px solid black ;\">634663</td>\n<td style=\"border: 1px solid black ;\">FAIL: Linecard8/led.0</td>\n<td style=\"border: 1px solid black ;\">2018-11-21 08:51:29-06</td>\n<td style=\"border: 1px solid black ;\">fst-interactive</td>\n<td style=\"border: 1px solid black ;\">Z005</td>\n<td style=\"border: 1px solid black ;\">FAIL</td></tr>\n<tr style=\"background-color: #FFFFDB;\"><td style=\"border: 1px solid black ;\">SSJ18412293</td>\n<td style=\"border: 1px solid black ;\">LFARISASY-52527-104/B1</td>\n<td style=\"border: 1px solid black ;\">633872</td>\n<td style=\"border: 1px solid black ;\">/fabriccards/3/testPrbs --duration 300 --continuous False</td>\n<td style=\"border: 1px solid black ;\">2018-11-21 10:24:47-06</td>\n<td style=\"border: 1px solid black ;\">fvt</td>\n<td style=\"border: 1px solid black ;\">EJECTOR CHASSIS</td>\n<td style=\"border: 1px solid black ;\">PASS</td></tr>\n<tr style=\"background-color: #CFCFA3;\"><td style=\"border: 1px solid black ;\">SSJ18238597</td>\n<td style=\"border: 1px solid black ;\">LFARISASY-91674-106/B0</td>\n<td style=\"border: 1px solid black ;\">634705</td>\n<td style=\"border: 1px solid black ;\">/switchCard/setupTestFull --portMode portMode25G --media Copper --ports range(128)</td>\n<td style=\"border: 1px solid black ;\">2018-11-21 10:53:30-06</td>\n<td style=\"border: 1px solid black ;\">burnin</td>\n<td style=\"border: 1px solid black ;\">RETEST ICT,J18</td>\n<td style=\"border: 1px solid black ;\">FAIL</td></tr>\n<tr style=\"background-color: #FFFFDB;\"><td style=\"border: 1px solid black ;\">SSJ18442057</td>\n<td style=\"border: 1px solid black ;\">LFARISASY-52543-209/A0</td>\n<td style=\"border: 1px solid black ;\">7885</td>\n<td style=\"border: 1px solid black ;\">FAIL: /linecards/9/portLeds/testCountOffLeds</td>\n<td style=\"border: 1px solid black ;\">2018-11-21 12:32:19-06</td>\n<td style=\"border: 1px solid black ;\">fvt-interactive</td>\n<td style=\"border: 1px solid black ;\">LIGHTPIPE</td>\n<td style=\"border: 1px solid black ;\">PASS</td></tr>\n<tr style=\"background-color: #CFCFA3;\"><td style=\"border: 1px solid black ;\">SSJ18460734</td>\n<td style=\"border: 1px solid black ;\">LFARISASY-52787-104/A0</td>\n<td style=\"border: 1px solid black ;\">7885</td>\n<td style=\"border: 1px solid black ;\">/linecards/9/testTraffic -l None -d 300 -s 9208 --allow, /linecards/9/testTraffic -l None -d 90 -s 64 --allow --cells --no-ocb, /linecards/</td>\n<td style=\"border: 1px solid black ;\">2018-11-21 13:05:25-06</td>\n<td style=\"border: 1px solid black ;\">fvt</td>\n<td style=\"border: 1px solid black ;\">J16</td>\n<td style=\"border: 1px solid black ;\">FAIL</td></tr>\n<tr style=\"background-color: #FFFFDB;\"><td style=\"border: 1px solid black ;\">SSJ18421601</td>\n<td style=\"border: 1px solid black ;\">LFARISASY-51704-115/A1</td>\n<td style=\"border: 1px solid black ;\">634663</td>\n<td style=\"border: 1px solid black ;\">/linecards/5/fvtTest --verbose 0, /linecards/5/verifyRov</td>\n<td style=\"border: 1px solid black ;\">2018-11-21 13:07:15-06</td>\n<td style=\"border: 1px solid black ;\">fvt</td>\n<td style=\"border: 1px solid black ;\">U51</td>\n<td style=\"border: 1px solid black ;\">FAIL</td></tr>\n<tr style=\"background-color: #CFCFA3;\"><td style=\"border: 1px solid black ;\">SSJ18380900</td>\n<td style=\"border: 1px solid black ;\">LFARISASY-90890-110/G0</td>\n<td style=\"border: 1px solid black ;\">633993</td>\n<td style=\"border: 1px solid black ;\">##! INVALID SETUP: Reported by test //checkSetup ==> System not test ready. Please check the following ports (indexed starting at one): [17, 18]</td>\n<td style=\"border: 1px solid black ;\">2018-11-21 13:28:16+00</td>\n<td style=\"border: 1px solid black ;\">ess</td>\n<td style=\"border: 1px solid black ;\">J10</td>\n<td style=\"border: 1px solid black ;\">PASS</td></tr>\n<tr style=\"background-color: #FFFFDB;\"><td style=\"border: 1px solid black ;\">SSJ18381036</td>\n<td style=\"border: 1px solid black ;\">LFARISASY-90890-110/G0</td>\n<td style=\"border: 1px solid black ;\">634705</td>\n<td style=\"border: 1px solid black ;\">##! INVALID SETUP: Reported by test //checkSetup ==> System not test ready. Please check the following ports (indexed starting at one): [52, 52]</td>\n<td style=\"border: 1px solid black ;\">2018-11-21 14:10:43+00</td>\n<td style=\"border: 1px solid black ;\">fvt</td>\n<td style=\"border: 1px solid black ;\">J7</td>\n<td style=\"border: 1px solid black ;\">FAIL</td></tr>\n<tr style=\"background-color: #CFCFA3;\"><td style=\"border: 1px solid black ;\">SSJ18441990</td>\n<td style=\"border: 1px solid black ;\">LFARISASY-52787-104/A0</td>\n<td style=\"border: 1px solid black ;\">7885</td>\n<td style=\"border: 1px solid black ;\">/linecards/10/init2</td>\n<td style=\"border: 1px solid black ;\">2018-11-21 14:47:58+00</td>\n<td style=\"border: 1px solid black ;\">fvt-configure</td>\n<td style=\"border: 1px solid black ;\">R3134</td>\n<td style=\"border: 1px solid black ;\">PASS</td></tr>\n<tr style=\"background-color: #FFFFDB;\"><td style=\"border: 1px solid black ;\">SSJ18292548</td>\n<td style=\"border: 1px solid black ;\">LFARISASY-90519-108/B0</td>\n<td style=\"border: 1px solid black ;\">634705</td>\n<td style=\"border: 1px solid black ;\">e/switch/cm-64-serdes, /DiagTestRunner/_run/CliTest.pexpect.TIMEOUT</td>\n<td style=\"border: 1px solid black ;\">2018-11-21 15:25:50+00</td>\n<td style=\"border: 1px solid black ;\">ess</td>\n<td style=\"border: 1px solid black ;\">J13</td>\n<td style=\"border: 1px solid black ;\">FAIL</td></tr>\n<tr style=\"background-color: #CFCFA3;\"><td style=\"border: 1px solid black ;\">SSJ18451403</td>\n<td style=\"border: 1px solid black ;\">LFARISASY-52062-108/B0</td>\n<td style=\"border: 1px solid black ;\">637183</td>\n<td style=\"border: 1px solid black ;\">/fabriccards/1/showFanSpeeds, /fabriccards/1/fanTest</td>\n<td style=\"border: 1px solid black ;\">2018-11-21 15:27:24-06</td>\n<td style=\"border: 1px solid black ;\">fvt</td>\n<td style=\"border: 1px solid black ;\">FAN2</td>\n<td style=\"border: 1px solid black ;\">PASS</td></tr>\n<tr style=\"background-color: #FFFFDB;\"><td style=\"border: 1px solid black ;\">SSJ18442633</td>\n<td style=\"border: 1px solid black ;\">LFARISASY-91919-102/B0</td>\n<td style=\"border: 1px solid black ;\">633993</td>\n<td style=\"border: 1px solid black ;\">//testTraffic -l None -s 9216 -d 1800 -n auto --allow</td>\n<td style=\"border: 1px solid black ;\">2018-11-21 16:40:07+00</td>\n<td style=\"border: 1px solid black ;\">burnin</td>\n<td style=\"border: 1px solid black ;\">LOOPBACK</td>\n<td style=\"border: 1px solid black ;\">FAIL</td></tr>\n<tr style=\"background-color: #CFCFA3;\"><td style=\"border: 1px solid black ;\">SSJ18450204</td>\n<td style=\"border: 1px solid black ;\">LFARISASY-51704-115/A1</td>\n<td style=\"border: 1px solid black ;\">634663</td>\n<td style=\"border: 1px solid black ;\">FAIL: /linecards/7/generalLedTest</td>\n<td style=\"border: 1px solid black ;\">2018-11-21 16:53:34+00</td>\n<td style=\"border: 1px solid black ;\">fvt-interactive</td>\n<td style=\"border: 1px solid black ;\">Z005</td>\n<td style=\"border: 1px solid black ;\">PASS</td></tr>\n<tr style=\"background-color: #FFFFDB;\"><td style=\"border: 1px solid black ;\">SSJ18450906</td>\n<td style=\"border: 1px solid black ;\">LFARISASY-91939-110/A0</td>\n<td style=\"border: 1px solid black ;\">622377</td>\n<td style=\"border: 1px solid black ;\">##! COMMAND FAIL: //initialize</td>\n<td style=\"border: 1px solid black ;\">2018-11-21 17:41:56+00</td>\n<td style=\"border: 1px solid black ;\">fvt-configure</td>\n<td style=\"border: 1px solid black ;\">J1_OPEN</td>\n<td style=\"border: 1px solid black ;\">PASS</td></tr>\n<tr style=\"background-color: #CFCFA3;\"><td style=\"border: 1px solid black ;\">SSJ18402603</td>\n<td style=\"border: 1px solid black ;\">LFARISASY-70931-106/B0</td>\n<td style=\"border: 1px solid black ;\">633993</td>\n<td style=\"border: 1px solid black ;\">TestSetupFailure: Failed to get root login to the dut due to timeout. Details: Timeout (420 seconds) waiting for prompt, but got 'exit</td>\n<td style=\"border: 1px solid black ;\">2018-11-21 17:43:21+00</td>\n<td style=\"border: 1px solid black ;\">burnin</td>\n<td style=\"border: 1px solid black ;\">U12</td>\n<td style=\"border: 1px solid black ;\">FAIL</td></tr>\n<tr style=\"background-color: #FFFFDB;\"><td style=\"border: 1px solid black ;\">SSJ18441950</td>\n<td style=\"border: 1px solid black ;\">LFARISASY-52787-104/A0</td>\n<td style=\"border: 1px solid black ;\">7885</td>\n<td style=\"border: 1px solid black ;\">/linecards/10/testDramBist</td>\n<td style=\"border: 1px solid black ;\">2018-11-21 18:17:22+00</td>\n<td style=\"border: 1px solid black ;\">ess</td>\n<td style=\"border: 1px solid black ;\">U82</td>\n<td style=\"border: 1px solid black ;\">PASS</td></tr>\n<tr style=\"background-color: #CFCFA3;\"><td style=\"border: 1px solid black ;\">SSJ18424252</td>\n<td style=\"border: 1px solid black ;\">LFARISASY-51704-115/A1</td>\n<td style=\"border: 1px solid black ;\">634663</td>\n<td style=\"border: 1px solid black ;\">/linecards/3/fvtConfig --pca None --fdlFile None --programQspi False --plxEepromBinFile /usr/share/DosFirmwareImages/PLX87xx_LC_</td>\n<td style=\"border: 1px solid black ;\">2018-11-21 18:23:36+00</td>\n<td style=\"border: 1px solid black ;\">fvt-configure</td>\n<td style=\"border: 1px solid black ;\">C141</td>\n<td style=\"border: 1px solid black ;\">PASS</td></tr>\n<tr style=\"background-color: #FFFFDB;\"><td style=\"border: 1px solid black ;\">SSJ18452934</td>\n<td style=\"border: 1px solid black ;\">LFARISASY-91673-106/A0</td>\n<td style=\"border: 1px solid black ;\">633956</td>\n<td style=\"border: 1px solid black ;\">/switchCard/verifyVoltage --margin high</td>\n<td style=\"border: 1px solid black ;\">2018-11-21 18:28:49-06</td>\n<td style=\"border: 1px solid black ;\">ess</td>\n<td style=\"border: 1px solid black ;\">43</td>\n<td style=\"border: 1px solid black ;\">PASS</td></tr>\n<tr style=\"background-color: #CFCFA3;\"><td style=\"border: 1px solid black ;\">SSJ18370230</td>\n<td style=\"border: 1px solid black ;\">LFARISASY-51808-120/A0</td>\n<td style=\"border: 1px solid black ;\">635157</td>\n<td style=\"border: 1px solid black ;\">##! INVALID SETUP: Reported by test /fabriccards/4/testLinkUp --prbsTest True --duration 30 --cores [u'None'] --linecards [u'None'] ==> Invalid link status on linecard connectors 3, 6.</td>\n<td style=\"border: 1px solid black ;\">2018-11-21 18:30:45+00</td>\n<td style=\"border: 1px solid black ;\">ess</td>\n<td style=\"border: 1px solid black ;\">U19</td>\n<td style=\"border: 1px solid black ;\">PASS</td></tr>\n<tr style=\"background-color: #FFFFDB;\"><td style=\"border: 1px solid black ;\">SSJ18460792</td>\n<td style=\"border: 1px solid black ;\">LFARISASY-52787-104/A0</td>\n<td style=\"border: 1px solid black ;\">7885</td>\n<td style=\"border: 1px solid black ;\">##! INVALID SETUP: Reported by test /linecards/9/testLoopbackPresenceAndUpdateInsertionCount ==> testLoopbackPresence failed: loopbacks were not plugged in these front-panel ports ['13', '14']</td>\n<td style=\"border: 1px solid black ;\">2018-11-21 18:38:04+00</td>\n<td style=\"border: 1px solid black ;\">fvt</td>\n<td style=\"border: 1px solid black ;\">J17</td>\n<td style=\"border: 1px solid black ;\">PASS</td></tr>\n<tr style=\"background-color: #CFCFA3;\"><td style=\"border: 1px solid black ;\">SSJ18442426</td>\n<td style=\"border: 1px solid black ;\">LFARISASY-52544-109/A0</td>\n<td style=\"border: 1px solid black ;\">7885</td>\n<td style=\"border: 1px solid black ;\">/linecards/3/init2</td>\n<td style=\"border: 1px solid black ;\">2018-11-21 18:50:04+00</td>\n<td style=\"border: 1px solid black ;\">fvt-configure</td>\n<td style=\"border: 1px solid black ;\">C1130</td>\n<td style=\"border: 1px solid black ;\">PASS</td></tr>\n<tr style=\"background-color: #FFFFDB;\"><td style=\"border: 1px solid black ;\">SSJ18460007</td>\n<td style=\"border: 1px solid black ;\">LFARISASY-51276-107/A1</td>\n<td style=\"border: 1px solid black ;\">637183</td>\n<td style=\"border: 1px solid black ;\">/linecards/7/testFpgaTransceiverSmbus, /linecards/7/testFpgaTransceiverSmbus, /linecards/7/testFpgaTransceiverSmbus</td>\n<td style=\"border: 1px solid black ;\">2018-11-21 21:00:01+00</td>\n<td style=\"border: 1px solid black ;\">ess</td>\n<td style=\"border: 1px solid black ;\">LB11</td>\n<td style=\"border: 1px solid black ;\">FAIL</td></tr>\n<tr style=\"background-color: #CFCFA3;\"><td style=\"border: 1px solid black ;\">SSJ18451309</td>\n<td style=\"border: 1px solid black ;\">LFARISASY-52062-108/B0</td>\n<td style=\"border: 1px solid black ;\">637183</td>\n<td style=\"border: 1px solid black ;\">/fabriccards/2/showFanSpeeds, /fabriccards/2/fanTest</td>\n<td style=\"border: 1px solid black ;\">2018-11-21 21:17:18+00</td>\n<td style=\"border: 1px solid black ;\">fvt</td>\n<td style=\"border: 1px solid black ;\">FAN1</td>\n<td style=\"border: 1px solid black ;\">PASS</td></tr>\n<tr style=\"background-color: #FFFFDB;\"><td style=\"border: 1px solid black ;\">SSJ18432658</td>\n<td style=\"border: 1px solid black ;\">LFARISASY-52062-108/B0</td>\n<td style=\"border: 1px solid black ;\">637183</td>\n<td style=\"border: 1px solid black ;\">/fabriccards/5/showFanSpeeds, /fabriccards/5/fanTest</td>\n<td style=\"border: 1px solid black ;\">2018-11-21 21:35:45+00</td>\n<td style=\"border: 1px solid black ;\">fvt</td>\n<td style=\"border: 1px solid black ;\">FAN8</td>\n<td style=\"border: 1px solid black ;\">PASS</td></tr>\n<tr style=\"background-color: #CFCFA3;\"><td style=\"border: 1px solid black ;\">SSJ18452027</td>\n<td style=\"border: 1px solid black ;\">LFARISASY-52787-104/A0</td>\n<td style=\"border: 1px solid black ;\">7885</td>\n<td style=\"border: 1px solid black ;\">/linecards/3/init2</td>\n<td style=\"border: 1px solid black ;\">2018-11-21 21:40:04+00</td>\n<td style=\"border: 1px solid black ;\">fvt-configure</td>\n<td style=\"border: 1px solid black ;\">U141</td>\n<td style=\"border: 1px solid black ;\">FAIL</td></tr>\n<tr style=\"background-color: #FFFFDB;\"><td style=\"border: 1px solid black ;\">SSJ18451422</td>\n<td style=\"border: 1px solid black ;\">LFARISASY-52062-108/B0</td>\n<td style=\"border: 1px solid black ;\">637183</td>\n<td style=\"border: 1px solid black ;\">/fabriccards/5/showFanSpeeds, /fabriccards/5/fanTest</td>\n<td style=\"border: 1px solid black ;\">2018-11-21 21:41:07+00</td>\n<td style=\"border: 1px solid black ;\">fvt</td>\n<td style=\"border: 1px solid black ;\">FAN 4</td>\n<td style=\"border: 1px solid black ;\">PASS</td></tr>\n<tr style=\"background-color: #CFCFA3;\"><td style=\"border: 1px solid black ;\">SSJ18441739</td>\n<td style=\"border: 1px solid black ;\">LFARISASY-70931-106/B0</td>\n<td style=\"border: 1px solid black ;\">633956</td>\n<td style=\"border: 1px solid black ;\">//init2, //fan test direction, /fanChassis/1/fans/1/testFanSpeed</td>\n<td style=\"border: 1px solid black ;\">2018-11-21 21:50:59-06</td>\n<td style=\"border: 1px solid black ;\">burnin</td>\n<td style=\"border: 1px solid black ;\">U46</td>\n<td style=\"border: 1px solid black ;\">PASS</td></tr>\n<tr style=\"background-color: #FFFFDB;\"><td style=\"border: 1px solid black ;\">SSJ18441972</td>\n<td style=\"border: 1px solid black ;\">LFARISASY-52787-104/A0</td>\n<td style=\"border: 1px solid black ;\">7885</td>\n<td style=\"border: 1px solid black ;\">/linecards/8/testTraffic -l None -d 300 -s 9208 --allow, /linecards/8/testTraffic -l None -d 90 -s 64 --allow --cells --no-ocb, /linecards/</td>\n<td style=\"border: 1px solid black ;\">2018-11-21 21:54:52+00</td>\n<td style=\"border: 1px solid black ;\">fvt</td>\n<td style=\"border: 1px solid black ;\">C11688</td>\n<td style=\"border: 1px solid black ;\">PASS</td></tr>\n<tr style=\"background-color: #CFCFA3;\"><td style=\"border: 1px solid black ;\">SSJ18270122</td>\n<td style=\"border: 1px solid black ;\">LFARISASY-90571-124/D0</td>\n<td style=\"border: 1px solid black ;\">627542</td>\n<td style=\"border: 1px solid black ;\">e/switch/cm-64-serdes, /DiagTestRunner/_run/CliTest.pexpect.TIMEOUT</td>\n<td style=\"border: 1px solid black ;\">2018-11-21 22:15:52+00</td>\n<td style=\"border: 1px solid black ;\">ess</td>\n<td style=\"border: 1px solid black ;\">PROGRAM CHIL</td>\n<td style=\"border: 1px solid black ;\">PASS</td></tr>\n<tr style=\"background-color: #FFFFDB;\"><td style=\"border: 1px solid black ;\">SSJ18451405</td>\n<td style=\"border: 1px solid black ;\">LFARISASY-52062-108/B0</td>\n<td style=\"border: 1px solid black ;\">637183</td>\n<td style=\"border: 1px solid black ;\">/fabriccards/1/initialize, /fabriccards/1/testPrbs --duration 300 --mode FecAuto --continuous False</td>\n<td style=\"border: 1px solid black ;\">2018-11-21 22:16:24-06</td>\n<td style=\"border: 1px solid black ;\">fvt</td>\n<td style=\"border: 1px solid black ;\">J5</td>\n<td style=\"border: 1px solid black ;\">FAIL</td></tr>\n<tr style=\"background-color: #CFCFA3;\"><td style=\"border: 1px solid black ;\">SSJ18412328</td>\n<td style=\"border: 1px solid black ;\">LFARISASY-52527-104/B1</td>\n<td style=\"border: 1px solid black ;\">637183</td>\n<td style=\"border: 1px solid black ;\">/fabriccards/3/showFanSpeeds, /fabriccards/3/fanTest</td>\n<td style=\"border: 1px solid black ;\">2018-11-21 22:27:50+00</td>\n<td style=\"border: 1px solid black ;\">fvt</td>\n<td style=\"border: 1px solid black ;\">FAN 6</td>\n<td style=\"border: 1px solid black ;\">PASS</td></tr>\n<tr style=\"background-color: #FFFFDB;\"><td style=\"border: 1px solid black ;\">SSJ18330676</td>\n<td style=\"border: 1px solid black ;\">LFARISASY-90886-125/B0</td>\n<td style=\"border: 1px solid black ;\">628696</td>\n<td style=\"border: 1px solid black ;\">/switchCard/trafficTest --pktSize 9126 --pkts 1G:2,10G:10 --loopbackMode None --patt mixed --duration 30 --cables all --ports al, /switchCa</td>\n<td style=\"border: 1px solid black ;\">2018-11-21 22:29:58+00</td>\n<td style=\"border: 1px solid black ;\">fvt</td>\n<td style=\"border: 1px solid black ;\">L25</td>\n<td style=\"border: 1px solid black ;\">PASS</td></tr>\n<tr style=\"background-color: #CFCFA3;\"><td style=\"border: 1px solid black ;\">SSJ18423385</td>\n<td style=\"border: 1px solid black ;\">LFARISASY-91984-202/B0</td>\n<td style=\"border: 1px solid black ;\">627542</td>\n<td style=\"border: 1px solid black ;\">==================== Exception raised in 'python /usr/bin/mfg --useDb --station fvt --dutType fixed --arss 10.90.216.38 --logDir /log/DCS-7280CR2A-30/1842/SSJ18423385/fvt/run-1 --logName /log/DCS-7280CR2A-30/1842/SSJ18423385/fvt/run-1.log --testbed dut10 --asy ASY0305101C0 --pca PCA0103003B1 --sn SSJ18423385 --sku DCS-7280CR2A-30 --mac 74:83:ef:26:3c:3b --swiName /images/EOS-fixed.swi --deviation  --runId 2229806 ' (PID 12955) ====================</td>\n<td style=\"border: 1px solid black ;\">2018-11-21 22:34:26+00</td>\n<td style=\"border: 1px solid black ;\">fvt</td>\n<td style=\"border: 1px solid black ;\">REPLACED R67</td>\n<td style=\"border: 1px solid black ;\">FAIL</td></tr>\n<tr style=\"background-color: #FFFFDB;\"><td style=\"border: 1px solid black ;\">SSJ18451431</td>\n<td style=\"border: 1px solid black ;\">LFARISASY-52062-108/B0</td>\n<td style=\"border: 1px solid black ;\">637183</td>\n<td style=\"border: 1px solid black ;\">/fabriccards/3/testPrbsKeplerCold --duration 1800 --mode FecAuto --continuous True, /fabriccards/3/testPrbsKeplerCold --duration 300 --mode</td>\n<td style=\"border: 1px solid black ;\">2018-11-22 01:31:45+00</td>\n<td style=\"border: 1px solid black ;\">ess</td>\n<td style=\"border: 1px solid black ;\">J4</td>\n<td style=\"border: 1px solid black ;\">PASS</td></tr>\n<tr style=\"background-color: #CFCFA3;\"><td style=\"border: 1px solid black ;\">SSJ18432656</td>\n<td style=\"border: 1px solid black ;\">LFARISASY-52062-108/B0</td>\n<td style=\"border: 1px solid black ;\">637183</td>\n<td style=\"border: 1px solid black ;\">/fabriccards/4/initialize, /fabriccards/4/testPrbs --duration 300 --mode FecAuto --continuous False, /fabriccards/4/testSnake --duration 30</td>\n<td style=\"border: 1px solid black ;\">2018-11-22 01:33:32+00</td>\n<td style=\"border: 1px solid black ;\">fvt</td>\n<td style=\"border: 1px solid black ;\">J5</td>\n<td style=\"border: 1px solid black ;\">PASS</td></tr>\n<tr style=\"background-color: #FFFFDB;\"><td style=\"border: 1px solid black ;\">SSJ18441851</td>\n<td style=\"border: 1px solid black ;\">LFARISASY-70931-106/B0</td>\n<td style=\"border: 1px solid black ;\">633956</td>\n<td style=\"border: 1px solid black ;\">/switchCard/testTraffic -s 9208 -l None --allow-mix-speeds -r 25GBase -d 1500 --ppm 800000</td>\n<td style=\"border: 1px solid black ;\">2018-11-22 01:50:14+00</td>\n<td style=\"border: 1px solid black ;\">ess</td>\n<td style=\"border: 1px solid black ;\">U101</td>\n<td style=\"border: 1px solid black ;\">PASS</td></tr>\n<tr style=\"background-color: #CFCFA3;\"><td style=\"border: 1px solid black ;\">SSJ18442104</td>\n<td style=\"border: 1px solid black ;\">LFARISASY-52543-209/A0</td>\n<td style=\"border: 1px solid black ;\">637183</td>\n<td style=\"border: 1px solid black ;\">/linecards/9/init2</td>\n<td style=\"border: 1px solid black ;\">2018-11-22 01:54:43+00</td>\n<td style=\"border: 1px solid black ;\">fvt-configure</td>\n<td style=\"border: 1px solid black ;\">C1130</td>\n<td style=\"border: 1px solid black ;\">PASS</td></tr>\n<tr style=\"background-color: #FFFFDB;\"><td style=\"border: 1px solid black ;\">SSJ18442520</td>\n<td style=\"border: 1px solid black ;\">LFARISASY-91919-102/B0</td>\n<td style=\"border: 1px solid black ;\">633956</td>\n<td style=\"border: 1px solid black ;\">TestSetupFailure: Unable to get into aboot mode but got non-standard ASCII characters. This could indicate a misprogrammed/corrupted Aboot or CPLD. Please check log for more information.</td>\n<td style=\"border: 1px solid black ;\">2018-11-22 02:54:27+00</td>\n<td style=\"border: 1px solid black ;\">fvt-configure</td>\n<td style=\"border: 1px solid black ;\">CABLE</td>\n<td style=\"border: 1px solid black ;\">PASS</td></tr>\n</table>\n", 
    "prod_nums": [
        30, 
        29, 
        23, 
        21, 
        14, 
        13, 
        8, 
        7, 
        7, 
        7, 
        7, 
        6, 
        6, 
        5, 
        5, 
        2, 
        2, 
        1, 
        1
    ], 
    "topFails": {
        "counts": [
            9, 
            6, 
            6, 
            5, 
            3
        ], 
        "labels": [
            "/fabriccards//showFanSpeeds, /fabriccards//fanTest", 
            "FAIL: //testInteractive", 
            "[-- :: UTC] ##! INVALID SETUP: Reported by test /fabriccards//testEjectorClosed ==> Card ejector open. Please close ejector.", 
            "/linecards//init", 
            "TestSetupFailure: Failed to get root login to the dut due to timeout. Details: Timeout ( seconds) trying to discover the current mode but got"
        ], 
        "xlabels": [
            {
                "text": "/fabriccards//showFanSpee"
            }, 
            {
                "text": "FAIL: //testInteractive"
            }, 
            {
                "text": "[-- :: UTC] ##! INVALID S"
            }, 
            {
                "text": "/linecards//init"
            }, 
            {
                "text": "TestSetupFailure: Failed "
            }
        ]
    }, 
    "Accs": [
        81.48, 
        75.0, 
        92.31, 
        66.67, 
        78.57, 
        76.92, 
        100.0, 
        66.67, 
        75.0, 
        50.0, 
        100.0, 
        33.33, 
        50.0, 
        25.0, 
        50.0, 
        100.0, 
        0.0, 
        0.0
    ]
}