{
    "Fails": [
        19.05, 
        18.75, 
        27.27, 
        0.0, 
        50.0, 
        60.0, 
        60.0, 
        50.0, 
        100.0, 
        100.0, 
        100.0, 
        100.0
    ], 
    "numFail": [
        8, 
        3, 
        3, 
        0, 
        2, 
        3, 
        3, 
        2, 
        1, 
        2, 
        5, 
        2
    ], 
    "numPass": [
        34, 
        13, 
        8, 
        3, 
        2, 
        2, 
        2, 
        2, 
        0, 
        0, 
        0, 
        0
    ], 
    "Labels": [
        "637183", 
        "633872", 
        "634705", 
        "636107", 
        "634663", 
        "636479", 
        "635083", 
        "146360", 
        "632861", 
        "636874", 
        "633956", 
        "7885"
    ], 
    "Quart": "2018_W07", 
    "topFixes": {
        "counts": [
            4, 
            3, 
            3, 
            3, 
            2
        ], 
        "labels": [
            "R244", 
            "U3", 
            "LED PIPE", 
            "CONSOLE CONN", 
            "MEM-00171"
        ]
    }, 
    "prod_labels": [
        "637183", 
        "633872", 
        "634705", 
        "635083", 
        "633956", 
        "636479", 
        "146360", 
        "634663", 
        "7885", 
        "636107", 
        "636874", 
        "632861"
    ], 
    "failsWithTest": {
        "ess": [
            [
                0, 
                0, 
                0, 
                0, 
                0
            ], 
            [
                "", 
                "", 
                "", 
                "", 
                ""
            ]
        ], 
        "fvt": [
            [
                5, 
                0, 
                0, 
                2, 
                2
            ], 
            [
                "R551,R552,R547,R546,R544,J21,R244,R243", 
                "", 
                "", 
                "HEAT SINK COMPOUND,U32", 
                "C333,U28,J20"
            ]
        ], 
        "burnin": [
            [
                0, 
                0, 
                0, 
                0, 
                0
            ], 
            [
                "", 
                "", 
                "", 
                "", 
                ""
            ]
        ], 
        "fvt-configure": [
            [
                0, 
                0, 
                3, 
                0, 
                0
            ], 
            [
                "", 
                "", 
                "PCA-00978-03 A0,CPU,C523", 
                "", 
                ""
            ]
        ], 
        "fvt-interactive": [
            [
                0, 
                4, 
                0, 
                0, 
                0
            ], 
            [
                "", 
                "LED PIPE,D18", 
                "", 
                "", 
                ""
            ]
        ]
    }, 
    "table": "<br><table style=\"border: 1px solid black ;border-collapse:collapse;font-size: small;\">\n\t\t\t\t\t\t<tr style=\"background-color: #CFCFA3;\">\n\t\t\t\t\t\t\t<th style=\"border: 1px solid black ;\">Serial Number</th>\n\t\t\t\t\t\t\t<th style=\"border: 1px solid black ;\">Part Number</th>\n\t\t\t\t\t\t\t<th style=\"border: 1px solid black ;\">Tech</th>\n\t\t\t\t\t\t\t<th style=\"border: 1px solid black ;\">Fail Text</th>\n\t\t\t\t\t\t\t<th style=\"border: 1px solid black ;\">Debug Time</th>\n\t\t\t\t\t\t\t<th style=\"border: 1px solid black ;\">Failed Test</th>\n\t\t\t\t\t\t\t<th style=\"border: 1px solid black ;\">Fix</th>\n\t\t\t\t\t\t\t<th style=\"border: 1px solid black ;\">Pass/Fail</th>\n\t\t\t\t\t\t</tr><tr style=\"background-color: #FFFFDB;\"><td style=\"border: 1px solid black ;\">SSJ17473165</td>\n<td style=\"border: 1px solid black ;\">LFARISASY-90901-210/F0</td>\n<td style=\"border: 1px solid black ;\">637183</td>\n<td style=\"border: 1px solid black ;\">//testTraffic -l None -s 9216 -d 60 -n 2 --allow, //testTraffic -l None -s 128 -d 20 -n auto --allow --ppm 300000</td>\n<td style=\"border: 1px solid black ;\">2018-02-12 08:20:18-06</td>\n<td style=\"border: 1px solid black ;\">fvt</td>\n<td style=\"border: 1px solid black ;\">J20,J20,J20,U28</td>\n<td style=\"border: 1px solid black ;\">PASS</td></tr>\n<tr style=\"background-color: #CFCFA3;\"><td style=\"border: 1px solid black ;\">SSJ18021721</td>\n<td style=\"border: 1px solid black ;\">LFARISASY-51704-211/A0</td>\n<td style=\"border: 1px solid black ;\">634663</td>\n<td style=\"border: 1px solid black ;\">/linecards/4/tridentFvtTest --intervals 2 --verbose 0 --duration 180 --pwm 100</td>\n<td style=\"border: 1px solid black ;\">2018-02-12 11:57:51-06</td>\n<td style=\"border: 1px solid black ;\">ess</td>\n<td style=\"border: 1px solid black ;\">J6</td>\n<td style=\"border: 1px solid black ;\">PASS</td></tr>\n<tr style=\"background-color: #FFFFDB;\"><td style=\"border: 1px solid black ;\">SSJ17260031</td>\n<td style=\"border: 1px solid black ;\">LFARISASY-52756-204/A0</td>\n<td style=\"border: 1px solid black ;\">7885</td>\n<td style=\"border: 1px solid black ;\">/linecards/5/testPrbs -l None -d 300 --mode Prbs31 --allow --fabric</td>\n<td style=\"border: 1px solid black ;\">2018-02-12 12:03:21-06</td>\n<td style=\"border: 1px solid black ;\">fvt</td>\n<td style=\"border: 1px solid black ;\">U82</td>\n<td style=\"border: 1px solid black ;\">FAIL</td></tr>\n<tr style=\"background-color: #CFCFA3;\"><td style=\"border: 1px solid black ;\">SSJ18020719</td>\n<td style=\"border: 1px solid black ;\">LFARISASY-90890-210/F0</td>\n<td style=\"border: 1px solid black ;\">634705</td>\n<td style=\"border: 1px solid black ;\">logger.info( 'Allow new temperature to soak for 10 minutes.' )</td>\n<td style=\"border: 1px solid black ;\">2018-02-12 12:39:33-06</td>\n<td style=\"border: 1px solid black ;\">ess</td>\n<td style=\"border: 1px solid black ;\">Q9,J8</td>\n<td style=\"border: 1px solid black ;\">FAIL</td></tr>\n<tr style=\"background-color: #FFFFDB;\"><td style=\"border: 1px solid black ;\">SSJ17351259</td>\n<td style=\"border: 1px solid black ;\">LFARISASY-52756-204/B0</td>\n<td style=\"border: 1px solid black ;\">7885</td>\n<td style=\"border: 1px solid black ;\">/linecards/4/testDramBist, /linecards/4/testPrbs -l None -d 300 --mode Prbs31 --allow --fabric --continuous</td>\n<td style=\"border: 1px solid black ;\">2018-02-12 14:35:24-06</td>\n<td style=\"border: 1px solid black ;\">ess</td>\n<td style=\"border: 1px solid black ;\">U104</td>\n<td style=\"border: 1px solid black ;\">FAIL</td></tr>\n<tr style=\"background-color: #CFCFA3;\"><td style=\"border: 1px solid black ;\">SSJ18019261</td>\n<td style=\"border: 1px solid black ;\">LFARISASY-91936-203/C0</td>\n<td style=\"border: 1px solid black ;\">636479</td>\n<td style=\"border: 1px solid black ;\">//testFeDcoWithDepoppedFapsLower --max 5, //testFeAndFapDco --may-update-prefdl-disabled-lanes, //testFeSnake -d 60 -l Phy, //testFeAndFapM</td>\n<td style=\"border: 1px solid black ;\">2018-02-12 15:01:59-06</td>\n<td style=\"border: 1px solid black ;\">fvt</td>\n<td style=\"border: 1px solid black ;\">U43</td>\n<td style=\"border: 1px solid black ;\">PASS</td></tr>\n<tr style=\"background-color: #FFFFDB;\"><td style=\"border: 1px solid black ;\">SSJ18050511</td>\n<td style=\"border: 1px solid black ;\">LFARISASY-51482-211/B0</td>\n<td style=\"border: 1px solid black ;\">633872</td>\n<td style=\"border: 1px solid black ;\">/fabriccards/6/testFeDco</td>\n<td style=\"border: 1px solid black ;\">2018-02-12 15:19:16-06</td>\n<td style=\"border: 1px solid black ;\">fvt</td>\n<td style=\"border: 1px solid black ;\">U3</td>\n<td style=\"border: 1px solid black ;\">PASS</td></tr>\n<tr style=\"background-color: #CFCFA3;\"><td style=\"border: 1px solid black ;\">SSJ18050540</td>\n<td style=\"border: 1px solid black ;\">LFARISASY-51482-211/B0</td>\n<td style=\"border: 1px solid black ;\">633872</td>\n<td style=\"border: 1px solid black ;\">/fabriccards/3/testFeDco, /fabriccards/3/initialize, /fabriccards/3/testPrbs --duration 300 --continuous False, /fabriccards/3/fes/0/initia</td>\n<td style=\"border: 1px solid black ;\">2018-02-12 15:23:36-06</td>\n<td style=\"border: 1px solid black ;\">fvt</td>\n<td style=\"border: 1px solid black ;\">U3</td>\n<td style=\"border: 1px solid black ;\">PASS</td></tr>\n<tr style=\"background-color: #FFFFDB;\"><td style=\"border: 1px solid black ;\">SSJ17331538</td>\n<td style=\"border: 1px solid black ;\">LFARISASY-90901-210/F0</td>\n<td style=\"border: 1px solid black ;\">634705</td>\n<td style=\"border: 1px solid black ;\">/switchCard/testOOBFC --duration 60</td>\n<td style=\"border: 1px solid black ;\">2018-02-12 16:40:38+00</td>\n<td style=\"border: 1px solid black ;\">fvt</td>\n<td style=\"border: 1px solid black ;\">U12</td>\n<td style=\"border: 1px solid black ;\">PASS</td></tr>\n<tr style=\"background-color: #CFCFA3;\"><td style=\"border: 1px solid black ;\">SSJ18031873</td>\n<td style=\"border: 1px solid black ;\">LFARISASY-51704-211/A0</td>\n<td style=\"border: 1px solid black ;\">634663</td>\n<td style=\"border: 1px solid black ;\">##! INVALID SETUP: Reported by test /linecards/10/testLinkUp --duration 30 --prbsTest True --fanPwm 100 ==></td>\n<td style=\"border: 1px solid black ;\">2018-02-12 17:26:27+00</td>\n<td style=\"border: 1px solid black ;\">ess</td>\n<td style=\"border: 1px solid black ;\">J6,J7</td>\n<td style=\"border: 1px solid black ;\">FAIL</td></tr>\n<tr style=\"background-color: #FFFFDB;\"><td style=\"border: 1px solid black ;\">SSJ18020816</td>\n<td style=\"border: 1px solid black ;\">LFARISASY-90890-210/F0</td>\n<td style=\"border: 1px solid black ;\">634705</td>\n<td style=\"border: 1px solid black ;\">/cpuCard/cpu/mathPrimeNumTest --duration 30 --stopOnError True --verbose True</td>\n<td style=\"border: 1px solid black ;\">2018-02-12 17:39:35+00</td>\n<td style=\"border: 1px solid black ;\">burnin</td>\n<td style=\"border: 1px solid black ;\">MEM-00171</td>\n<td style=\"border: 1px solid black ;\">PASS</td></tr>\n<tr style=\"background-color: #CFCFA3;\"><td style=\"border: 1px solid black ;\">SSJ18021433</td>\n<td style=\"border: 1px solid black ;\">LFARISASY-51704-211/A0</td>\n<td style=\"border: 1px solid black ;\">634663</td>\n<td style=\"border: 1px solid black ;\">##! INVALID SETUP: Reported by test /linecards/10/testLinkUp --duration 30 --prbsTest True --fanPwm 100 ==></td>\n<td style=\"border: 1px solid black ;\">2018-02-12 17:45:45+00</td>\n<td style=\"border: 1px solid black ;\">ess</td>\n<td style=\"border: 1px solid black ;\">J4</td>\n<td style=\"border: 1px solid black ;\">FAIL</td></tr>\n<tr style=\"background-color: #FFFFDB;\"><td style=\"border: 1px solid black ;\">SSJ17390176</td>\n<td style=\"border: 1px solid black ;\">LFARISASY-91900-205/A0</td>\n<td style=\"border: 1px solid black ;\">636107</td>\n<td style=\"border: 1px solid black ;\">/switchCard/belkTrafficTestWithFailureLogging --duration=60, //testTraffic -l None -d 60 --cells -s 64 --allow --ppm 500000, //testTraffic</td>\n<td style=\"border: 1px solid black ;\">2018-02-12 17:51:47+00</td>\n<td style=\"border: 1px solid black ;\">fvt</td>\n<td style=\"border: 1px solid black ;\">U89 C3292 C3293,U80,U103,U26</td>\n<td style=\"border: 1px solid black ;\">PASS</td></tr>\n<tr style=\"background-color: #CFCFA3;\"><td style=\"border: 1px solid black ;\">SSJ18032012</td>\n<td style=\"border: 1px solid black ;\">LFARISASY-51704-211/A0</td>\n<td style=\"border: 1px solid black ;\">634663</td>\n<td style=\"border: 1px solid black ;\">/linecards/5/powerOn, /linecards/5/loopbackPresenceTest, /linecards/5/fppModule/28/showDeviceInfo, /linecards/5/fppModule/28/testAll --marg</td>\n<td style=\"border: 1px solid black ;\">2018-02-12 21:19:38+00</td>\n<td style=\"border: 1px solid black ;\">ess</td>\n<td style=\"border: 1px solid black ;\">J22</td>\n<td style=\"border: 1px solid black ;\">PASS</td></tr>\n<tr style=\"background-color: #FFFFDB;\"><td style=\"border: 1px solid black ;\">SSJ17183727</td>\n<td style=\"border: 1px solid black ;\">LFARISASY-90528-207/C0</td>\n<td style=\"border: 1px solid black ;\">637183</td>\n<td style=\"border: 1px solid black ;\">e/traffic/9126-ext, e/traffic/64-ext-dma, e/traffic/9126-ext-dma, e/traffic/65-ext, e/traffic/64-snake, e/traffic/161-ext, e/traffic/128-ex</td>\n<td style=\"border: 1px solid black ;\">2018-02-13 03:22:49+00</td>\n<td style=\"border: 1px solid black ;\">ess</td>\n<td style=\"border: 1px solid black ;\">U32</td>\n<td style=\"border: 1px solid black ;\">PASS</td></tr>\n<tr style=\"background-color: #CFCFA3;\"><td style=\"border: 1px solid black ;\">SSJ17372325</td>\n<td style=\"border: 1px solid black ;\">LFARISASY-90939-203/B0</td>\n<td style=\"border: 1px solid black ;\">633956</td>\n<td style=\"border: 1px solid black ;\">/switchCard/testTraffic -d 60 -s 128 -l None -r 40GBase-4 --allow --ppm 800000</td>\n<td style=\"border: 1px solid black ;\">2018-02-13 04:20:03+00</td>\n<td style=\"border: 1px solid black ;\">burnin</td>\n<td style=\"border: 1px solid black ;\">COMPOUND</td>\n<td style=\"border: 1px solid black ;\">FAIL</td></tr>\n<tr style=\"background-color: #FFFFDB;\"><td style=\"border: 1px solid black ;\">SSJ17412780</td>\n<td style=\"border: 1px solid black ;\">LFARISASY-71920-202/A0</td>\n<td style=\"border: 1px solid black ;\">633956</td>\n<td style=\"border: 1px solid black ;\">ScriptBugFailureErrorCode = 87\nScriptBugFailure:</td>\n<td style=\"border: 1px solid black ;\">2018-02-13 05:14:20+00</td>\n<td style=\"border: 1px solid black ;\">fvt-configure</td>\n<td style=\"border: 1px solid black ;\">U24</td>\n<td style=\"border: 1px solid black ;\">FAIL</td></tr>\n<tr style=\"background-color: #CFCFA3;\"><td style=\"border: 1px solid black ;\">SSJ17183665</td>\n<td style=\"border: 1px solid black ;\">LFARISASY-90519-207/C0</td>\n<td style=\"border: 1px solid black ;\">637183</td>\n<td style=\"border: 1px solid black ;\">TestSetupFailure: Failed to get root login to the dut due to timeout. Details: Timeout (420 seconds) trying to discover the current mode but got no output</td>\n<td style=\"border: 1px solid black ;\">2018-02-13 06:14:04+00</td>\n<td style=\"border: 1px solid black ;\">fvt</td>\n<td style=\"border: 1px solid black ;\">PCA-00119-03 A0</td>\n<td style=\"border: 1px solid black ;\">PASS</td></tr>\n<tr style=\"background-color: #FFFFDB;\"><td style=\"border: 1px solid black ;\">SSJ16519054</td>\n<td style=\"border: 1px solid black ;\">LFARISASY-71878-204/A0</td>\n<td style=\"border: 1px solid black ;\">636479</td>\n<td style=\"border: 1px solid black ;\">PANIC: Unable to get into aboot mode. This could mean an unprogrammed Boot flash, a bad processor or memory, or a power problem</td>\n<td style=\"border: 1px solid black ;\">2018-02-13 15:29:10-06</td>\n<td style=\"border: 1px solid black ;\">fvt-configure</td>\n<td style=\"border: 1px solid black ;\">PCA-00263-02,PCA-00263-02,U106,CPU CARD,UPPER CARD.</td>\n<td style=\"border: 1px solid black ;\">FAIL</td></tr>\n<tr style=\"background-color: #CFCFA3;\"><td style=\"border: 1px solid black ;\">SSJ18050101</td>\n<td style=\"border: 1px solid black ;\">LFARISASY-90901-210/G0</td>\n<td style=\"border: 1px solid black ;\">634705</td>\n<td style=\"border: 1px solid black ;\">-bash-4.3# PANIC: Failed runInDsh command: /cpuCard/programDpm</td>\n<td style=\"border: 1px solid black ;\">2018-02-13 16:40:43+00</td>\n<td style=\"border: 1px solid black ;\">fvt-configure</td>\n<td style=\"border: 1px solid black ;\">J16</td>\n<td style=\"border: 1px solid black ;\">PASS</td></tr>\n<tr style=\"background-color: #FFFFDB;\"><td style=\"border: 1px solid black ;\">SSJ17463172</td>\n<td style=\"border: 1px solid black ;\">LFARISASY-90900-210/F0</td>\n<td style=\"border: 1px solid black ;\">634705</td>\n<td style=\"border: 1px solid black ;\">//initialize</td>\n<td style=\"border: 1px solid black ;\">2018-02-13 16:53:13+00</td>\n<td style=\"border: 1px solid black ;\">burnin</td>\n<td style=\"border: 1px solid black ;\">J35</td>\n<td style=\"border: 1px solid black ;\">PASS</td></tr>\n<tr style=\"background-color: #CFCFA3;\"><td style=\"border: 1px solid black ;\">SSJ17390180</td>\n<td style=\"border: 1px solid black ;\">LFARISASY-91900-205/A0</td>\n<td style=\"border: 1px solid black ;\">636107</td>\n<td style=\"border: 1px solid black ;\">logger.info( 'Allow new temperature to soak for 5 minutes.' )</td>\n<td style=\"border: 1px solid black ;\">2018-02-13 17:06:25+00</td>\n<td style=\"border: 1px solid black ;\">ess</td>\n<td style=\"border: 1px solid black ;\">U20</td>\n<td style=\"border: 1px solid black ;\">PASS</td></tr>\n<tr style=\"background-color: #FFFFDB;\"><td style=\"border: 1px solid black ;\">SSJ17382595</td>\n<td style=\"border: 1px solid black ;\">LFARISASY-90927-206/A0</td>\n<td style=\"border: 1px solid black ;\">146360</td>\n<td style=\"border: 1px solid black ;\">/switchCard/testTraffic -s 9208 -l None --allow-mix-speeds -r 25GBase -d 1500 --ppm 800000</td>\n<td style=\"border: 1px solid black ;\">2018-02-13 17:18:37-06</td>\n<td style=\"border: 1px solid black ;\">ess</td>\n<td style=\"border: 1px solid black ;\">J11,J13,J14</td>\n<td style=\"border: 1px solid black ;\">FAIL</td></tr>\n<tr style=\"background-color: #CFCFA3;\"><td style=\"border: 1px solid black ;\">SSJ18014845</td>\n<td style=\"border: 1px solid black ;\">LFARISASY-90900-210/G0</td>\n<td style=\"border: 1px solid black ;\">634705</td>\n<td style=\"border: 1px solid black ;\">//testTraffic -l None -s 9216 -d 60 -n 2 --allow, //testTraffic -l None -s 128 -d 20 -n auto --allow --ppm 300000</td>\n<td style=\"border: 1px solid black ;\">2018-02-13 18:10:30+00</td>\n<td style=\"border: 1px solid black ;\">fvt</td>\n<td style=\"border: 1px solid black ;\">C333</td>\n<td style=\"border: 1px solid black ;\">PASS</td></tr>\n<tr style=\"background-color: #FFFFDB;\"><td style=\"border: 1px solid black ;\">SSJ18021173</td>\n<td style=\"border: 1px solid black ;\">LFARISASY-91923-204/E1</td>\n<td style=\"border: 1px solid black ;\">637183</td>\n<td style=\"border: 1px solid black ;\">/cpuCard/mgmtPortBoard/Lm73/testPresence, /cpuCard/mgmtPortBoard/Lm73/testRegister, //temp test -t 25, //temp test -t 25</td>\n<td style=\"border: 1px solid black ;\">2018-02-13 19:57:36-06</td>\n<td style=\"border: 1px solid black ;\">fvt</td>\n<td style=\"border: 1px solid black ;\">CONSOLE CONN</td>\n<td style=\"border: 1px solid black ;\">PASS</td></tr>\n<tr style=\"background-color: #CFCFA3;\"><td style=\"border: 1px solid black ;\">SSJ18051163</td>\n<td style=\"border: 1px solid black ;\">LFARISASY-91923-204/E1</td>\n<td style=\"border: 1px solid black ;\">637183</td>\n<td style=\"border: 1px solid black ;\">TestSetupFailure: Unable to get into aboot mode but got non-standard ASCII characters. This could indicate a misprogrammed/corrupted Aboot or CPLD. Please check log for more information.</td>\n<td style=\"border: 1px solid black ;\">2018-02-13 20:01:11-06</td>\n<td style=\"border: 1px solid black ;\">fvt-configure</td>\n<td style=\"border: 1px solid black ;\">CONSOLE CONN</td>\n<td style=\"border: 1px solid black ;\">FAIL</td></tr>\n<tr style=\"background-color: #FFFFDB;\"><td style=\"border: 1px solid black ;\">SSJ18043969</td>\n<td style=\"border: 1px solid black ;\">LFARISASY-91923-204/E1R</td>\n<td style=\"border: 1px solid black ;\">637183</td>\n<td style=\"border: 1px solid black ;\">TestSetupFailure: Unable to get into aboot mode but got non-standard ASCII characters. This could indicate a misprogrammed/corrupted Aboot or CPLD. Please check log for more information.</td>\n<td style=\"border: 1px solid black ;\">2018-02-13 21:38:54-06</td>\n<td style=\"border: 1px solid black ;\">fvt-configure</td>\n<td style=\"border: 1px solid black ;\">CONSOLE CONN,J4</td>\n<td style=\"border: 1px solid black ;\">PASS</td></tr>\n<tr style=\"background-color: #CFCFA3;\"><td style=\"border: 1px solid black ;\">SSJ18020193</td>\n<td style=\"border: 1px solid black ;\">LFARISASY-91923-204/E1</td>\n<td style=\"border: 1px solid black ;\">637183</td>\n<td style=\"border: 1px solid black ;\">waiting for _ipLinkIsUp at /usr/lib/python2.5/site-packages/CommonMfgUtil.py:758 ......................................................................................................................................................................................................TestSetupFailure: Could not confirm successful IP configuration for dut9 (interface: ma1, IP address: 10.99.99.109) even after trying for 300 seconds</td>\n<td style=\"border: 1px solid black ;\">2018-02-13 21:39:43-06</td>\n<td style=\"border: 1px solid black ;\">burnin</td>\n<td style=\"border: 1px solid black ;\">CONSOLE CONN</td>\n<td style=\"border: 1px solid black ;\">PASS</td></tr>\n<tr style=\"background-color: #FFFFDB;\"><td style=\"border: 1px solid black ;\">SSJ18043953</td>\n<td style=\"border: 1px solid black ;\">LFARISASY-91923-204/E1</td>\n<td style=\"border: 1px solid black ;\">637183</td>\n<td style=\"border: 1px solid black ;\">TestSetupFailure: Unable to get into aboot mode.This could mean a misprogrammed or corrupted Aboot, CPLD, DPM, SCD, a bad console connection or a power problem.</td>\n<td style=\"border: 1px solid black ;\">2018-02-13 22:48:59+00</td>\n<td style=\"border: 1px solid black ;\">fvt-configure</td>\n<td style=\"border: 1px solid black ;\">RESEAT J1</td>\n<td style=\"border: 1px solid black ;\">FAIL</td></tr>\n<tr style=\"background-color: #CFCFA3;\"><td style=\"border: 1px solid black ;\">SSJ17473647</td>\n<td style=\"border: 1px solid black ;\">LFARISASY-91923-204/E1</td>\n<td style=\"border: 1px solid black ;\">637183</td>\n<td style=\"border: 1px solid black ;\">//testTraffic -l None -s 9216 -d 300 -n 15 --speed 100G, //testTraffic -l None -s 2048 -d 300 -n 15 --speed 40G, //testTraffic -l None -s 2</td>\n<td style=\"border: 1px solid black ;\">2018-02-13 23:00:44+00</td>\n<td style=\"border: 1px solid black ;\">fvt</td>\n<td style=\"border: 1px solid black ;\">J9</td>\n<td style=\"border: 1px solid black ;\">PASS</td></tr>\n<tr style=\"background-color: #FFFFDB;\"><td style=\"border: 1px solid black ;\">SSJ18051217</td>\n<td style=\"border: 1px solid black ;\">LFARISASY-91923-204/E1</td>\n<td style=\"border: 1px solid black ;\">637183</td>\n<td style=\"border: 1px solid black ;\">/switchCard/xcvr test all -m low</td>\n<td style=\"border: 1px solid black ;\">2018-02-13 23:05:07+00</td>\n<td style=\"border: 1px solid black ;\">fvt</td>\n<td style=\"border: 1px solid black ;\">J21,R243</td>\n<td style=\"border: 1px solid black ;\">PASS</td></tr>\n<tr style=\"background-color: #CFCFA3;\"><td style=\"border: 1px solid black ;\">SSJ18051070</td>\n<td style=\"border: 1px solid black ;\">LFARISASY-91923-204/E1</td>\n<td style=\"border: 1px solid black ;\">637183</td>\n<td style=\"border: 1px solid black ;\">Could not retrieve file logs 'http://dist/log/at67.ssj.mfg/log/DCS-7260CX3-64/1805/SSJ18051070/ess/run-1.log'</td>\n<td style=\"border: 1px solid black ;\">2018-02-13 23:19:19-06</td>\n<td style=\"border: 1px solid black ;\">ess</td>\n<td style=\"border: 1px solid black ;\">PCA-00964-02 A0</td>\n<td style=\"border: 1px solid black ;\">FAIL</td></tr>\n<tr style=\"background-color: #FFFFDB;\"><td style=\"border: 1px solid black ;\">SSJ17050022</td>\n<td style=\"border: 1px solid black ;\">LFARISASY-90929-205/D0</td>\n<td style=\"border: 1px solid black ;\">146360</td>\n<td style=\"border: 1px solid black ;\">/switchCard/power test voltage nominal</td>\n<td style=\"border: 1px solid black ;\">2018-02-14 00:44:16+00</td>\n<td style=\"border: 1px solid black ;\">ess</td>\n<td style=\"border: 1px solid black ;\">R589,U13</td>\n<td style=\"border: 1px solid black ;\">PASS</td></tr>\n<tr style=\"background-color: #CFCFA3;\"><td style=\"border: 1px solid black ;\">SSJ18051281</td>\n<td style=\"border: 1px solid black ;\">LFARISASY-91923-204/E1</td>\n<td style=\"border: 1px solid black ;\">637183</td>\n<td style=\"border: 1px solid black ;\">ScriptBugFailureErrorCode = 87\nScriptBugFailure:</td>\n<td style=\"border: 1px solid black ;\">2018-02-14 01:40:39+00</td>\n<td style=\"border: 1px solid black ;\">fvt-configure</td>\n<td style=\"border: 1px solid black ;\">C523</td>\n<td style=\"border: 1px solid black ;\">PASS</td></tr>\n<tr style=\"background-color: #FFFFDB;\"><td style=\"border: 1px solid black ;\">SSJ18051087</td>\n<td style=\"border: 1px solid black ;\">LFARISASY-91923-204/E1</td>\n<td style=\"border: 1px solid black ;\">637183</td>\n<td style=\"border: 1px solid black ;\">PANIC: Failed to copy rearCard Mfgdata from dut.</td>\n<td style=\"border: 1px solid black ;\">2018-02-14 01:48:18+00</td>\n<td style=\"border: 1px solid black ;\">fvt-configure</td>\n<td style=\"border: 1px solid black ;\">CPLD</td>\n<td style=\"border: 1px solid black ;\">PASS</td></tr>\n<tr style=\"background-color: #CFCFA3;\"><td style=\"border: 1px solid black ;\">SSJ17463423</td>\n<td style=\"border: 1px solid black ;\">LFARISASY-91923-204/C0</td>\n<td style=\"border: 1px solid black ;\">637183</td>\n<td style=\"border: 1px solid black ;\">/switchCard/trident2/testHeatSinkSetup --tempDelta 15</td>\n<td style=\"border: 1px solid black ;\">2018-02-14 02:04:02+00</td>\n<td style=\"border: 1px solid black ;\">burnin</td>\n<td style=\"border: 1px solid black ;\">HEATSINK</td>\n<td style=\"border: 1px solid black ;\">FAIL</td></tr>\n<tr style=\"background-color: #FFFFDB;\"><td style=\"border: 1px solid black ;\">SSJ18051302</td>\n<td style=\"border: 1px solid black ;\">LFARISASY-91923-204/E1</td>\n<td style=\"border: 1px solid black ;\">637183</td>\n<td style=\"border: 1px solid black ;\">==================== Exception raised in 'python /usr/bin/fvt-configure-losangeles --useDb --arss 10.90.216.31 dut28 --sn SSJ18051302 --kvn 111 --sku DCS-7260CX3-64 --mac 74:83:ef:67:85:da --asy ASY0250504E0 --logDir /log/DCS-7260CX3-64/1805/SSJ18051302/fvt-configure/configure-2 --runId 1437536 --deviation D0004110 --deviation D0004141 ' (PID 4707) ====================</td>\n<td style=\"border: 1px solid black ;\">2018-02-14 03:28:49+00</td>\n<td style=\"border: 1px solid black ;\">fvt-configure</td>\n<td style=\"border: 1px solid black ;\">FLASH</td>\n<td style=\"border: 1px solid black ;\">FAIL</td></tr>\n<tr style=\"background-color: #CFCFA3;\"><td style=\"border: 1px solid black ;\">SSJ17062356</td>\n<td style=\"border: 1px solid black ;\">LFARISASY-90519-207/B0</td>\n<td style=\"border: 1px solid black ;\">637183</td>\n<td style=\"border: 1px solid black ;\">/FixedSystemTestbed/extraSetup/CliTest.CliTestErrorCould not do extra setup</td>\n<td style=\"border: 1px solid black ;\">2018-02-14 04:41:14+00</td>\n<td style=\"border: 1px solid black ;\">fvt</td>\n<td style=\"border: 1px solid black ;\">HEAT SINK COMPOUND</td>\n<td style=\"border: 1px solid black ;\">PASS</td></tr>\n<tr style=\"background-color: #FFFFDB;\"><td style=\"border: 1px solid black ;\">SSJ18043928</td>\n<td style=\"border: 1px solid black ;\">LFARISASY-91923-204/E1</td>\n<td style=\"border: 1px solid black ;\">637183</td>\n<td style=\"border: 1px solid black ;\">Could not retrieve file logs 'http://dist/log/at67.ssj.mfg/log/DCS-7260CX3-64/1804/SSJ18043928/ess/run-1.log'</td>\n<td style=\"border: 1px solid black ;\">2018-02-14 05:18:37+00</td>\n<td style=\"border: 1px solid black ;\">ess</td>\n<td style=\"border: 1px solid black ;\">CONSOLE CONN</td>\n<td style=\"border: 1px solid black ;\">PASS</td></tr>\n<tr style=\"background-color: #CFCFA3;\"><td style=\"border: 1px solid black ;\">SSJ18050592</td>\n<td style=\"border: 1px solid black ;\">LFARISASY-51482-211/B0</td>\n<td style=\"border: 1px solid black ;\">633872</td>\n<td style=\"border: 1px solid black ;\">/fabriccards/6/showFanSpeeds, /fabriccards/6/fanTest</td>\n<td style=\"border: 1px solid black ;\">2018-02-14 11:15:06-06</td>\n<td style=\"border: 1px solid black ;\">fvt</td>\n<td style=\"border: 1px solid black ;\">J14</td>\n<td style=\"border: 1px solid black ;\">PASS</td></tr>\n<tr style=\"background-color: #FFFFDB;\"><td style=\"border: 1px solid black ;\">SSJ17239182</td>\n<td style=\"border: 1px solid black ;\">LFARISASY-71878-204/A0</td>\n<td style=\"border: 1px solid black ;\">636479</td>\n<td style=\"border: 1px solid black ;\">//testTraffic -l None -d 120 -s 64 --allow --cells --ppm 330000, //testTraffic -l None -d 300 -s 64 --allow --cells --no-ocb, //testTraffic</td>\n<td style=\"border: 1px solid black ;\">2018-02-14 11:17:22-06</td>\n<td style=\"border: 1px solid black ;\">ess</td>\n<td style=\"border: 1px solid black ;\">UPPER CARD</td>\n<td style=\"border: 1px solid black ;\">FAIL</td></tr>\n<tr style=\"background-color: #CFCFA3;\"><td style=\"border: 1px solid black ;\">SSJ18063534</td>\n<td style=\"border: 1px solid black ;\">LFARISASY-51446-210/B0</td>\n<td style=\"border: 1px solid black ;\">633872</td>\n<td style=\"border: 1px solid black ;\">/fabriccards/6/testFeDco, /fabriccards/6/initialize, /fabriccards/6/testPrbs --duration 300 --continuous False</td>\n<td style=\"border: 1px solid black ;\">2018-02-14 17:00:29-06</td>\n<td style=\"border: 1px solid black ;\">fvt</td>\n<td style=\"border: 1px solid black ;\">U21</td>\n<td style=\"border: 1px solid black ;\">PASS</td></tr>\n<tr style=\"background-color: #FFFFDB;\"><td style=\"border: 1px solid black ;\">SSJ17040964</td>\n<td style=\"border: 1px solid black ;\">LFARISASY-90890-210/E0</td>\n<td style=\"border: 1px solid black ;\">633956</td>\n<td style=\"border: 1px solid black ;\">==================== Exception raised in 'python /usr/bin/fvt-configure-fixed --useDb --arss 10.90.216.32 dut3 --pca PCA0053703D0 --sn SSJ17040964 --kvn 111 --sku DCS-7050TX-64 --mac 28:99:3a:68:e7:86 --asy ASY0137210C0 --logDir /log/DCS-7050TX-64/1704/SSJ17040964/fvt-configure/configure-11 --runId 1400617 --cpuPca PCA0045920C0 --cpuSn SSJ17453749 --deviation  --cpuDeviation  ' (PID 11685) ====================</td>\n<td style=\"border: 1px solid black ;\">2018-02-14 18:55:18-06</td>\n<td style=\"border: 1px solid black ;\">fvt-configure</td>\n<td style=\"border: 1px solid black ;\">U53,CROW</td>\n<td style=\"border: 1px solid black ;\">FAIL</td></tr>\n<tr style=\"background-color: #CFCFA3;\"><td style=\"border: 1px solid black ;\">SSJ16412133</td>\n<td style=\"border: 1px solid black ;\">LFARISASY-90519-207/B0</td>\n<td style=\"border: 1px solid black ;\">637183</td>\n<td style=\"border: 1px solid black ;\">waiting for the usb key to be detected .........TestSetupFailure: Could not find the usb key. Is it inserted?</td>\n<td style=\"border: 1px solid black ;\">2018-02-14 19:47:54-06</td>\n<td style=\"border: 1px solid black ;\">fvt-configure</td>\n<td style=\"border: 1px solid black ;\">C68</td>\n<td style=\"border: 1px solid black ;\">PASS</td></tr>\n<tr style=\"background-color: #FFFFDB;\"><td style=\"border: 1px solid black ;\">SSJ18063506</td>\n<td style=\"border: 1px solid black ;\">LFARISASY-51446-210/B0</td>\n<td style=\"border: 1px solid black ;\">633872</td>\n<td style=\"border: 1px solid black ;\">FAIL: /fabriccards/6/rearLeds/testCountOffLeds</td>\n<td style=\"border: 1px solid black ;\">2018-02-14 20:51:45+00</td>\n<td style=\"border: 1px solid black ;\">fvt-interactive</td>\n<td style=\"border: 1px solid black ;\">LED PIPE</td>\n<td style=\"border: 1px solid black ;\">PASS</td></tr>\n<tr style=\"background-color: #CFCFA3;\"><td style=\"border: 1px solid black ;\">SSJ17109036</td>\n<td style=\"border: 1px solid black ;\">LFARISASY-71878-203/C0</td>\n<td style=\"border: 1px solid black ;\">636479</td>\n<td style=\"border: 1px solid black ;\">FATAL ERROR: no match found in PtReyesSidHwApiHwRevDecoder</td>\n<td style=\"border: 1px solid black ;\">2018-02-14 21:28:05+00</td>\n<td style=\"border: 1px solid black ;\">fvt-configure</td>\n<td style=\"border: 1px solid black ;\">CPU CARD,UPPER CARD,UPPER CARD</td>\n<td style=\"border: 1px solid black ;\">FAIL</td></tr>\n<tr style=\"background-color: #FFFFDB;\"><td style=\"border: 1px solid black ;\">SSJ17473483</td>\n<td style=\"border: 1px solid black ;\">LFARISASY-90919-207/A0</td>\n<td style=\"border: 1px solid black ;\">146360</td>\n<td style=\"border: 1px solid black ;\">/switchCard/xcvr test all -m low</td>\n<td style=\"border: 1px solid black ;\">2018-02-14 21:35:00-06</td>\n<td style=\"border: 1px solid black ;\">fvt</td>\n<td style=\"border: 1px solid black ;\">R544,R546,R547,R552,R551</td>\n<td style=\"border: 1px solid black ;\">PASS</td></tr>\n<tr style=\"background-color: #CFCFA3;\"><td style=\"border: 1px solid black ;\">SSJ18063493</td>\n<td style=\"border: 1px solid black ;\">LFARISASY-51446-210/B0</td>\n<td style=\"border: 1px solid black ;\">633872</td>\n<td style=\"border: 1px solid black ;\">FAIL: /fabriccards/2/rearLeds/testCountOffLeds</td>\n<td style=\"border: 1px solid black ;\">2018-02-14 21:41:55+00</td>\n<td style=\"border: 1px solid black ;\">fvt-interactive</td>\n<td style=\"border: 1px solid black ;\">LED PIPE</td>\n<td style=\"border: 1px solid black ;\">PASS</td></tr>\n<tr style=\"background-color: #FFFFDB;\"><td style=\"border: 1px solid black ;\">SSJ18063453</td>\n<td style=\"border: 1px solid black ;\">LFARISASY-51446-210/B0</td>\n<td style=\"border: 1px solid black ;\">633872</td>\n<td style=\"border: 1px solid black ;\">/fabriccards/1/showFanSpeeds, /fabriccards/1/fanTest</td>\n<td style=\"border: 1px solid black ;\">2018-02-14 22:44:13+00</td>\n<td style=\"border: 1px solid black ;\">fvt</td>\n<td style=\"border: 1px solid black ;\">FAN CONNECTOR</td>\n<td style=\"border: 1px solid black ;\">PASS</td></tr>\n<tr style=\"background-color: #CFCFA3;\"><td style=\"border: 1px solid black ;\">SSJ18063419</td>\n<td style=\"border: 1px solid black ;\">LFARISASY-51446-210/B0</td>\n<td style=\"border: 1px solid black ;\">633872</td>\n<td style=\"border: 1px solid black ;\">FAIL: /fabriccards/2/rearLeds/testCountOffLeds</td>\n<td style=\"border: 1px solid black ;\">2018-02-14 22:54:26+00</td>\n<td style=\"border: 1px solid black ;\">fvt-interactive</td>\n<td style=\"border: 1px solid black ;\">LED PIPE</td>\n<td style=\"border: 1px solid black ;\">PASS</td></tr>\n<tr style=\"background-color: #FFFFDB;\"><td style=\"border: 1px solid black ;\">SSJ16441188</td>\n<td style=\"border: 1px solid black ;\">LFARISASY-90528-207/B0</td>\n<td style=\"border: 1px solid black ;\">637183</td>\n<td style=\"border: 1px solid black ;\">PANIC:</td>\n<td style=\"border: 1px solid black ;\">2018-02-14 23:17:37-06</td>\n<td style=\"border: 1px solid black ;\">fvt-configure</td>\n<td style=\"border: 1px solid black ;\">F6</td>\n<td style=\"border: 1px solid black ;\">PASS</td></tr>\n<tr style=\"background-color: #CFCFA3;\"><td style=\"border: 1px solid black ;\">SSJ18051356</td>\n<td style=\"border: 1px solid black ;\">LFARISASY-91923-204/E1</td>\n<td style=\"border: 1px solid black ;\">637183</td>\n<td style=\"border: 1px solid black ;\">/switchCard/xcvr test all -m high</td>\n<td style=\"border: 1px solid black ;\">2018-02-14 23:41:31+00</td>\n<td style=\"border: 1px solid black ;\">ess</td>\n<td style=\"border: 1px solid black ;\">J24</td>\n<td style=\"border: 1px solid black ;\">FAIL</td></tr>\n<tr style=\"background-color: #FFFFDB;\"><td style=\"border: 1px solid black ;\">SSJ18051131</td>\n<td style=\"border: 1px solid black ;\">LFARISASY-91923-204/E1</td>\n<td style=\"border: 1px solid black ;\">637183</td>\n<td style=\"border: 1px solid black ;\">//testTraffic -l None -s 9216 -d 300 -n 15 --speed 100G, //testTraffic -l None -s 245 -d 300 -n auto --speed 100G --ppm 400000, /switchCard</td>\n<td style=\"border: 1px solid black ;\">2018-02-14 23:55:14+00</td>\n<td style=\"border: 1px solid black ;\">fvt</td>\n<td style=\"border: 1px solid black ;\">J15</td>\n<td style=\"border: 1px solid black ;\">PASS</td></tr>\n<tr style=\"background-color: #CFCFA3;\"><td style=\"border: 1px solid black ;\">SSJ17059045</td>\n<td style=\"border: 1px solid black ;\">LFARISASY-90875-208/D0</td>\n<td style=\"border: 1px solid black ;\">635083</td>\n<td style=\"border: 1px solid black ;\">PANIC: Unable to get into aboot mode. This could mean an unprogrammed Boot flash, a bad processor or memory, or a power problem</td>\n<td style=\"border: 1px solid black ;\">2018-02-15 01:36:53+00</td>\n<td style=\"border: 1px solid black ;\">fvt-configure</td>\n<td style=\"border: 1px solid black ;\">J28</td>\n<td style=\"border: 1px solid black ;\">PASS</td></tr>\n<tr style=\"background-color: #FFFFDB;\"><td style=\"border: 1px solid black ;\">SSJ18020996</td>\n<td style=\"border: 1px solid black ;\">LFARISASY-91923-204/E1</td>\n<td style=\"border: 1px solid black ;\">637183</td>\n<td style=\"border: 1px solid black ;\">/switchCard/xcvr test all -m low</td>\n<td style=\"border: 1px solid black ;\">2018-02-15 01:39:48+00</td>\n<td style=\"border: 1px solid black ;\">fvt</td>\n<td style=\"border: 1px solid black ;\">R243</td>\n<td style=\"border: 1px solid black ;\">PASS</td></tr>\n<tr style=\"background-color: #CFCFA3;\"><td style=\"border: 1px solid black ;\">SSJ18060038</td>\n<td style=\"border: 1px solid black ;\">LFARISASY-90890-210/F0</td>\n<td style=\"border: 1px solid black ;\">633956</td>\n<td style=\"border: 1px solid black ;\">//testPowerLoadSharing</td>\n<td style=\"border: 1px solid black ;\">2018-02-15 02:54:52+00</td>\n<td style=\"border: 1px solid black ;\">burnin</td>\n<td style=\"border: 1px solid black ;\">RCRPR</td>\n<td style=\"border: 1px solid black ;\">FAIL</td></tr>\n<tr style=\"background-color: #FFFFDB;\"><td style=\"border: 1px solid black ;\">SSJ17145112</td>\n<td style=\"border: 1px solid black ;\">LFARISASY-90516-224/C0</td>\n<td style=\"border: 1px solid black ;\">637183</td>\n<td style=\"border: 1px solid black ;\">waiting for dut rdam://dut8(10.99.99.108) to respond to a ping ...........waiting for dut rdam://dut8(10.99.99.108) to respond to a ping ...........waiting for dut rdam://dut8(10.99.99.108) to respond to a ping ...........TestSetupFailure: Could not bring up the management interface of rdam://dut8 . Check that the cable is properly connected.</td>\n<td style=\"border: 1px solid black ;\">2018-02-15 05:27:20+00</td>\n<td style=\"border: 1px solid black ;\">ess</td>\n<td style=\"border: 1px solid black ;\">C119</td>\n<td style=\"border: 1px solid black ;\">PASS</td></tr>\n<tr style=\"background-color: #CFCFA3;\"><td style=\"border: 1px solid black ;\">SSJ17049122</td>\n<td style=\"border: 1px solid black ;\">LFARISASY-90875-208/D0</td>\n<td style=\"border: 1px solid black ;\">635083</td>\n<td style=\"border: 1px solid black ;\">//fullTrafficTest --patt random --packetCount 100 --duration 900 --packetSize 64 --onlyFpLoopback False</td>\n<td style=\"border: 1px solid black ;\">2018-02-15 05:34:42+00</td>\n<td style=\"border: 1px solid black ;\">ess</td>\n<td style=\"border: 1px solid black ;\">C337-CPU</td>\n<td style=\"border: 1px solid black ;\">FAIL</td></tr>\n<tr style=\"background-color: #FFFFDB;\"><td style=\"border: 1px solid black ;\">SSJ18060130</td>\n<td style=\"border: 1px solid black ;\">LFARISASY-90890-210/F0</td>\n<td style=\"border: 1px solid black ;\">634705</td>\n<td style=\"border: 1px solid black ;\">/cpuCard/cpu/mathPrimeNumTest --duration 30 --stopOnError True --verbose True</td>\n<td style=\"border: 1px solid black ;\">2018-02-15 10:48:56-06</td>\n<td style=\"border: 1px solid black ;\">burnin</td>\n<td style=\"border: 1px solid black ;\">MEM-00171</td>\n<td style=\"border: 1px solid black ;\">PASS</td></tr>\n<tr style=\"background-color: #CFCFA3;\"><td style=\"border: 1px solid black ;\">SSJ18050116</td>\n<td style=\"border: 1px solid black ;\">LFARISASY-90901-210/G0</td>\n<td style=\"border: 1px solid black ;\">634705</td>\n<td style=\"border: 1px solid black ;\">//testTraffic -l None -s 9216 -d 60 -n 2 --allow, //testTraffic -l None -s 128 -d 20 -n auto --allow --ppm 300000</td>\n<td style=\"border: 1px solid black ;\">2018-02-15 14:38:14+00</td>\n<td style=\"border: 1px solid black ;\">fvt</td>\n<td style=\"border: 1px solid black ;\">C369,C374,C363,C367,J22</td>\n<td style=\"border: 1px solid black ;\">FAIL</td></tr>\n<tr style=\"background-color: #FFFFDB;\"><td style=\"border: 1px solid black ;\">SSJ17020822</td>\n<td style=\"border: 1px solid black ;\">LFARISASY-90528-207/B0</td>\n<td style=\"border: 1px solid black ;\">637183</td>\n<td style=\"border: 1px solid black ;\">/FixedSystemTestbed/extraSetup/CliTest.CliTestErrorCould not do extra setup</td>\n<td style=\"border: 1px solid black ;\">2018-02-15 17:07:33-06</td>\n<td style=\"border: 1px solid black ;\">fvt</td>\n<td style=\"border: 1px solid black ;\">U32</td>\n<td style=\"border: 1px solid black ;\">PASS</td></tr>\n<tr style=\"background-color: #CFCFA3;\"><td style=\"border: 1px solid black ;\">SSJ18059033</td>\n<td style=\"border: 1px solid black ;\">LFARISASY-91936-203/C0</td>\n<td style=\"border: 1px solid black ;\">636479</td>\n<td style=\"border: 1px solid black ;\">//testTransceivers --margin low</td>\n<td style=\"border: 1px solid black ;\">2018-02-15 18:31:49+00</td>\n<td style=\"border: 1px solid black ;\">fvt</td>\n<td style=\"border: 1px solid black ;\">R2306</td>\n<td style=\"border: 1px solid black ;\">PASS</td></tr>\n<tr style=\"background-color: #FFFFDB;\"><td style=\"border: 1px solid black ;\">SSJ18051413</td>\n<td style=\"border: 1px solid black ;\">LFARISASY-91923-204/E1</td>\n<td style=\"border: 1px solid black ;\">637183</td>\n<td style=\"border: 1px solid black ;\">ScriptBugFailureErrorCode = 87\nScriptBugFailure:</td>\n<td style=\"border: 1px solid black ;\">2018-02-15 18:55:39-06</td>\n<td style=\"border: 1px solid black ;\">fvt-configure</td>\n<td style=\"border: 1px solid black ;\">PCA-00978-03 A0</td>\n<td style=\"border: 1px solid black ;\">PASS</td></tr>\n<tr style=\"background-color: #CFCFA3;\"><td style=\"border: 1px solid black ;\">SSJ18051361</td>\n<td style=\"border: 1px solid black ;\">LFARISASY-71940-204/E1</td>\n<td style=\"border: 1px solid black ;\">637183</td>\n<td style=\"border: 1px solid black ;\">//init2, //initialize, /switchCard/fpgas/0/testShiftChain, /switchCard/xcvr test all -m low</td>\n<td style=\"border: 1px solid black ;\">2018-02-15 19:45:38-06</td>\n<td style=\"border: 1px solid black ;\">fvt</td>\n<td style=\"border: 1px solid black ;\">R244</td>\n<td style=\"border: 1px solid black ;\">PASS</td></tr>\n<tr style=\"background-color: #FFFFDB;\"><td style=\"border: 1px solid black ;\">SSJ18051367</td>\n<td style=\"border: 1px solid black ;\">LFARISASY-71940-204/E1</td>\n<td style=\"border: 1px solid black ;\">637183</td>\n<td style=\"border: 1px solid black ;\">/switchCard/xcvr test all -m low</td>\n<td style=\"border: 1px solid black ;\">2018-02-15 19:59:16-06</td>\n<td style=\"border: 1px solid black ;\">fvt</td>\n<td style=\"border: 1px solid black ;\">R244</td>\n<td style=\"border: 1px solid black ;\">PASS</td></tr>\n<tr style=\"background-color: #CFCFA3;\"><td style=\"border: 1px solid black ;\">SSJ18051376</td>\n<td style=\"border: 1px solid black ;\">LFARISASY-71940-204/E1</td>\n<td style=\"border: 1px solid black ;\">637183</td>\n<td style=\"border: 1px solid black ;\">/switchCard/xcvr test all -m low</td>\n<td style=\"border: 1px solid black ;\">2018-02-15 20:02:48-06</td>\n<td style=\"border: 1px solid black ;\">fvt</td>\n<td style=\"border: 1px solid black ;\">R244</td>\n<td style=\"border: 1px solid black ;\">PASS</td></tr>\n<tr style=\"background-color: #FFFFDB;\"><td style=\"border: 1px solid black ;\">SSJ17020893</td>\n<td style=\"border: 1px solid black ;\">LFARISASY-90519-207/B0</td>\n<td style=\"border: 1px solid black ;\">637183</td>\n<td style=\"border: 1px solid black ;\">PANIC: Unable to get into aboot mode. This could mean an unprogrammed Boot flash, a bad processor or memory, or a power problem</td>\n<td style=\"border: 1px solid black ;\">2018-02-15 22:42:28+00</td>\n<td style=\"border: 1px solid black ;\">fvt-configure</td>\n<td style=\"border: 1px solid black ;\">REPLACED U14,CPU CARD</td>\n<td style=\"border: 1px solid black ;\">FAIL</td></tr>\n<tr style=\"background-color: #CFCFA3;\"><td style=\"border: 1px solid black ;\">SSJ17473621</td>\n<td style=\"border: 1px solid black ;\">LFARISASY-91923-204/C0</td>\n<td style=\"border: 1px solid black ;\">637183</td>\n<td style=\"border: 1px solid black ;\">//testTraffic -l None -s 9216 -d 300 -n auto --speed 100G, //testTraffic -l None -s 2048 -d 300 -n auto --speed 40G, //testTraffic -l None</td>\n<td style=\"border: 1px solid black ;\">2018-02-15 23:38:09+00</td>\n<td style=\"border: 1px solid black ;\">fvt</td>\n<td style=\"border: 1px solid black ;\">U64</td>\n<td style=\"border: 1px solid black ;\">PASS</td></tr>\n<tr style=\"background-color: #FFFFDB;\"><td style=\"border: 1px solid black ;\">SSJ17390126</td>\n<td style=\"border: 1px solid black ;\">LFARISASY-91900-205/A0</td>\n<td style=\"border: 1px solid black ;\">636107</td>\n<td style=\"border: 1px solid black ;\">//testTraffic -l None --allow --cells --belk -d 600 --ppm 700000</td>\n<td style=\"border: 1px solid black ;\">2018-02-16 00:21:34+00</td>\n<td style=\"border: 1px solid black ;\">burnin</td>\n<td style=\"border: 1px solid black ;\">CPUCARD</td>\n<td style=\"border: 1px solid black ;\">PASS</td></tr>\n<tr style=\"background-color: #CFCFA3;\"><td style=\"border: 1px solid black ;\">SSJ18051414</td>\n<td style=\"border: 1px solid black ;\">LFARISASY-71940-204/E1</td>\n<td style=\"border: 1px solid black ;\">637183</td>\n<td style=\"border: 1px solid black ;\">ScriptBugFailureErrorCode = 87\nScriptBugFailure:</td>\n<td style=\"border: 1px solid black ;\">2018-02-16 00:24:50+00</td>\n<td style=\"border: 1px solid black ;\">fvt-configure</td>\n<td style=\"border: 1px solid black ;\">CPU</td>\n<td style=\"border: 1px solid black ;\">PASS</td></tr>\n<tr style=\"background-color: #FFFFDB;\"><td style=\"border: 1px solid black ;\">SSJ18051383</td>\n<td style=\"border: 1px solid black ;\">LFARISASY-71940-204/E1</td>\n<td style=\"border: 1px solid black ;\">637183</td>\n<td style=\"border: 1px solid black ;\">/powerSupplies/2/testPowerState --expectedState on, /powerSupplies/2/testStatus, //testPowerLoadSharing</td>\n<td style=\"border: 1px solid black ;\">2018-02-16 00:29:24+00</td>\n<td style=\"border: 1px solid black ;\">fvt</td>\n<td style=\"border: 1px solid black ;\">J1</td>\n<td style=\"border: 1px solid black ;\">PASS</td></tr>\n<tr style=\"background-color: #CFCFA3;\"><td style=\"border: 1px solid black ;\">SSJ18051409</td>\n<td style=\"border: 1px solid black ;\">LFARISASY-71940-204/E1</td>\n<td style=\"border: 1px solid black ;\">637183</td>\n<td style=\"border: 1px solid black ;\">FAIL: //testInteractive</td>\n<td style=\"border: 1px solid black ;\">2018-02-16 01:26:28+00</td>\n<td style=\"border: 1px solid black ;\">fvt-interactive</td>\n<td style=\"border: 1px solid black ;\">FAN2</td>\n<td style=\"border: 1px solid black ;\">PASS</td></tr>\n<tr style=\"background-color: #FFFFDB;\"><td style=\"border: 1px solid black ;\">SSJ18051344</td>\n<td style=\"border: 1px solid black ;\">LFARISASY-71940-204/E1</td>\n<td style=\"border: 1px solid black ;\">637183</td>\n<td style=\"border: 1px solid black ;\">/switchCard/fpgas/0/testShiftChain, /switchCard/xcvr test all -m low</td>\n<td style=\"border: 1px solid black ;\">2018-02-16 01:36:33+00</td>\n<td style=\"border: 1px solid black ;\">fvt</td>\n<td style=\"border: 1px solid black ;\">R244,R244</td>\n<td style=\"border: 1px solid black ;\">PASS</td></tr>\n<tr style=\"background-color: #CFCFA3;\"><td style=\"border: 1px solid black ;\">SSJ16412066</td>\n<td style=\"border: 1px solid black ;\">LFARISASY-90519-207/B0</td>\n<td style=\"border: 1px solid black ;\">636874</td>\n<td style=\"border: 1px solid black ;\">f/traffic/1518-ext, f/traffic/1518-ext-dma, f/traffic/9126-snake, f/traffic/9126-ext-nmin</td>\n<td style=\"border: 1px solid black ;\">2018-02-16 01:52:14+00</td>\n<td style=\"border: 1px solid black ;\">fvt</td>\n<td style=\"border: 1px solid black ;\">J14</td>\n<td style=\"border: 1px solid black ;\">FAIL</td></tr>\n<tr style=\"background-color: #FFFFDB;\"><td style=\"border: 1px solid black ;\">SSJ18051371</td>\n<td style=\"border: 1px solid black ;\">LFARISASY-71940-204/E1</td>\n<td style=\"border: 1px solid black ;\">637183</td>\n<td style=\"border: 1px solid black ;\">/switchCard/xcvr test all -m low, //initialize</td>\n<td style=\"border: 1px solid black ;\">2018-02-16 01:54:40+00</td>\n<td style=\"border: 1px solid black ;\">fvt</td>\n<td style=\"border: 1px solid black ;\">R244</td>\n<td style=\"border: 1px solid black ;\">PASS</td></tr>\n<tr style=\"background-color: #CFCFA3;\"><td style=\"border: 1px solid black ;\">SSJ17480069</td>\n<td style=\"border: 1px solid black ;\">LFARISASY-90528-208/A0</td>\n<td style=\"border: 1px solid black ;\">146360</td>\n<td style=\"border: 1px solid black ;\">PANIC:</td>\n<td style=\"border: 1px solid black ;\">2018-02-16 02:39:00+00</td>\n<td style=\"border: 1px solid black ;\">fvt-configure</td>\n<td style=\"border: 1px solid black ;\">U19</td>\n<td style=\"border: 1px solid black ;\">FAIL</td></tr>\n<tr style=\"background-color: #FFFFDB;\"><td style=\"border: 1px solid black ;\">SSJ16519145</td>\n<td style=\"border: 1px solid black ;\">LFARISASY-90875-208/D0R</td>\n<td style=\"border: 1px solid black ;\">635083</td>\n<td style=\"border: 1px solid black ;\">TestSetupFailure: Test failied while running dsh -c \"init2;//testFanSpeed;exit()\"</td>\n<td style=\"border: 1px solid black ;\">2018-02-16 03:10:09+00</td>\n<td style=\"border: 1px solid black ;\">fst</td>\n<td style=\"border: 1px solid black ;\">R386,R366</td>\n<td style=\"border: 1px solid black ;\">FAIL</td></tr>\n<tr style=\"background-color: #CFCFA3;\"><td style=\"border: 1px solid black ;\">SSJ18051132</td>\n<td style=\"border: 1px solid black ;\">LFARISASY-91923-204/E1</td>\n<td style=\"border: 1px solid black ;\">637183</td>\n<td style=\"border: 1px solid black ;\">TestSetupFailure: Could not obtain a root login to the dut</td>\n<td style=\"border: 1px solid black ;\">2018-02-16 03:10:30+00</td>\n<td style=\"border: 1px solid black ;\">burnin</td>\n<td style=\"border: 1px solid black ;\">FLASH</td>\n<td style=\"border: 1px solid black ;\">PASS</td></tr>\n<tr style=\"background-color: #FFFFDB;\"><td style=\"border: 1px solid black ;\">SSJ17399060</td>\n<td style=\"border: 1px solid black ;\">LFARISASY-90852-208/E1</td>\n<td style=\"border: 1px solid black ;\">635083</td>\n<td style=\"border: 1px solid black ;\">Could not retrieve file logs 'http://dist/log/at67.ssj.mfg/log/DCS-7250QX-64/1739/SSJ17399060/ess/run-4.log'</td>\n<td style=\"border: 1px solid black ;\">2018-02-16 04:21:49+00</td>\n<td style=\"border: 1px solid black ;\">ess</td>\n<td style=\"border: 1px solid black ;\">C309</td>\n<td style=\"border: 1px solid black ;\">FAIL</td></tr>\n<tr style=\"background-color: #CFCFA3;\"><td style=\"border: 1px solid black ;\">SSJ17020893</td>\n<td style=\"border: 1px solid black ;\">LFARISASY-90519-207/B0</td>\n<td style=\"border: 1px solid black ;\">636874</td>\n<td style=\"border: 1px solid black ;\">PANIC: Unable to get into aboot mode. This could mean an unprogrammed Boot flash, a bad processor or memory, or a power problem</td>\n<td style=\"border: 1px solid black ;\">2018-02-16 05:10:22+00</td>\n<td style=\"border: 1px solid black ;\">fvt-configure</td>\n<td style=\"border: 1px solid black ;\">J17</td>\n<td style=\"border: 1px solid black ;\">FAIL</td></tr>\n<tr style=\"background-color: #FFFFDB;\"><td style=\"border: 1px solid black ;\">SSJ18043954</td>\n<td style=\"border: 1px solid black ;\">LFARISASY-91923-204/E1</td>\n<td style=\"border: 1px solid black ;\">637183</td>\n<td style=\"border: 1px solid black ;\">##! INVALID SETUP: Reported by command //verifyTestSetup ==> Error: Please check the following loopbacks are properly inserted: /switchCard/xcvrs/65, /switchCard/xcvrs/66</td>\n<td style=\"border: 1px solid black ;\">2018-02-16 05:24:16+00</td>\n<td style=\"border: 1px solid black ;\">fvt</td>\n<td style=\"border: 1px solid black ;\">J17</td>\n<td style=\"border: 1px solid black ;\">PASS</td></tr>\n<tr style=\"background-color: #CFCFA3;\"><td style=\"border: 1px solid black ;\">SSJ17069012</td>\n<td style=\"border: 1px solid black ;\">LFARISASY-90852-208/D0</td>\n<td style=\"border: 1px solid black ;\">632861</td>\n<td style=\"border: 1px solid black ;\">PANIC: Unable to get into aboot mode. This could mean an unprogrammed Boot flash, a bad processor or memory, or a power problem</td>\n<td style=\"border: 1px solid black ;\">2018-02-16 05:34:01+00</td>\n<td style=\"border: 1px solid black ;\">fvt-configure</td>\n<td style=\"border: 1px solid black ;\">C62</td>\n<td style=\"border: 1px solid black ;\">FAIL</td></tr>\n<tr style=\"background-color: #FFFFDB;\"><td style=\"border: 1px solid black ;\">SSJ18043931</td>\n<td style=\"border: 1px solid black ;\">LFARISASY-91923-204/E1</td>\n<td style=\"border: 1px solid black ;\">637183</td>\n<td style=\"border: 1px solid black ;\">TestSetupFailure: Could not obtain a root login to the dut</td>\n<td style=\"border: 1px solid black ;\">2018-02-16 05:43:15+00</td>\n<td style=\"border: 1px solid black ;\">burnin</td>\n<td style=\"border: 1px solid black ;\">PCA-00985-05 A0</td>\n<td style=\"border: 1px solid black ;\">PASS</td></tr>\n<tr style=\"background-color: #CFCFA3;\"><td style=\"border: 1px solid black ;\">SSJ18020973</td>\n<td style=\"border: 1px solid black ;\">LFARISASY-91923-204/E1</td>\n<td style=\"border: 1px solid black ;\">637183</td>\n<td style=\"border: 1px solid black ;\">logger.info( 'Allow new temperature to soak for 5 minutes.' )</td>\n<td style=\"border: 1px solid black ;\">2018-02-16 06:22:21+00</td>\n<td style=\"border: 1px solid black ;\">ess</td>\n<td style=\"border: 1px solid black ;\">PCA-00985-05 A0</td>\n<td style=\"border: 1px solid black ;\">PASS</td></tr>\n<tr style=\"background-color: #FFFFDB;\"><td style=\"border: 1px solid black ;\">SSJ16490288</td>\n<td style=\"border: 1px solid black ;\">LFARISASY-51482-205/A0</td>\n<td style=\"border: 1px solid black ;\">633872</td>\n<td style=\"border: 1px solid black ;\">/fabriccards/3/testPrbs --duration 300 --continuous False</td>\n<td style=\"border: 1px solid black ;\">2018-02-16 11:45:30-06</td>\n<td style=\"border: 1px solid black ;\">fvt</td>\n<td style=\"border: 1px solid black ;\">U3</td>\n<td style=\"border: 1px solid black ;\">FAIL</td></tr>\n<tr style=\"background-color: #CFCFA3;\"><td style=\"border: 1px solid black ;\">SSJ17241929</td>\n<td style=\"border: 1px solid black ;\">LFARISASY-50379-204/C0</td>\n<td style=\"border: 1px solid black ;\">633872</td>\n<td style=\"border: 1px solid black ;\">/fabriccards/4/testPrbs --duration 300 --loopback None</td>\n<td style=\"border: 1px solid black ;\">2018-02-16 11:51:04-06</td>\n<td style=\"border: 1px solid black ;\">fvt</td>\n<td style=\"border: 1px solid black ;\">U20,C598</td>\n<td style=\"border: 1px solid black ;\">PASS</td></tr>\n<tr style=\"background-color: #FFFFDB;\"><td style=\"border: 1px solid black ;\">SSJ16390146</td>\n<td style=\"border: 1px solid black ;\">LFARISASY-51446-207/A0</td>\n<td style=\"border: 1px solid black ;\">633872</td>\n<td style=\"border: 1px solid black ;\">/fabriccards/3/initialize, /fabriccards/3/testPrbs --duration 300 --continuous False</td>\n<td style=\"border: 1px solid black ;\">2018-02-16 13:31:25-06</td>\n<td style=\"border: 1px solid black ;\">fvt</td>\n<td style=\"border: 1px solid black ;\">U21</td>\n<td style=\"border: 1px solid black ;\">PASS</td></tr>\n<tr style=\"background-color: #CFCFA3;\"><td style=\"border: 1px solid black ;\">SSJ18060086</td>\n<td style=\"border: 1px solid black ;\">LFARISASY-90890-210/F0</td>\n<td style=\"border: 1px solid black ;\">634705</td>\n<td style=\"border: 1px solid black ;\">-bash-4.3# PANIC: Failed runInDsh command:  --no-audit -c init2 /switchCard/sol/testAuthN</td>\n<td style=\"border: 1px solid black ;\">2018-02-16 15:32:46+00</td>\n<td style=\"border: 1px solid black ;\">fvt-configure</td>\n<td style=\"border: 1px solid black ;\">U3</td>\n<td style=\"border: 1px solid black ;\">PASS</td></tr>\n<tr style=\"background-color: #FFFFDB;\"><td style=\"border: 1px solid black ;\">SSJ18050687</td>\n<td style=\"border: 1px solid black ;\">LFARISASY-51482-211/B0</td>\n<td style=\"border: 1px solid black ;\">633872</td>\n<td style=\"border: 1px solid black ;\">FAIL: /fabriccards/1/rearLeds/testCountOffLeds</td>\n<td style=\"border: 1px solid black ;\">2018-02-16 16:59:06-06</td>\n<td style=\"border: 1px solid black ;\">fvt-interactive</td>\n<td style=\"border: 1px solid black ;\">D18</td>\n<td style=\"border: 1px solid black ;\">PASS</td></tr>\n<tr style=\"background-color: #CFCFA3;\"><td style=\"border: 1px solid black ;\">SSJ18060087</td>\n<td style=\"border: 1px solid black ;\">LFARISASY-90890-210/F0</td>\n<td style=\"border: 1px solid black ;\">634705</td>\n<td style=\"border: 1px solid black ;\">/switchCard/trafficTestSc --pkts 2 --patt mixed --pktSize 9216 --loopback none --duration 60 --eyescan 1 --speed 10G --monitor 1, /switchCa</td>\n<td style=\"border: 1px solid black ;\">2018-02-16 17:55:13+00</td>\n<td style=\"border: 1px solid black ;\">fvt</td>\n<td style=\"border: 1px solid black ;\">C457</td>\n<td style=\"border: 1px solid black ;\">PASS</td></tr>\n<tr style=\"background-color: #FFFFDB;\"><td style=\"border: 1px solid black ;\">SSJ16350082</td>\n<td style=\"border: 1px solid black ;\">LFARISASY-51482-205/A0</td>\n<td style=\"border: 1px solid black ;\">633872</td>\n<td style=\"border: 1px solid black ;\">/fabriccards/3/initialize, /fabriccards/3/testPrbs --duration 300 --continuous False, /fabriccards/3/fes/0/initialize</td>\n<td style=\"border: 1px solid black ;\">2018-02-16 18:12:40+00</td>\n<td style=\"border: 1px solid black ;\">fvt</td>\n<td style=\"border: 1px solid black ;\">U3</td>\n<td style=\"border: 1px solid black ;\">FAIL</td></tr>\n<tr style=\"background-color: #CFCFA3;\"><td style=\"border: 1px solid black ;\">SSJ16374380</td>\n<td style=\"border: 1px solid black ;\">LFARISASY-50379-204/C0</td>\n<td style=\"border: 1px solid black ;\">633872</td>\n<td style=\"border: 1px solid black ;\">/fabriccards/2/initialize, /fabriccards/2/testPrbs --duration 300 --loopback None, /fabriccards/2/fes/0/initialize, /fabriccards/2/fes/0/pr</td>\n<td style=\"border: 1px solid black ;\">2018-02-16 18:21:08+00</td>\n<td style=\"border: 1px solid black ;\">fvt</td>\n<td style=\"border: 1px solid black ;\">U20</td>\n<td style=\"border: 1px solid black ;\">PASS</td></tr>\n<tr style=\"background-color: #FFFFDB;\"><td style=\"border: 1px solid black ;\">SSJ17106337</td>\n<td style=\"border: 1px solid black ;\">LFARISASY-91906-203/C0</td>\n<td style=\"border: 1px solid black ;\">634705</td>\n<td style=\"border: 1px solid black ;\">//testTraffic -l None -s 9216 -d 120 -n 2, //testTraffic -l None -s 512 -d 120 -n 150, //testTraffic -l None -s 256 -d 120 -n 200</td>\n<td style=\"border: 1px solid black ;\">2018-02-16 18:47:50+00</td>\n<td style=\"border: 1px solid black ;\">fvt</td>\n<td style=\"border: 1px solid black ;\">U55</td>\n<td style=\"border: 1px solid black ;\">FAIL</td></tr>\n<tr style=\"background-color: #CFCFA3;\"><td style=\"border: 1px solid black ;\">SSJ17105571</td>\n<td style=\"border: 1px solid black ;\">LFARISASY-50412-205/E0</td>\n<td style=\"border: 1px solid black ;\">633872</td>\n<td style=\"border: 1px solid black ;\">/fabriccards/3/initialize, /fabriccards/3/testPrbs --duration 300 --loopback None, /fabriccards/3/fes/1/initialize</td>\n<td style=\"border: 1px solid black ;\">2018-02-16 18:53:01+00</td>\n<td style=\"border: 1px solid black ;\">fvt</td>\n<td style=\"border: 1px solid black ;\">U21</td>\n<td style=\"border: 1px solid black ;\">FAIL</td></tr>\n<tr style=\"background-color: #FFFFDB;\"><td style=\"border: 1px solid black ;\">SSJ16469034</td>\n<td style=\"border: 1px solid black ;\">LFARISASY-90875-208/D0</td>\n<td style=\"border: 1px solid black ;\">635083</td>\n<td style=\"border: 1px solid black ;\">//fullTrafficTest --patt random --packetCount 100 --duration 180 --packetSize 64 --onlyFpLoopback False, //fullTrafficTest --patt random --</td>\n<td style=\"border: 1px solid black ;\">2018-02-16 19:21:35-06</td>\n<td style=\"border: 1px solid black ;\">fvt</td>\n<td style=\"border: 1px solid black ;\">C199- LOWER</td>\n<td style=\"border: 1px solid black ;\">PASS</td></tr>\n<tr style=\"background-color: #CFCFA3;\"><td style=\"border: 1px solid black ;\">SSJ16470992</td>\n<td style=\"border: 1px solid black ;\">LFARISASY-51446-207/A0</td>\n<td style=\"border: 1px solid black ;\">633872</td>\n<td style=\"border: 1px solid black ;\">/fabriccards/6/initialize, /fabriccards/6/testPrbs --duration 300 --continuous False</td>\n<td style=\"border: 1px solid black ;\">2018-02-16 20:37:42+00</td>\n<td style=\"border: 1px solid black ;\">fvt</td>\n<td style=\"border: 1px solid black ;\">U22</td>\n<td style=\"border: 1px solid black ;\">PASS</td></tr>\n<tr style=\"background-color: #FFFFDB;\"><td style=\"border: 1px solid black ;\">SSJ18051537</td>\n<td style=\"border: 1px solid black ;\">LFARISASY-71940-204/E1</td>\n<td style=\"border: 1px solid black ;\">637183</td>\n<td style=\"border: 1px solid black ;\">==================== Exception raised in 'python /usr/bin/fvt-configure-losangeles --useDb --arss 10.90.216.33 dut28 --sn SSJ18051537 --kvn 111 --sku DCS-7260CX3-64 --mac 74:83:ef:68:32:82 --asy ASY0250504E0 --logDir /log/DCS-7260CX3-64/1805/SSJ18051537/fvt-configure/configure-2 --runId 1445632 --deviation D0004110 --deviation D0004141 ' (PID 16774) ====================</td>\n<td style=\"border: 1px solid black ;\">2018-02-17 01:26:10+00</td>\n<td style=\"border: 1px solid black ;\">fvt-configure</td>\n<td style=\"border: 1px solid black ;\">FLEX CABLE</td>\n<td style=\"border: 1px solid black ;\">PASS</td></tr>\n<tr style=\"background-color: #CFCFA3;\"><td style=\"border: 1px solid black ;\">SSJ17094145</td>\n<td style=\"border: 1px solid black ;\">LFARISASY-90920-206/F0</td>\n<td style=\"border: 1px solid black ;\">633956</td>\n<td style=\"border: 1px solid black ;\">//testTraffic -l None -s 9216 -d 600 -n 5 --allow --speed 10GBase-T</td>\n<td style=\"border: 1px solid black ;\">2018-02-17 03:01:09+00</td>\n<td style=\"border: 1px solid black ;\">burnin</td>\n<td style=\"border: 1px solid black ;\">HEAT SINK</td>\n<td style=\"border: 1px solid black ;\">FAIL</td></tr>\n<tr style=\"background-color: #FFFFDB;\"><td style=\"border: 1px solid black ;\">SSJ18051302</td>\n<td style=\"border: 1px solid black ;\">LFARISASY-91923-204/E1</td>\n<td style=\"border: 1px solid black ;\">637183</td>\n<td style=\"border: 1px solid black ;\">==================== Exception raised in 'python /usr/bin/fvt-configure-losangeles --useDb --arss 10.90.216.37 dut28 --sn SSJ18051302 --kvn 111 --sku DCS-7260CX3-64 --mac 74:83:ef:67:85:da --asy ASY0250504E0 --logDir /log/DCS-7260CX3-64/1805/SSJ18051302/fvt-configure/configure-4 --runId 1441374 --deviation D0004110 --deviation D0004141 ' (PID 8210) ====================</td>\n<td style=\"border: 1px solid black ;\">2018-02-17 03:58:01+00</td>\n<td style=\"border: 1px solid black ;\">fvt-configure</td>\n<td style=\"border: 1px solid black ;\">FLASH</td>\n<td style=\"border: 1px solid black ;\">PASS</td></tr>\n<tr style=\"background-color: #CFCFA3;\"><td style=\"border: 1px solid black ;\">SSJ17473580</td>\n<td style=\"border: 1px solid black ;\">LFARISASY-91923-204/C0</td>\n<td style=\"border: 1px solid black ;\">637183</td>\n<td style=\"border: 1px solid black ;\">//testTraffic -l None -s 9216 -d 300 -n auto --speed 100G, //testTraffic -l None -s 2048 -d 300 -n auto --speed 40G, //testTraffic -l None</td>\n<td style=\"border: 1px solid black ;\">2018-02-17 04:06:38+00</td>\n<td style=\"border: 1px solid black ;\">fvt</td>\n<td style=\"border: 1px solid black ;\">U64,J13</td>\n<td style=\"border: 1px solid black ;\">FAIL</td></tr>\n</table>\n", 
    "prod_nums": [
        48, 
        16, 
        11, 
        8, 
        6, 
        5, 
        4, 
        4, 
        3, 
        3, 
        3, 
        1
    ], 
    "topFails": {
        "counts": [
            5, 
            4, 
            3, 
            2, 
            2
        ], 
        "labels": [
            "/switchCard/xcvr test all -m low", 
            "FAIL: /fabriccards//rearLeds/testCountOffLeds", 
            "ScriptBugFailureErrorCode = \nScriptBugFailure:", 
            "/FixedSystemTestbed/extraSetup/CliTest.CliTestErrorCould not do extra setup", 
            "//testTraffic -l None -s  -d  -n  --allow, //testTraffic -l None -s  -d  -n auto --allow --ppm "
        ], 
        "xlabels": [
            {
                "text": "/switchCard/xcvr test all"
            }, 
            {
                "text": "FAIL: /fabriccards//rearL"
            }, 
            {
                "text": "ScriptBugFailureErrorCode"
            }, 
            {
                "text": "/FixedSystemTestbed/extra"
            }, 
            {
                "text": "//testTraffic -l None -s "
            }
        ]
    }, 
    "Accs": [
        80.95, 
        81.25, 
        72.73, 
        100.0, 
        50.0, 
        40.0, 
        40.0, 
        50.0, 
        0.0, 
        0.0, 
        0.0, 
        0.0
    ]
}