{
    "Fails": [
        23.33, 
        25.0, 
        30.0, 
        0.0, 
        0.0, 
        0.0, 
        69.23, 
        62.5, 
        40.0, 
        33.33, 
        60.0, 
        0.0, 
        100.0
    ], 
    "numFail": [
        7, 
        3, 
        3, 
        0, 
        0, 
        0, 
        9, 
        5, 
        2, 
        1, 
        3, 
        0, 
        1
    ], 
    "numPass": [
        23, 
        9, 
        7, 
        5, 
        5, 
        4, 
        4, 
        3, 
        3, 
        2, 
        2, 
        1, 
        0
    ], 
    "Labels": [
        "637183", 
        "146360", 
        "633993", 
        "634663", 
        "636479", 
        "636874", 
        "7885", 
        "633956", 
        "635083", 
        "634788", 
        "628696", 
        "634437", 
        "627542"
    ], 
    "Quart": "2018_W31", 
    "topFixes": {
        "counts": [
            5, 
            3, 
            3, 
            3, 
            2
        ], 
        "labels": [
            "LIGHTPIPE", 
            "LOOP BACK", 
            "HEAT SINK", 
            "J2", 
            "PSU1"
        ]
    }, 
    "prod_labels": [
        "637183", 
        "7885", 
        "146360", 
        "635083", 
        "633993", 
        "633956", 
        "628696", 
        "636479", 
        "636874", 
        "634663", 
        "634788", 
        "627542", 
        "634437"
    ], 
    "failsWithTest": {
        "ess": [
            [
                0, 
                0, 
                0, 
                0, 
                1
            ], 
            [
                "", 
                "", 
                "", 
                "", 
                "C7963"
            ]
        ], 
        "fst": [
            [
                0, 
                0, 
                0, 
                0, 
                0
            ], 
            [
                "", 
                "", 
                "", 
                "", 
                ""
            ]
        ], 
        "fvt-configure": [
            [
                0, 
                7, 
                3, 
                0, 
                1
            ], 
            [
                "", 
                "ROOK,PWR-00160,C1934,J25,J2,U22", 
                "C8,LOOP BACK,F3", 
                "", 
                "U565"
            ]
        ], 
        "burnin": [
            [
                0, 
                0, 
                0, 
                0, 
                0
            ], 
            [
                "", 
                "", 
                "", 
                "", 
                ""
            ]
        ], 
        "fvt": [
            [
                0, 
                0, 
                0, 
                2, 
                0
            ], 
            [
                "", 
                "", 
                "", 
                "R2364,J 20.", 
                ""
            ]
        ], 
        "fvt-interactive": [
            [
                8, 
                0, 
                0, 
                0, 
                0
            ], 
            [
                "U 6,LIGHTPIPE,D16,D29,LIGHT PIPE", 
                "", 
                "", 
                "", 
                ""
            ]
        ]
    }, 
    "table": "<br><table style=\"border: 1px solid black ;border-collapse:collapse;font-size: small;\">\n\t\t\t\t\t\t<tr style=\"background-color: #CFCFA3;\">\n\t\t\t\t\t\t\t<th style=\"border: 1px solid black ;\">Serial Number</th>\n\t\t\t\t\t\t\t<th style=\"border: 1px solid black ;\">Part Number</th>\n\t\t\t\t\t\t\t<th style=\"border: 1px solid black ;\">Tech</th>\n\t\t\t\t\t\t\t<th style=\"border: 1px solid black ;\">Fail Text</th>\n\t\t\t\t\t\t\t<th style=\"border: 1px solid black ;\">Debug Time</th>\n\t\t\t\t\t\t\t<th style=\"border: 1px solid black ;\">Failed Test</th>\n\t\t\t\t\t\t\t<th style=\"border: 1px solid black ;\">Fix</th>\n\t\t\t\t\t\t\t<th style=\"border: 1px solid black ;\">Pass/Fail</th>\n\t\t\t\t\t\t</tr><tr style=\"background-color: #FFFFDB;\"><td style=\"border: 1px solid black ;\">SSJ18270084</td>\n<td style=\"border: 1px solid black ;\">LFARISASY-52756-120/A0</td>\n<td style=\"border: 1px solid black ;\">7885</td>\n<td style=\"border: 1px solid black ;\">/linecards/8/testPrbs -l None -d 300 --mode Prbs31 --allow --fabric</td>\n<td style=\"border: 1px solid black ;\">2018-07-30 09:43:40-05</td>\n<td style=\"border: 1px solid black ;\">fvt</td>\n<td style=\"border: 1px solid black ;\">LB22</td>\n<td style=\"border: 1px solid black ;\">PASS</td></tr>\n<tr style=\"background-color: #CFCFA3;\"><td style=\"border: 1px solid black ;\">SSJ18251293</td>\n<td style=\"border: 1px solid black ;\">LFARISASY-51510-121/A0</td>\n<td style=\"border: 1px solid black ;\">7885</td>\n<td style=\"border: 1px solid black ;\">/linecards/4/dpms/0/config --dumpFile None --configFile /usr/share/DosFirmwareImages/MtHolmes05-standby.powerucd --pause None --, /linecard</td>\n<td style=\"border: 1px solid black ;\">2018-07-30 11:06:57-05</td>\n<td style=\"border: 1px solid black ;\">fvt-configure</td>\n<td style=\"border: 1px solid black ;\">U385</td>\n<td style=\"border: 1px solid black ;\">FAIL</td></tr>\n<tr style=\"background-color: #FFFFDB;\"><td style=\"border: 1px solid black ;\">SSJ18194084</td>\n<td style=\"border: 1px solid black ;\">LFARISASY-90890-110/F0</td>\n<td style=\"border: 1px solid black ;\">633993</td>\n<td style=\"border: 1px solid black ;\">##! INVALID SETUP: Reported by test //checkSetup ==> System not test ready. Please check the following ports (indexed starting at one): [45, 46]</td>\n<td style=\"border: 1px solid black ;\">2018-07-30 11:42:04-05</td>\n<td style=\"border: 1px solid black ;\">burnin</td>\n<td style=\"border: 1px solid black ;\">LOOP BACK</td>\n<td style=\"border: 1px solid black ;\">PASS</td></tr>\n<tr style=\"background-color: #CFCFA3;\"><td style=\"border: 1px solid black ;\">SSJ18270078</td>\n<td style=\"border: 1px solid black ;\">LFARISASY-52756-120/A0</td>\n<td style=\"border: 1px solid black ;\">7885</td>\n<td style=\"border: 1px solid black ;\">/linecards/4/fapSanityTests</td>\n<td style=\"border: 1px solid black ;\">2018-07-30 11:48:32-05</td>\n<td style=\"border: 1px solid black ;\">fvt</td>\n<td style=\"border: 1px solid black ;\">L634</td>\n<td style=\"border: 1px solid black ;\">PASS</td></tr>\n<tr style=\"background-color: #FFFFDB;\"><td style=\"border: 1px solid black ;\">SSJ18270077</td>\n<td style=\"border: 1px solid black ;\">LFARISASY-52756-120/A0</td>\n<td style=\"border: 1px solid black ;\">7885</td>\n<td style=\"border: 1px solid black ;\">/linecards/6/testPrbs -l None -d 300 --mode Prbs31 --allow --fabric</td>\n<td style=\"border: 1px solid black ;\">2018-07-30 13:58:08+00</td>\n<td style=\"border: 1px solid black ;\">fvt</td>\n<td style=\"border: 1px solid black ;\">J10</td>\n<td style=\"border: 1px solid black ;\">FAIL</td></tr>\n<tr style=\"background-color: #CFCFA3;\"><td style=\"border: 1px solid black ;\">SSJ18281906</td>\n<td style=\"border: 1px solid black ;\">LFARISASY-91906-103/E0</td>\n<td style=\"border: 1px solid black ;\">633993</td>\n<td style=\"border: 1px solid black ;\">##! INVALID SETUP: Reported by command //verifyTestSetup ==> Error: Please check the following loopbacks are properly inserted: /switchCard/xcvrs/9</td>\n<td style=\"border: 1px solid black ;\">2018-07-30 15:07:31-05</td>\n<td style=\"border: 1px solid black ;\">fvt</td>\n<td style=\"border: 1px solid black ;\">LOOP BACK</td>\n<td style=\"border: 1px solid black ;\">PASS</td></tr>\n<tr style=\"background-color: #FFFFDB;\"><td style=\"border: 1px solid black ;\">SSJ18236415</td>\n<td style=\"border: 1px solid black ;\">LFARISASY-51704-115/A1</td>\n<td style=\"border: 1px solid black ;\">634663</td>\n<td style=\"border: 1px solid black ;\">/linecards/8/xcvrs/31/testAll --margin low, /linecards/8/xcvrs/27/testAll --margin low, /linecards/8/fvtTest --verbose 0, /linecards/8/trid</td>\n<td style=\"border: 1px solid black ;\">2018-07-30 15:33:35+00</td>\n<td style=\"border: 1px solid black ;\">fvt</td>\n<td style=\"border: 1px solid black ;\">R1009,R994,R1029</td>\n<td style=\"border: 1px solid black ;\">PASS</td></tr>\n<tr style=\"background-color: #CFCFA3;\"><td style=\"border: 1px solid black ;\">SSJ18209039</td>\n<td style=\"border: 1px solid black ;\">LFARISASY-91936-203/C0</td>\n<td style=\"border: 1px solid black ;\">636479</td>\n<td style=\"border: 1px solid black ;\">/switchCardUpper/testPcieAuditPath</td>\n<td style=\"border: 1px solid black ;\">2018-07-30 15:41:03-05</td>\n<td style=\"border: 1px solid black ;\">ess</td>\n<td style=\"border: 1px solid black ;\">U 45</td>\n<td style=\"border: 1px solid black ;\">PASS</td></tr>\n<tr style=\"background-color: #FFFFDB;\"><td style=\"border: 1px solid black ;\">SSJ18270915</td>\n<td style=\"border: 1px solid black ;\">LFARISASY-52787-104/A0</td>\n<td style=\"border: 1px solid black ;\">7885</td>\n<td style=\"border: 1px solid black ;\">/linecards/7/init2</td>\n<td style=\"border: 1px solid black ;\">2018-07-30 15:47:51-05</td>\n<td style=\"border: 1px solid black ;\">ess</td>\n<td style=\"border: 1px solid black ;\">C7963</td>\n<td style=\"border: 1px solid black ;\">PASS</td></tr>\n<tr style=\"background-color: #CFCFA3;\"><td style=\"border: 1px solid black ;\">SSJ18270643</td>\n<td style=\"border: 1px solid black ;\">LFARISASY-51704-115/A1</td>\n<td style=\"border: 1px solid black ;\">634663</td>\n<td style=\"border: 1px solid black ;\">/linecards/4/xcvrs/31/testAll --margin low, /linecards/4/xcvrs/27/testAll --margin low, /linecards/4/fvtTest --verbose 0</td>\n<td style=\"border: 1px solid black ;\">2018-07-30 16:00:22+00</td>\n<td style=\"border: 1px solid black ;\">fvt</td>\n<td style=\"border: 1px solid black ;\">R1000,R1009,R994,R1029</td>\n<td style=\"border: 1px solid black ;\">PASS</td></tr>\n<tr style=\"background-color: #FFFFDB;\"><td style=\"border: 1px solid black ;\">SSJ18285561</td>\n<td style=\"border: 1px solid black ;\">LFARISASY-51704-115/A1</td>\n<td style=\"border: 1px solid black ;\">634663</td>\n<td style=\"border: 1px solid black ;\">/linecards/3/fvtConfig --pca None --fdlFile None --programQspi False --plxEepromBinFile None --psocBootloaderFile None --scdFile</td>\n<td style=\"border: 1px solid black ;\">2018-07-30 16:25:58+00</td>\n<td style=\"border: 1px solid black ;\">fvt-configure</td>\n<td style=\"border: 1px solid black ;\">Q14,C555</td>\n<td style=\"border: 1px solid black ;\">PASS</td></tr>\n<tr style=\"background-color: #CFCFA3;\"><td style=\"border: 1px solid black ;\">SSJ18270083</td>\n<td style=\"border: 1px solid black ;\">LFARISASY-52756-120/A0</td>\n<td style=\"border: 1px solid black ;\">7885</td>\n<td style=\"border: 1px solid black ;\">/linecards/6/testPrbs -l None -d 300 --mode Prbs31 --allow --fabric --continuous</td>\n<td style=\"border: 1px solid black ;\">2018-07-30 17:45:55+00</td>\n<td style=\"border: 1px solid black ;\">ess</td>\n<td style=\"border: 1px solid black ;\">HEATSINK</td>\n<td style=\"border: 1px solid black ;\">FAIL</td></tr>\n<tr style=\"background-color: #FFFFDB;\"><td style=\"border: 1px solid black ;\">SSJ18295836</td>\n<td style=\"border: 1px solid black ;\">LFARISASY-91939-110/A0</td>\n<td style=\"border: 1px solid black ;\">146360</td>\n<td style=\"border: 1px solid black ;\">/switchCard/trident2/testHeatSinkSetup --tempDelta 12</td>\n<td style=\"border: 1px solid black ;\">2018-07-30 17:50:11-05</td>\n<td style=\"border: 1px solid black ;\">burnin</td>\n<td style=\"border: 1px solid black ;\">HEAT SINK</td>\n<td style=\"border: 1px solid black ;\">FAIL</td></tr>\n<tr style=\"background-color: #CFCFA3;\"><td style=\"border: 1px solid black ;\">SSJ18291880</td>\n<td style=\"border: 1px solid black ;\">LFARISASY-91923-104/F0</td>\n<td style=\"border: 1px solid black ;\">637183</td>\n<td style=\"border: 1px solid black ;\">TestSetupFailure: Unable to get into aboot mode but got non-standard ASCII characters. This could indicate a misprogrammed/corrupted Aboot or CPLD. Please check log for more information.</td>\n<td style=\"border: 1px solid black ;\">2018-07-30 17:58:58-05</td>\n<td style=\"border: 1px solid black ;\">fvt-configure</td>\n<td style=\"border: 1px solid black ;\">ABOOT</td>\n<td style=\"border: 1px solid black ;\">PASS</td></tr>\n<tr style=\"background-color: #FFFFDB;\"><td style=\"border: 1px solid black ;\">SSJ18193984</td>\n<td style=\"border: 1px solid black ;\">LFARISASY-90890-110/F0</td>\n<td style=\"border: 1px solid black ;\">633993</td>\n<td style=\"border: 1px solid black ;\">##! INVALID SETUP: Reported by test //checkSetup ==> System not test ready. Please check the following ports (indexed starting at one): [17, 18]</td>\n<td style=\"border: 1px solid black ;\">2018-07-30 18:16:49+00</td>\n<td style=\"border: 1px solid black ;\">fvt</td>\n<td style=\"border: 1px solid black ;\">R784</td>\n<td style=\"border: 1px solid black ;\">PASS</td></tr>\n<tr style=\"background-color: #CFCFA3;\"><td style=\"border: 1px solid black ;\">SSJ17250001</td>\n<td style=\"border: 1px solid black ;\">LFARISASY-52128-104/A0R</td>\n<td style=\"border: 1px solid black ;\">634788</td>\n<td style=\"border: 1px solid black ;\">/linecards/4/init2</td>\n<td style=\"border: 1px solid black ;\">2018-07-30 18:55:06-05</td>\n<td style=\"border: 1px solid black ;\">fvt-configure</td>\n<td style=\"border: 1px solid black ;\">U565</td>\n<td style=\"border: 1px solid black ;\">PASS</td></tr>\n<tr style=\"background-color: #FFFFDB;\"><td style=\"border: 1px solid black ;\">SSJ18291731</td>\n<td style=\"border: 1px solid black ;\">LFARISASY-91923-104/F0</td>\n<td style=\"border: 1px solid black ;\">637183</td>\n<td style=\"border: 1px solid black ;\">//testTraffic -l None -s 9216 -d 300 -n 15 --speed 100G, //testTraffic -l None -s 245 -d 300 -n auto --speed 100G --ppm 400000</td>\n<td style=\"border: 1px solid black ;\">2018-07-30 19:41:27-05</td>\n<td style=\"border: 1px solid black ;\">fvt</td>\n<td style=\"border: 1px solid black ;\">J9</td>\n<td style=\"border: 1px solid black ;\">PASS</td></tr>\n<tr style=\"background-color: #CFCFA3;\"><td style=\"border: 1px solid black ;\">SSJ18189077</td>\n<td style=\"border: 1px solid black ;\">LFARISASY-91936-203/C0</td>\n<td style=\"border: 1px solid black ;\">636479</td>\n<td style=\"border: 1px solid black ;\">//tuneFapDramsAndWriteToFdl</td>\n<td style=\"border: 1px solid black ;\">2018-07-30 20:32:54+00</td>\n<td style=\"border: 1px solid black ;\">fvt</td>\n<td style=\"border: 1px solid black ;\">U 111,U 42,U 42</td>\n<td style=\"border: 1px solid black ;\">PASS</td></tr>\n<tr style=\"background-color: #FFFFDB;\"><td style=\"border: 1px solid black ;\">SSJ18251619</td>\n<td style=\"border: 1px solid black ;\">LFARISASY-90890-110/F0</td>\n<td style=\"border: 1px solid black ;\">633956</td>\n<td style=\"border: 1px solid black ;\">/switchCard/trafficTestSc --pkts 2 --patt mixed --pktSize 9216 --loopback none --duration 360 --eyescan 1 --speed 10G --monitor , /switchCa</td>\n<td style=\"border: 1px solid black ;\">2018-07-30 20:33:24-05</td>\n<td style=\"border: 1px solid black ;\">ess</td>\n<td style=\"border: 1px solid black ;\">J9</td>\n<td style=\"border: 1px solid black ;\">FAIL</td></tr>\n<tr style=\"background-color: #CFCFA3;\"><td style=\"border: 1px solid black ;\">SSJ18243301</td>\n<td style=\"border: 1px solid black ;\">LFARISASY-70585-122/F0</td>\n<td style=\"border: 1px solid black ;\">627542</td>\n<td style=\"border: 1px solid black ;\">PANIC:</td>\n<td style=\"border: 1px solid black ;\">2018-07-30 21:20:19-05</td>\n<td style=\"border: 1px solid black ;\">fvt-configure</td>\n<td style=\"border: 1px solid black ;\">REPROGRAM DPM</td>\n<td style=\"border: 1px solid black ;\">FAIL</td></tr>\n<tr style=\"background-color: #FFFFDB;\"><td style=\"border: 1px solid black ;\">SSJ18295914</td>\n<td style=\"border: 1px solid black ;\">LFARISASY-91939-110/A0</td>\n<td style=\"border: 1px solid black ;\">146360</td>\n<td style=\"border: 1px solid black ;\">/switchCard/trident2/testHeatSinkSetup --tempDelta 12</td>\n<td style=\"border: 1px solid black ;\">2018-07-30 22:27:03+00</td>\n<td style=\"border: 1px solid black ;\">fvt</td>\n<td style=\"border: 1px solid black ;\">HEAT SINK</td>\n<td style=\"border: 1px solid black ;\">PASS</td></tr>\n<tr style=\"background-color: #CFCFA3;\"><td style=\"border: 1px solid black ;\">SSJ18255851</td>\n<td style=\"border: 1px solid black ;\">LFARISASY-50689-111/B1</td>\n<td style=\"border: 1px solid black ;\">628696</td>\n<td style=\"border: 1px solid black ;\">==================== Exception raised in 'python /usr/bin/fvt-configure-sup --useDb --arss 10.90.216.32 supervisor3-1 --pca PCA0019010B1 --expectedSerialNumber SSJ18255851 --kvn 111 --sku 7300-SUP-D --mac 74:83:ef:e7:30:04 --asy ASY0068911B1 --sn SSJ18255851 --logDir /log/7300-SUP-D/1825/SSJ18255851/fvt-configure/configure-4 --runId 1893620 --deviation  ' (PID 24436) ====================</td>\n<td style=\"border: 1px solid black ;\">2018-07-30 22:49:57+00</td>\n<td style=\"border: 1px solid black ;\">fvt-configure</td>\n<td style=\"border: 1px solid black ;\">J20</td>\n<td style=\"border: 1px solid black ;\">FAIL</td></tr>\n<tr style=\"background-color: #FFFFDB;\"><td style=\"border: 1px solid black ;\">SSJ18291623</td>\n<td style=\"border: 1px solid black ;\">LFARISASY-91923-104/F0</td>\n<td style=\"border: 1px solid black ;\">637183</td>\n<td style=\"border: 1px solid black ;\">TestSetupFailure: Unable to get into aboot mode.This could mean a misprogrammed or corrupted Aboot, CPLD, DPM, SCD, a bad console connection or a power problem.</td>\n<td style=\"border: 1px solid black ;\">2018-07-30 23:12:44+00</td>\n<td style=\"border: 1px solid black ;\">fvt-configure</td>\n<td style=\"border: 1px solid black ;\">FLEX  CABLE</td>\n<td style=\"border: 1px solid black ;\">PASS</td></tr>\n<tr style=\"background-color: #CFCFA3;\"><td style=\"border: 1px solid black ;\">SSJ18260984</td>\n<td style=\"border: 1px solid black ;\">LFARISASY-91905-202/B0</td>\n<td style=\"border: 1px solid black ;\">633956</td>\n<td style=\"border: 1px solid black ;\">/switchCard/testTraffic -d 120 -s 9208 -l None --allow-mix-speeds -r 100GBase-4 --force-init --ppm 800000, /switchCard/testTraffic -d 120 -</td>\n<td style=\"border: 1px solid black ;\">2018-07-31 00:55:34+00</td>\n<td style=\"border: 1px solid black ;\">fvt</td>\n<td style=\"border: 1px solid black ;\">U18</td>\n<td style=\"border: 1px solid black ;\">FAIL</td></tr>\n<tr style=\"background-color: #FFFFDB;\"><td style=\"border: 1px solid black ;\">SSJ18282309</td>\n<td style=\"border: 1px solid black ;\">LFARISASY-91923-104/F0</td>\n<td style=\"border: 1px solid black ;\">637183</td>\n<td style=\"border: 1px solid black ;\">PANIC: Failed to get mfgdata for SW card.</td>\n<td style=\"border: 1px solid black ;\">2018-07-31 01:08:17+00</td>\n<td style=\"border: 1px solid black ;\">fvt-configure</td>\n<td style=\"border: 1px solid black ;\">SW</td>\n<td style=\"border: 1px solid black ;\">PASS</td></tr>\n<tr style=\"background-color: #CFCFA3;\"><td style=\"border: 1px solid black ;\">SSJ18281847</td>\n<td style=\"border: 1px solid black ;\">LFARISASY-91907-103/E0</td>\n<td style=\"border: 1px solid black ;\">146360</td>\n<td style=\"border: 1px solid black ;\">TestSetupFailure: Powering up the board for the first time failed. Unable to connect. Check console/power connections as well as console connector card. If these are good, check CPU/memory.</td>\n<td style=\"border: 1px solid black ;\">2018-07-31 02:28:31+00</td>\n<td style=\"border: 1px solid black ;\">fvt-configure</td>\n<td style=\"border: 1px solid black ;\">L2</td>\n<td style=\"border: 1px solid black ;\">FAIL</td></tr>\n<tr style=\"background-color: #FFFFDB;\"><td style=\"border: 1px solid black ;\">SSJ18223340</td>\n<td style=\"border: 1px solid black ;\">LFARISASY-91910-110/A1</td>\n<td style=\"border: 1px solid black ;\">146360</td>\n<td style=\"border: 1px solid black ;\">FAIL:            GPI Fault                  0\t1:21:42.929000</td>\n<td style=\"border: 1px solid black ;\">2018-07-31 02:53:03+00</td>\n<td style=\"border: 1px solid black ;\">fvt-interactive</td>\n<td style=\"border: 1px solid black ;\">J14,J15</td>\n<td style=\"border: 1px solid black ;\">PASS</td></tr>\n<tr style=\"background-color: #CFCFA3;\"><td style=\"border: 1px solid black ;\">SSJ18291662</td>\n<td style=\"border: 1px solid black ;\">LFARISASY-91923-104/F0</td>\n<td style=\"border: 1px solid black ;\">637183</td>\n<td style=\"border: 1px solid black ;\">FAIL: //testInteractive</td>\n<td style=\"border: 1px solid black ;\">2018-07-31 02:57:55+00</td>\n<td style=\"border: 1px solid black ;\">fvt-interactive</td>\n<td style=\"border: 1px solid black ;\">LIGHTPIPE</td>\n<td style=\"border: 1px solid black ;\">PASS</td></tr>\n<tr style=\"background-color: #FFFFDB;\"><td style=\"border: 1px solid black ;\">SSJ18291906</td>\n<td style=\"border: 1px solid black ;\">LFARISASY-91923-104/F0</td>\n<td style=\"border: 1px solid black ;\">637183</td>\n<td style=\"border: 1px solid black ;\">FAIL: //testInteractive</td>\n<td style=\"border: 1px solid black ;\">2018-07-31 03:06:41+00</td>\n<td style=\"border: 1px solid black ;\">fvt-interactive</td>\n<td style=\"border: 1px solid black ;\">LIGHTPIPE</td>\n<td style=\"border: 1px solid black ;\">PASS</td></tr>\n<tr style=\"background-color: #CFCFA3;\"><td style=\"border: 1px solid black ;\">SSJ18194757</td>\n<td style=\"border: 1px solid black ;\">LFARISASY-50689-111/B1</td>\n<td style=\"border: 1px solid black ;\">628696</td>\n<td style=\"border: 1px solid black ;\">/supervisors/1/testCardsInChassis</td>\n<td style=\"border: 1px solid black ;\">2018-07-31 03:49:34+00</td>\n<td style=\"border: 1px solid black ;\">fvt</td>\n<td style=\"border: 1px solid black ;\">J1</td>\n<td style=\"border: 1px solid black ;\">PASS</td></tr>\n<tr style=\"background-color: #FFFFDB;\"><td style=\"border: 1px solid black ;\">SSJ17501254</td>\n<td style=\"border: 1px solid black ;\">LFARISASY-90909-110/C0</td>\n<td style=\"border: 1px solid black ;\">636874</td>\n<td style=\"border: 1px solid black ;\">==================== Exception raised in 'python /usr/bin/mfg --useDb --station burnin --dutType fixed --arss 10.255.253.43 --logDir /log/DCS-7060CX-32S/1750/SSJ17501254/burnin/run-2 --logName /log/DCS-7060CX-32S/1750/SSJ17501254/burnin/run-2.log --testbed dut3 --asy ASY0171710B0 --pca PCA0061510A2 --sn SSJ17501254 --sku DCS-7060CX-32S --mac 74:83:ef:51:de:72 --deviation  --runId 1337181 --duration 6.0 ' (PID 22095) ====================</td>\n<td style=\"border: 1px solid black ;\">2018-07-31 03:50:29+00</td>\n<td style=\"border: 1px solid black ;\">burnin</td>\n<td style=\"border: 1px solid black ;\">U33,U20,U24</td>\n<td style=\"border: 1px solid black ;\">PASS</td></tr>\n<tr style=\"background-color: #CFCFA3;\"><td style=\"border: 1px solid black ;\">SSJ18291785</td>\n<td style=\"border: 1px solid black ;\">LFARISASY-91923-104/F0</td>\n<td style=\"border: 1px solid black ;\">637183</td>\n<td style=\"border: 1px solid black ;\">FAIL: //testInteractive</td>\n<td style=\"border: 1px solid black ;\">2018-07-31 04:59:25+00</td>\n<td style=\"border: 1px solid black ;\">fvt-interactive</td>\n<td style=\"border: 1px solid black ;\">LIGHTPIPE</td>\n<td style=\"border: 1px solid black ;\">PASS</td></tr>\n<tr style=\"background-color: #FFFFDB;\"><td style=\"border: 1px solid black ;\">SSJ18295897</td>\n<td style=\"border: 1px solid black ;\">LFARISASY-91939-110/A0</td>\n<td style=\"border: 1px solid black ;\">146360</td>\n<td style=\"border: 1px solid black ;\">/powerSupplies/2/testPowerState --expectedState on</td>\n<td style=\"border: 1px solid black ;\">2018-07-31 05:23:41+00</td>\n<td style=\"border: 1px solid black ;\">burnin</td>\n<td style=\"border: 1px solid black ;\">PSU2</td>\n<td style=\"border: 1px solid black ;\">PASS</td></tr>\n<tr style=\"background-color: #CFCFA3;\"><td style=\"border: 1px solid black ;\">SSJ18296076</td>\n<td style=\"border: 1px solid black ;\">LFARISASY-52544-108/A0</td>\n<td style=\"border: 1px solid black ;\">7885</td>\n<td style=\"border: 1px solid black ;\">/linecards/7/testPrbs -l None -d 300 --mode Prbs31 --allow --fabric, /linecards/7/testNifPortEyeSizeTotal, /linecards/7/testTraffic -l None</td>\n<td style=\"border: 1px solid black ;\">2018-07-31 09:58:43-05</td>\n<td style=\"border: 1px solid black ;\">fvt</td>\n<td style=\"border: 1px solid black ;\">J14</td>\n<td style=\"border: 1px solid black ;\">FAIL</td></tr>\n<tr style=\"background-color: #FFFFDB;\"><td style=\"border: 1px solid black ;\">SSJ18295964</td>\n<td style=\"border: 1px solid black ;\">LFARISASY-52544-108/A0</td>\n<td style=\"border: 1px solid black ;\">7885</td>\n<td style=\"border: 1px solid black ;\">/linecards/5/testPrbs -l None -d 300 --mode Prbs31 --allow --fabric, /linecards/5/testTraffic -l Phy -d 60 -s 512 --allow --no-ocb, /lineca</td>\n<td style=\"border: 1px solid black ;\">2018-07-31 15:03:42+00</td>\n<td style=\"border: 1px solid black ;\">fvt</td>\n<td style=\"border: 1px solid black ;\">J4</td>\n<td style=\"border: 1px solid black ;\">FAIL</td></tr>\n<tr style=\"background-color: #CFCFA3;\"><td style=\"border: 1px solid black ;\">SSJ18120405</td>\n<td style=\"border: 1px solid black ;\">LFARISASY-52756-104/B0</td>\n<td style=\"border: 1px solid black ;\">7885</td>\n<td style=\"border: 1px solid black ;\">/linecards/8/fapSanityTests</td>\n<td style=\"border: 1px solid black ;\">2018-07-31 15:06:10-05</td>\n<td style=\"border: 1px solid black ;\">fvt</td>\n<td style=\"border: 1px solid black ;\">L634</td>\n<td style=\"border: 1px solid black ;\">FAIL</td></tr>\n<tr style=\"background-color: #FFFFDB;\"><td style=\"border: 1px solid black ;\">SSJ18252296</td>\n<td style=\"border: 1px solid black ;\">LFARISASY-90929-106/C0</td>\n<td style=\"border: 1px solid black ;\">633993</td>\n<td style=\"border: 1px solid black ;\">##! INVALID SETUP: Reported by test /switchCard/verifyPhysAndCables ==> verifyPhys test failed with testCables on ports[[36]], Please verify loopbacks</td>\n<td style=\"border: 1px solid black ;\">2018-07-31 15:39:19+00</td>\n<td style=\"border: 1px solid black ;\">fvt</td>\n<td style=\"border: 1px solid black ;\">J18,U43</td>\n<td style=\"border: 1px solid black ;\">FAIL</td></tr>\n<tr style=\"background-color: #CFCFA3;\"><td style=\"border: 1px solid black ;\">SSJ18114715</td>\n<td style=\"border: 1px solid black ;\">LFARISASY-91911-104/B0</td>\n<td style=\"border: 1px solid black ;\">633993</td>\n<td style=\"border: 1px solid black ;\">##! INVALID SETUP: Reported by command //verifyTestSetup ==> /powerSupplies/1 has no input voltage</td>\n<td style=\"border: 1px solid black ;\">2018-07-31 16:01:33+00</td>\n<td style=\"border: 1px solid black ;\">fvt</td>\n<td style=\"border: 1px solid black ;\">J17</td>\n<td style=\"border: 1px solid black ;\">PASS</td></tr>\n<tr style=\"background-color: #FFFFDB;\"><td style=\"border: 1px solid black ;\">SSJ18285869</td>\n<td style=\"border: 1px solid black ;\">LFARISASY-51704-115/A1</td>\n<td style=\"border: 1px solid black ;\">634663</td>\n<td style=\"border: 1px solid black ;\">FAIL: /linecards/8/generalLedTest</td>\n<td style=\"border: 1px solid black ;\">2018-07-31 16:10:44+00</td>\n<td style=\"border: 1px solid black ;\">fvt-interactive</td>\n<td style=\"border: 1px solid black ;\">D57,D108</td>\n<td style=\"border: 1px solid black ;\">PASS</td></tr>\n<tr style=\"background-color: #CFCFA3;\"><td style=\"border: 1px solid black ;\">SSJ18049060</td>\n<td style=\"border: 1px solid black ;\">LFARISASY-91935-103/A0</td>\n<td style=\"border: 1px solid black ;\">636479</td>\n<td style=\"border: 1px solid black ;\">//testFeDcoWithDepoppedFapsLower --max 5, //testFeAndFapDco --may-update-prefdl-disabled-lanes, //testFeSnake -d 60 -l Phy, //testFeAndFapM</td>\n<td style=\"border: 1px solid black ;\">2018-07-31 16:12:31+00</td>\n<td style=\"border: 1px solid black ;\">fvt</td>\n<td style=\"border: 1px solid black ;\">C2805,C2806,U 57,U 45</td>\n<td style=\"border: 1px solid black ;\">PASS</td></tr>\n<tr style=\"background-color: #FFFFDB;\"><td style=\"border: 1px solid black ;\">SSJ18295922</td>\n<td style=\"border: 1px solid black ;\">LFARISASY-52544-108/A0</td>\n<td style=\"border: 1px solid black ;\">7885</td>\n<td style=\"border: 1px solid black ;\">/linecards/6/testTraffic -l None -d 300 -s 9208 --allow, /linecards/6/testTraffic -l None -d 90 -s 64 --allow --cells --no-ocb, /linecards/</td>\n<td style=\"border: 1px solid black ;\">2018-07-31 16:52:27+00</td>\n<td style=\"border: 1px solid black ;\">fvt</td>\n<td style=\"border: 1px solid black ;\">J15</td>\n<td style=\"border: 1px solid black ;\">FAIL</td></tr>\n<tr style=\"background-color: #CFCFA3;\"><td style=\"border: 1px solid black ;\">SSJ18252303</td>\n<td style=\"border: 1px solid black ;\">LFARISASY-90929-106/C0</td>\n<td style=\"border: 1px solid black ;\">633993</td>\n<td style=\"border: 1px solid black ;\">##! INVALID SETUP: Reported by test /switchCard/verifyPhysAndCables ==> verifyPhys test failed with testCables on ports[[30]], Please verify loopbacks</td>\n<td style=\"border: 1px solid black ;\">2018-07-31 17:01:04+00</td>\n<td style=\"border: 1px solid black ;\">fvt</td>\n<td style=\"border: 1px solid black ;\">J18,U42</td>\n<td style=\"border: 1px solid black ;\">FAIL</td></tr>\n<tr style=\"background-color: #FFFFDB;\"><td style=\"border: 1px solid black ;\">SSJ18291715</td>\n<td style=\"border: 1px solid black ;\">LFARISASY-91923-104/F0</td>\n<td style=\"border: 1px solid black ;\">637183</td>\n<td style=\"border: 1px solid black ;\">FAIL: //testInteractive</td>\n<td style=\"border: 1px solid black ;\">2018-07-31 17:27:12-05</td>\n<td style=\"border: 1px solid black ;\">fvt-interactive</td>\n<td style=\"border: 1px solid black ;\">D16</td>\n<td style=\"border: 1px solid black ;\">PASS</td></tr>\n<tr style=\"background-color: #CFCFA3;\"><td style=\"border: 1px solid black ;\">SSJ18252344</td>\n<td style=\"border: 1px solid black ;\">LFARISASY-90929-106/C0</td>\n<td style=\"border: 1px solid black ;\">633993</td>\n<td style=\"border: 1px solid black ;\">##! INVALID SETUP: Reported by test /switchCard/verifyPhysAndCables ==> verifyPhys test failed with testCables on ports[[7]], Please verify loopbacks</td>\n<td style=\"border: 1px solid black ;\">2018-07-31 17:35:52+00</td>\n<td style=\"border: 1px solid black ;\">fvt</td>\n<td style=\"border: 1px solid black ;\">J16,U37</td>\n<td style=\"border: 1px solid black ;\">PASS</td></tr>\n<tr style=\"background-color: #FFFFDB;\"><td style=\"border: 1px solid black ;\">SSJ18291885</td>\n<td style=\"border: 1px solid black ;\">LFARISASY-91923-104/F0</td>\n<td style=\"border: 1px solid black ;\">637183</td>\n<td style=\"border: 1px solid black ;\">FAIL: //testInteractive</td>\n<td style=\"border: 1px solid black ;\">2018-07-31 18:02:07-05</td>\n<td style=\"border: 1px solid black ;\">fvt-interactive</td>\n<td style=\"border: 1px solid black ;\">LIGHTPIPE</td>\n<td style=\"border: 1px solid black ;\">PASS</td></tr>\n<tr style=\"background-color: #CFCFA3;\"><td style=\"border: 1px solid black ;\">SSJ18281894</td>\n<td style=\"border: 1px solid black ;\">LFARISASY-91907-103/E0</td>\n<td style=\"border: 1px solid black ;\">633993</td>\n<td style=\"border: 1px solid black ;\">TestSetupFailure: Powering up the board for the first time failed. Unable to connect. Check console/power connections as well as console connector card. If these are good, check CPU/memory.</td>\n<td style=\"border: 1px solid black ;\">2018-07-31 18:08:07+00</td>\n<td style=\"border: 1px solid black ;\">fvt-configure</td>\n<td style=\"border: 1px solid black ;\">F3</td>\n<td style=\"border: 1px solid black ;\">PASS</td></tr>\n<tr style=\"background-color: #FFFFDB;\"><td style=\"border: 1px solid black ;\">SSJ18151685</td>\n<td style=\"border: 1px solid black ;\">LFARISASY-52543-208/A0</td>\n<td style=\"border: 1px solid black ;\">7885</td>\n<td style=\"border: 1px solid black ;\">FAIL: /linecards/4/portLeds/testCountOffLeds</td>\n<td style=\"border: 1px solid black ;\">2018-07-31 18:10:49+00</td>\n<td style=\"border: 1px solid black ;\">fvt-interactive</td>\n<td style=\"border: 1px solid black ;\">LIGHTPIPE</td>\n<td style=\"border: 1px solid black ;\">PASS</td></tr>\n<tr style=\"background-color: #CFCFA3;\"><td style=\"border: 1px solid black ;\">SSJ18291613</td>\n<td style=\"border: 1px solid black ;\">LFARISASY-91923-104/F0</td>\n<td style=\"border: 1px solid black ;\">637183</td>\n<td style=\"border: 1px solid black ;\">TestSetupFailure: Unable to get into aboot mode.This could mean a misprogrammed or corrupted Aboot, CPLD, DPM, SCD, a bad console connection or a power problem.</td>\n<td style=\"border: 1px solid black ;\">2018-07-31 18:32:01-05</td>\n<td style=\"border: 1px solid black ;\">fvt-configure</td>\n<td style=\"border: 1px solid black ;\">PCA-00964-02</td>\n<td style=\"border: 1px solid black ;\">FAIL</td></tr>\n<tr style=\"background-color: #FFFFDB;\"><td style=\"border: 1px solid black ;\">SSJ18282065</td>\n<td style=\"border: 1px solid black ;\">LFARISASY-91923-104/F0</td>\n<td style=\"border: 1px solid black ;\">637183</td>\n<td style=\"border: 1px solid black ;\">ScriptBugFailureErrorCode = 87\nScriptBugFailure:</td>\n<td style=\"border: 1px solid black ;\">2018-07-31 19:23:55-05</td>\n<td style=\"border: 1px solid black ;\">fvt-configure</td>\n<td style=\"border: 1px solid black ;\">C1934</td>\n<td style=\"border: 1px solid black ;\">PASS</td></tr>\n<tr style=\"background-color: #CFCFA3;\"><td style=\"border: 1px solid black ;\">SSJ18291736</td>\n<td style=\"border: 1px solid black ;\">LFARISASY-91923-104/F0</td>\n<td style=\"border: 1px solid black ;\">637183</td>\n<td style=\"border: 1px solid black ;\">waiting for dut rdam://dut9 (10.99.99.109) to respond to a ping ............................................TestSetupFailure: Could not bring up the management interface. Check that it is properly wired and that the link is up.</td>\n<td style=\"border: 1px solid black ;\">2018-07-31 19:35:29-05</td>\n<td style=\"border: 1px solid black ;\">fvt-configure</td>\n<td style=\"border: 1px solid black ;\">PCA-00964-02</td>\n<td style=\"border: 1px solid black ;\">PASS</td></tr>\n<tr style=\"background-color: #FFFFDB;\"><td style=\"border: 1px solid black ;\">SSJ18291797</td>\n<td style=\"border: 1px solid black ;\">LFARISASY-91923-104/F0</td>\n<td style=\"border: 1px solid black ;\">637183</td>\n<td style=\"border: 1px solid black ;\">==================== Exception raised in 'python /usr/bin/mfg --useDb --station fvt --dutType fixed --arss 10.255.253.45 --logDir /log/DCS-7260CX3-64/1829/SSJ18291797/fvt/run-1 --logName /log/DCS-7260CX3-64/1829/SSJ18291797/fvt/run-1.log --testbed dut3 --asy ASY0250504F0 --pca PCA0094903C0 --sn SSJ18291797 --sku DCS-7260CX3-64 --mac 74:83:ef:d0:7c:38 --swiName /images/EOS-fixed.swi --deviation D0004351 --runId 1898810 ' (PID 20246) ====================</td>\n<td style=\"border: 1px solid black ;\">2018-07-31 19:55:40-05</td>\n<td style=\"border: 1px solid black ;\">fvt</td>\n<td style=\"border: 1px solid black ;\">PSU1</td>\n<td style=\"border: 1px solid black ;\">FAIL</td></tr>\n<tr style=\"background-color: #CFCFA3;\"><td style=\"border: 1px solid black ;\">SSJ18295788</td>\n<td style=\"border: 1px solid black ;\">LFARISASY-91939-110/A0</td>\n<td style=\"border: 1px solid black ;\">146360</td>\n<td style=\"border: 1px solid black ;\">/switchCard/trident2/testHeatSinkSetup --tempDelta 12</td>\n<td style=\"border: 1px solid black ;\">2018-07-31 19:59:17-05</td>\n<td style=\"border: 1px solid black ;\">fvt</td>\n<td style=\"border: 1px solid black ;\">HEAT SINK</td>\n<td style=\"border: 1px solid black ;\">PASS</td></tr>\n<tr style=\"background-color: #FFFFDB;\"><td style=\"border: 1px solid black ;\">SSJ18281895</td>\n<td style=\"border: 1px solid black ;\">LFARISASY-91907-103/E0</td>\n<td style=\"border: 1px solid black ;\">633993</td>\n<td style=\"border: 1px solid black ;\">ScriptBugFailureErrorCode = 87\nScriptBugFailure:</td>\n<td style=\"border: 1px solid black ;\">2018-07-31 20:45:16+00</td>\n<td style=\"border: 1px solid black ;\">fvt-configure</td>\n<td style=\"border: 1px solid black ;\">PWR-00160</td>\n<td style=\"border: 1px solid black ;\">PASS</td></tr>\n<tr style=\"background-color: #CFCFA3;\"><td style=\"border: 1px solid black ;\">SSJ18261000</td>\n<td style=\"border: 1px solid black ;\">LFARISASY-91905-202/B0</td>\n<td style=\"border: 1px solid black ;\">633956</td>\n<td style=\"border: 1px solid black ;\">/cpuCard/cpu/testHTCStatus --clearSticky True</td>\n<td style=\"border: 1px solid black ;\">2018-07-31 20:57:14-05</td>\n<td style=\"border: 1px solid black ;\">burnin</td>\n<td style=\"border: 1px solid black ;\">HEATSINK</td>\n<td style=\"border: 1px solid black ;\">PASS</td></tr>\n<tr style=\"background-color: #FFFFDB;\"><td style=\"border: 1px solid black ;\">SSJ18255809</td>\n<td style=\"border: 1px solid black ;\">LFARISASY-50689-111/B1</td>\n<td style=\"border: 1px solid black ;\">628696</td>\n<td style=\"border: 1px solid black ;\">TestSetupFailure: Unable to get into aboot mode. This could mean an unprogrammed Boot flash, a bad processor or memory, or a power problem</td>\n<td style=\"border: 1px solid black ;\">2018-07-31 21:17:50-05</td>\n<td style=\"border: 1px solid black ;\">fvt-configure</td>\n<td style=\"border: 1px solid black ;\">MEM-00159</td>\n<td style=\"border: 1px solid black ;\">PASS</td></tr>\n<tr style=\"background-color: #CFCFA3;\"><td style=\"border: 1px solid black ;\">SSJ18209116</td>\n<td style=\"border: 1px solid black ;\">LFARISASY-90916-110/A0</td>\n<td style=\"border: 1px solid black ;\">635083</td>\n<td style=\"border: 1px solid black ;\">/switchCardUpper/pcieSwitch/testLinkWidth</td>\n<td style=\"border: 1px solid black ;\">2018-07-31 21:36:22+00</td>\n<td style=\"border: 1px solid black ;\">burnin</td>\n<td style=\"border: 1px solid black ;\">U45 - UPPER</td>\n<td style=\"border: 1px solid black ;\">FAIL</td></tr>\n<tr style=\"background-color: #FFFFDB;\"><td style=\"border: 1px solid black ;\">SSJ18295771</td>\n<td style=\"border: 1px solid black ;\">LFARISASY-91939-110/A0</td>\n<td style=\"border: 1px solid black ;\">146360</td>\n<td style=\"border: 1px solid black ;\">PANIC: Failed runDshCommands command:  ('Dsh statement yielded a non-zero result code. Statement: showInventory. Result code: 1.', 'showInventory</td>\n<td style=\"border: 1px solid black ;\">2018-07-31 22:12:52+00</td>\n<td style=\"border: 1px solid black ;\">fst</td>\n<td style=\"border: 1px solid black ;\">PSU1</td>\n<td style=\"border: 1px solid black ;\">PASS</td></tr>\n<tr style=\"background-color: #CFCFA3;\"><td style=\"border: 1px solid black ;\">SSJ18291838</td>\n<td style=\"border: 1px solid black ;\">LFARISASY-91923-104/F0</td>\n<td style=\"border: 1px solid black ;\">637183</td>\n<td style=\"border: 1px solid black ;\">//initialize</td>\n<td style=\"border: 1px solid black ;\">2018-07-31 22:18:18+00</td>\n<td style=\"border: 1px solid black ;\">burnin</td>\n<td style=\"border: 1px solid black ;\">PCA-00978-03</td>\n<td style=\"border: 1px solid black ;\">PASS</td></tr>\n<tr style=\"background-color: #FFFFDB;\"><td style=\"border: 1px solid black ;\">SSJ18260760</td>\n<td style=\"border: 1px solid black ;\">LFARISASY-91939-110/A0</td>\n<td style=\"border: 1px solid black ;\">146360</td>\n<td style=\"border: 1px solid black ;\">FAIL: //testInteractive</td>\n<td style=\"border: 1px solid black ;\">2018-07-31 22:34:47+00</td>\n<td style=\"border: 1px solid black ;\">fvt-interactive</td>\n<td style=\"border: 1px solid black ;\">LIGHT PIPE</td>\n<td style=\"border: 1px solid black ;\">PASS</td></tr>\n<tr style=\"background-color: #CFCFA3;\"><td style=\"border: 1px solid black ;\">SSJ18291673</td>\n<td style=\"border: 1px solid black ;\">LFARISASY-91923-104/F0</td>\n<td style=\"border: 1px solid black ;\">637183</td>\n<td style=\"border: 1px solid black ;\">PANIC: Failed to get mfgdata for SW card.</td>\n<td style=\"border: 1px solid black ;\">2018-07-31 22:46:38-05</td>\n<td style=\"border: 1px solid black ;\">fvt-configure</td>\n<td style=\"border: 1px solid black ;\">J2</td>\n<td style=\"border: 1px solid black ;\">PASS</td></tr>\n<tr style=\"background-color: #FFFFDB;\"><td style=\"border: 1px solid black ;\">SSJ18296031</td>\n<td style=\"border: 1px solid black ;\">LFARISASY-52544-108/A0</td>\n<td style=\"border: 1px solid black ;\">634788</td>\n<td style=\"border: 1px solid black ;\">/linecards/9/testPrbs -l None -d 300 --mode Prbs31 --allow --fabric, /linecards/9/testTraffic -l None -d 90 -s 64 --allow --cells --no-ocb,</td>\n<td style=\"border: 1px solid black ;\">2018-07-31 22:47:44+00</td>\n<td style=\"border: 1px solid black ;\">fvt</td>\n<td style=\"border: 1px solid black ;\">J6</td>\n<td style=\"border: 1px solid black ;\">PASS</td></tr>\n<tr style=\"background-color: #CFCFA3;\"><td style=\"border: 1px solid black ;\">SSJ18282118</td>\n<td style=\"border: 1px solid black ;\">LFARISASY-91923-104/F0</td>\n<td style=\"border: 1px solid black ;\">637183</td>\n<td style=\"border: 1px solid black ;\">PANIC: Failed to get mfgdata for Rear card.</td>\n<td style=\"border: 1px solid black ;\">2018-07-31 23:07:52-05</td>\n<td style=\"border: 1px solid black ;\">fvt-configure</td>\n<td style=\"border: 1px solid black ;\">FLEX CABLE</td>\n<td style=\"border: 1px solid black ;\">PASS</td></tr>\n<tr style=\"background-color: #FFFFDB;\"><td style=\"border: 1px solid black ;\">SSJ18246911</td>\n<td style=\"border: 1px solid black ;\">LFARISASY-91917-204/C0</td>\n<td style=\"border: 1px solid black ;\">633956</td>\n<td style=\"border: 1px solid black ;\">/switchCard/testDramBistPrbs</td>\n<td style=\"border: 1px solid black ;\">2018-07-31 23:12:29+00</td>\n<td style=\"border: 1px solid black ;\">fvt</td>\n<td style=\"border: 1px solid black ;\">U59</td>\n<td style=\"border: 1px solid black ;\">FAIL</td></tr>\n<tr style=\"background-color: #CFCFA3;\"><td style=\"border: 1px solid black ;\">SSJ18291705</td>\n<td style=\"border: 1px solid black ;\">LFARISASY-91923-104/F0</td>\n<td style=\"border: 1px solid black ;\">637183</td>\n<td style=\"border: 1px solid black ;\">ScriptBugFailureErrorCode = 87\nScriptBugFailure:</td>\n<td style=\"border: 1px solid black ;\">2018-07-31 23:12:58-05</td>\n<td style=\"border: 1px solid black ;\">fvt-configure</td>\n<td style=\"border: 1px solid black ;\">J2</td>\n<td style=\"border: 1px solid black ;\">PASS</td></tr>\n<tr style=\"background-color: #FFFFDB;\"><td style=\"border: 1px solid black ;\">SSJ18260957</td>\n<td style=\"border: 1px solid black ;\">LFARISASY-91905-202/B0</td>\n<td style=\"border: 1px solid black ;\">633956</td>\n<td style=\"border: 1px solid black ;\">//init2</td>\n<td style=\"border: 1px solid black ;\">2018-07-31 23:19:29+00</td>\n<td style=\"border: 1px solid black ;\">burnin</td>\n<td style=\"border: 1px solid black ;\">U18,U18</td>\n<td style=\"border: 1px solid black ;\">FAIL</td></tr>\n<tr style=\"background-color: #CFCFA3;\"><td style=\"border: 1px solid black ;\">SSJ18291615</td>\n<td style=\"border: 1px solid black ;\">LFARISASY-91923-104/F0</td>\n<td style=\"border: 1px solid black ;\">637183</td>\n<td style=\"border: 1px solid black ;\">TestSetupFailure: Unable to get into aboot mode.This could mean a misprogrammed or corrupted Aboot, CPLD, DPM, SCD, a bad console connection or a power problem.</td>\n<td style=\"border: 1px solid black ;\">2018-07-31 23:28:15+00</td>\n<td style=\"border: 1px solid black ;\">fvt-configure</td>\n<td style=\"border: 1px solid black ;\">DPM & CPLD</td>\n<td style=\"border: 1px solid black ;\">PASS</td></tr>\n<tr style=\"background-color: #FFFFDB;\"><td style=\"border: 1px solid black ;\">SSJ18212527</td>\n<td style=\"border: 1px solid black ;\">LFARISASY-50689-111/B1</td>\n<td style=\"border: 1px solid black ;\">628696</td>\n<td style=\"border: 1px solid black ;\">/supervisors/1/test1588InChassis</td>\n<td style=\"border: 1px solid black ;\">2018-08-01 00:05:39+00</td>\n<td style=\"border: 1px solid black ;\">fvt</td>\n<td style=\"border: 1px solid black ;\">J12</td>\n<td style=\"border: 1px solid black ;\">FAIL</td></tr>\n<tr style=\"background-color: #CFCFA3;\"><td style=\"border: 1px solid black ;\">SSJ18291760</td>\n<td style=\"border: 1px solid black ;\">LFARISASY-91923-104/F0</td>\n<td style=\"border: 1px solid black ;\">637183</td>\n<td style=\"border: 1px solid black ;\">PANIC: Failed to get mfgdata for Rear card.</td>\n<td style=\"border: 1px solid black ;\">2018-08-01 00:06:25+00</td>\n<td style=\"border: 1px solid black ;\">fvt-configure</td>\n<td style=\"border: 1px solid black ;\">REAR FAN</td>\n<td style=\"border: 1px solid black ;\">PASS</td></tr>\n<tr style=\"background-color: #FFFFDB;\"><td style=\"border: 1px solid black ;\">SSJ18281931</td>\n<td style=\"border: 1px solid black ;\">LFARISASY-91907-103/E0</td>\n<td style=\"border: 1px solid black ;\">636874</td>\n<td style=\"border: 1px solid black ;\">/switchCard/fpgas/0/testStatusOfPsus --verbose</td>\n<td style=\"border: 1px solid black ;\">2018-08-01 00:27:10-05</td>\n<td style=\"border: 1px solid black ;\">burnin</td>\n<td style=\"border: 1px solid black ;\">PSU2</td>\n<td style=\"border: 1px solid black ;\">PASS</td></tr>\n<tr style=\"background-color: #CFCFA3;\"><td style=\"border: 1px solid black ;\">SSJ18291628</td>\n<td style=\"border: 1px solid black ;\">LFARISASY-91923-104/F0</td>\n<td style=\"border: 1px solid black ;\">637183</td>\n<td style=\"border: 1px solid black ;\">FAIL: //testInteractive</td>\n<td style=\"border: 1px solid black ;\">2018-08-01 00:29:09+00</td>\n<td style=\"border: 1px solid black ;\">fvt-interactive</td>\n<td style=\"border: 1px solid black ;\">LIGHTPIPE</td>\n<td style=\"border: 1px solid black ;\">FAIL</td></tr>\n<tr style=\"background-color: #FFFFDB;\"><td style=\"border: 1px solid black ;\">SSJ18212529</td>\n<td style=\"border: 1px solid black ;\">LFARISASY-50689-111/B1</td>\n<td style=\"border: 1px solid black ;\">628696</td>\n<td style=\"border: 1px solid black ;\">/supervisors/1/test1588InChassis</td>\n<td style=\"border: 1px solid black ;\">2018-08-01 00:32:54+00</td>\n<td style=\"border: 1px solid black ;\">fvt</td>\n<td style=\"border: 1px solid black ;\">U79</td>\n<td style=\"border: 1px solid black ;\">FAIL</td></tr>\n<tr style=\"background-color: #CFCFA3;\"><td style=\"border: 1px solid black ;\">SSJ18291710</td>\n<td style=\"border: 1px solid black ;\">LFARISASY-91923-104/F0</td>\n<td style=\"border: 1px solid black ;\">637183</td>\n<td style=\"border: 1px solid black ;\">FAIL: //testInteractive</td>\n<td style=\"border: 1px solid black ;\">2018-08-01 01:13:38+00</td>\n<td style=\"border: 1px solid black ;\">fvt-interactive</td>\n<td style=\"border: 1px solid black ;\">LED49</td>\n<td style=\"border: 1px solid black ;\">FAIL</td></tr>\n<tr style=\"background-color: #FFFFDB;\"><td style=\"border: 1px solid black ;\">SSJ18281830</td>\n<td style=\"border: 1px solid black ;\">LFARISASY-91907-103/E0</td>\n<td style=\"border: 1px solid black ;\">636874</td>\n<td style=\"border: 1px solid black ;\">TestSetupFailure: Powering up the board for the first time failed. Unable to connect. Check console/power connections as well as console connector card. If these are good, check CPU/memory.</td>\n<td style=\"border: 1px solid black ;\">2018-08-01 01:16:22+00</td>\n<td style=\"border: 1px solid black ;\">fvt-configure</td>\n<td style=\"border: 1px solid black ;\">LOOP BACK</td>\n<td style=\"border: 1px solid black ;\">PASS</td></tr>\n<tr style=\"background-color: #CFCFA3;\"><td style=\"border: 1px solid black ;\">SSJ18282139</td>\n<td style=\"border: 1px solid black ;\">LFARISASY-91923-104/F0</td>\n<td style=\"border: 1px solid black ;\">637183</td>\n<td style=\"border: 1px solid black ;\">ScriptBugFailureErrorCode = 87\nScriptBugFailure:</td>\n<td style=\"border: 1px solid black ;\">2018-08-01 03:36:04+00</td>\n<td style=\"border: 1px solid black ;\">fvt-configure</td>\n<td style=\"border: 1px solid black ;\">J2</td>\n<td style=\"border: 1px solid black ;\">FAIL</td></tr>\n<tr style=\"background-color: #FFFFDB;\"><td style=\"border: 1px solid black ;\">SSJ18225524</td>\n<td style=\"border: 1px solid black ;\">LFARISASY-91907-103/E0</td>\n<td style=\"border: 1px solid black ;\">636874</td>\n<td style=\"border: 1px solid black ;\">/switchCard/xcvr test all -m low, /switchCard/testPrbs -l None -r 25GBase -d 120 --allow-mix-speeds, //testTraffic -l None -s 9216 -d 120 -</td>\n<td style=\"border: 1px solid black ;\">2018-08-01 03:58:02+00</td>\n<td style=\"border: 1px solid black ;\">fvt</td>\n<td style=\"border: 1px solid black ;\">J22</td>\n<td style=\"border: 1px solid black ;\">PASS</td></tr>\n<tr style=\"background-color: #CFCFA3;\"><td style=\"border: 1px solid black ;\">SSJ18295840</td>\n<td style=\"border: 1px solid black ;\">LFARISASY-91939-110/A0</td>\n<td style=\"border: 1px solid black ;\">146360</td>\n<td style=\"border: 1px solid black ;\">FAIL: //testInteractive</td>\n<td style=\"border: 1px solid black ;\">2018-08-01 04:14:55+00</td>\n<td style=\"border: 1px solid black ;\">fvt-interactive</td>\n<td style=\"border: 1px solid black ;\">D29</td>\n<td style=\"border: 1px solid black ;\">PASS</td></tr>\n<tr style=\"background-color: #FFFFDB;\"><td style=\"border: 1px solid black ;\">SSJ18291625</td>\n<td style=\"border: 1px solid black ;\">LFARISASY-91923-104/F0</td>\n<td style=\"border: 1px solid black ;\">637183</td>\n<td style=\"border: 1px solid black ;\">==================== Exception raised in 'python /usr/bin/fvt-configure-losangeles --useDb --arss 10.90.216.38 dut21 --sn SSJ18291625 --kvn 111 --sku DCS-7260CX3-64 --mac 74:83:ef:d0:53:98 --asy ASY0250504F0 --logDir /log/DCS-7260CX3-64/1829/SSJ18291625/fvt-configure/configure-1 --runId 1896197 --swiName /images/EOS-fixed.swi --deviation  ' (PID 8771) ====================</td>\n<td style=\"border: 1px solid black ;\">2018-08-01 04:41:54+00</td>\n<td style=\"border: 1px solid black ;\">fvt-configure</td>\n<td style=\"border: 1px solid black ;\">ROOK</td>\n<td style=\"border: 1px solid black ;\">FAIL</td></tr>\n<tr style=\"background-color: #CFCFA3;\"><td style=\"border: 1px solid black ;\">SSJ18249079</td>\n<td style=\"border: 1px solid black ;\">LFARISASY-91936-203/C0</td>\n<td style=\"border: 1px solid black ;\">635083</td>\n<td style=\"border: 1px solid black ;\">//testTraffic -l None --allow --cells --belk --sflow --ppm 300000 -d 90</td>\n<td style=\"border: 1px solid black ;\">2018-08-01 04:59:51+00</td>\n<td style=\"border: 1px solid black ;\">ess</td>\n<td style=\"border: 1px solid black ;\">U8 - BELK0</td>\n<td style=\"border: 1px solid black ;\">PASS</td></tr>\n<tr style=\"background-color: #FFFFDB;\"><td style=\"border: 1px solid black ;\">SSJ18250110</td>\n<td style=\"border: 1px solid black ;\">LFARISASY-90572-112/B0</td>\n<td style=\"border: 1px solid black ;\">633956</td>\n<td style=\"border: 1px solid black ;\">ScriptBugFailureErrorCode = 87\nScriptBugFailure:</td>\n<td style=\"border: 1px solid black ;\">2018-08-01 05:06:24+00</td>\n<td style=\"border: 1px solid black ;\">fvt-configure</td>\n<td style=\"border: 1px solid black ;\">U20</td>\n<td style=\"border: 1px solid black ;\">FAIL</td></tr>\n<tr style=\"background-color: #CFCFA3;\"><td style=\"border: 1px solid black ;\">SSJ18251293</td>\n<td style=\"border: 1px solid black ;\">LFARISASY-51510-121/A0</td>\n<td style=\"border: 1px solid black ;\">7885</td>\n<td style=\"border: 1px solid black ;\">/linecards/3/programPrimaryDpms -f /usr/share/DosFirmwareImages/MtHolmes10-primary.powerucd --dpms 1</td>\n<td style=\"border: 1px solid black ;\">2018-08-01 11:12:08-05</td>\n<td style=\"border: 1px solid black ;\">fvt-configure</td>\n<td style=\"border: 1px solid black ;\">U203,U207</td>\n<td style=\"border: 1px solid black ;\">FAIL</td></tr>\n<tr style=\"background-color: #FFFFDB;\"><td style=\"border: 1px solid black ;\">SSJ18199018</td>\n<td style=\"border: 1px solid black ;\">LFARISASY-91936-203/C0</td>\n<td style=\"border: 1px solid black ;\">636479</td>\n<td style=\"border: 1px solid black ;\">FAIL: //testInteractive</td>\n<td style=\"border: 1px solid black ;\">2018-08-01 13:46:42+00</td>\n<td style=\"border: 1px solid black ;\">fvt-interactive</td>\n<td style=\"border: 1px solid black ;\">U 6</td>\n<td style=\"border: 1px solid black ;\">PASS</td></tr>\n<tr style=\"background-color: #CFCFA3;\"><td style=\"border: 1px solid black ;\">SSJ18285486</td>\n<td style=\"border: 1px solid black ;\">LFARISASY-51704-115/A1</td>\n<td style=\"border: 1px solid black ;\">634663</td>\n<td style=\"border: 1px solid black ;\">/linecards/4/xcvrs/23/testAll --margin low, /linecards/4/xcvrs/27/testAll --margin low, /linecards/4/xcvrs/3/testAll --margin low, /linecar</td>\n<td style=\"border: 1px solid black ;\">2018-08-01 14:23:01+00</td>\n<td style=\"border: 1px solid black ;\">fvt</td>\n<td style=\"border: 1px solid black ;\">R999,R1000,R995,R999,R1028</td>\n<td style=\"border: 1px solid black ;\">PASS</td></tr>\n<tr style=\"background-color: #FFFFDB;\"><td style=\"border: 1px solid black ;\">JPE17440156</td>\n<td style=\"border: 1px solid black ;\">LFARISASY-91936-203/C0R</td>\n<td style=\"border: 1px solid black ;\">636479</td>\n<td style=\"border: 1px solid black ;\">//showInventory -j</td>\n<td style=\"border: 1px solid black ;\">2018-08-01 15:29:08+00</td>\n<td style=\"border: 1px solid black ;\">fvt</td>\n<td style=\"border: 1px solid black ;\">J 20.</td>\n<td style=\"border: 1px solid black ;\">PASS</td></tr>\n<tr style=\"background-color: #CFCFA3;\"><td style=\"border: 1px solid black ;\">SSJ18205828</td>\n<td style=\"border: 1px solid black ;\">LFARISASY-52543-208/A0</td>\n<td style=\"border: 1px solid black ;\">7885</td>\n<td style=\"border: 1px solid black ;\">/linecards/6/init2</td>\n<td style=\"border: 1px solid black ;\">2018-08-01 15:59:05+00</td>\n<td style=\"border: 1px solid black ;\">fvt-configure</td>\n<td style=\"border: 1px solid black ;\">C3573</td>\n<td style=\"border: 1px solid black ;\">FAIL</td></tr>\n<tr style=\"background-color: #FFFFDB;\"><td style=\"border: 1px solid black ;\">SSJ18250345</td>\n<td style=\"border: 1px solid black ;\">LFARISASY-91905-202/B0</td>\n<td style=\"border: 1px solid black ;\">633956</td>\n<td style=\"border: 1px solid black ;\">/switchCard/testDramBist, /switchCard/testDramBistPrbs, /switchCard/testBroadsync, /switchCard/faps/0/testKapsBist, /switchCard/faps/0/test</td>\n<td style=\"border: 1px solid black ;\">2018-08-01 17:13:26-05</td>\n<td style=\"border: 1px solid black ;\">fvt</td>\n<td style=\"border: 1px solid black ;\">U18</td>\n<td style=\"border: 1px solid black ;\">PASS</td></tr>\n<tr style=\"background-color: #CFCFA3;\"><td style=\"border: 1px solid black ;\">SSJ18282118</td>\n<td style=\"border: 1px solid black ;\">LFARISASY-91923-104/F0</td>\n<td style=\"border: 1px solid black ;\">637183</td>\n<td style=\"border: 1px solid black ;\">/powerSupplies/1/fans/0/testFanSpeed, //verifyPsuFansCranked, //verifyPsuFansCranked, //verifyPsuFansCranked, //verifyPsuFansCranked</td>\n<td style=\"border: 1px solid black ;\">2018-08-01 17:25:36-05</td>\n<td style=\"border: 1px solid black ;\">fvt</td>\n<td style=\"border: 1px solid black ;\">PSU1</td>\n<td style=\"border: 1px solid black ;\">PASS</td></tr>\n<tr style=\"background-color: #FFFFDB;\"><td style=\"border: 1px solid black ;\">SSJ18250158</td>\n<td style=\"border: 1px solid black ;\">LFARISASY-91911-110/A1</td>\n<td style=\"border: 1px solid black ;\">633993</td>\n<td style=\"border: 1px solid black ;\">##! INVALID SETUP: Reported by test /switchCard/testLinkUp ==> Link down on the following front-panel ports : 13,14. Check the loopback modules/cables inserted.</td>\n<td style=\"border: 1px solid black ;\">2018-08-01 17:59:22+00</td>\n<td style=\"border: 1px solid black ;\">fvt</td>\n<td style=\"border: 1px solid black ;\">U37,J15,J15</td>\n<td style=\"border: 1px solid black ;\">FAIL</td></tr>\n<tr style=\"background-color: #CFCFA3;\"><td style=\"border: 1px solid black ;\">SSJ18291797</td>\n<td style=\"border: 1px solid black ;\">LFARISASY-91923-104/F0</td>\n<td style=\"border: 1px solid black ;\">637183</td>\n<td style=\"border: 1px solid black ;\">==================== Exception raised in 'python /usr/bin/mfg --useDb --station fvt --dutType fixed --arss 10.255.253.41 --logDir /log/DCS-7260CX3-64/1829/SSJ18291797/fvt/run-2 --logName /log/DCS-7260CX3-64/1829/SSJ18291797/fvt/run-2.log --testbed dut24 --asy ASY0250504F0 --pca PCA0094903C0 --sn SSJ18291797 --sku DCS-7260CX3-64 --mac 74:83:ef:d0:7c:38 --swiName /images/EOS-fixed.swi --deviation D0004351 --runId 1908233 ' (PID 11693) ====================</td>\n<td style=\"border: 1px solid black ;\">2018-08-01 19:18:15-05</td>\n<td style=\"border: 1px solid black ;\">fvt</td>\n<td style=\"border: 1px solid black ;\">J1</td>\n<td style=\"border: 1px solid black ;\">PASS</td></tr>\n<tr style=\"background-color: #FFFFDB;\"><td style=\"border: 1px solid black ;\">SSJ18291756</td>\n<td style=\"border: 1px solid black ;\">LFARISASY-91923-104/F0</td>\n<td style=\"border: 1px solid black ;\">637183</td>\n<td style=\"border: 1px solid black ;\">ScriptBugFailureErrorCode = 87\nScriptBugFailure:</td>\n<td style=\"border: 1px solid black ;\">2018-08-01 20:15:39-05</td>\n<td style=\"border: 1px solid black ;\">fvt-configure</td>\n<td style=\"border: 1px solid black ;\">ROOK</td>\n<td style=\"border: 1px solid black ;\">PASS</td></tr>\n<tr style=\"background-color: #CFCFA3;\"><td style=\"border: 1px solid black ;\">SSJ18093021</td>\n<td style=\"border: 1px solid black ;\">LFARISASY-91959-204/C0</td>\n<td style=\"border: 1px solid black ;\">146360</td>\n<td style=\"border: 1px solid black ;\">==================== Exception raised in 'python /usr/bin/fvt-configure-fixed --useDb --arss 10.90.216.33 dut20 --pca PCA0090810B0 --sn SSJ18093021 --kvn 111 --sku DCS-7020TRA-48 --mac 74:83:ef:11:05:0c --asy ASY0284101B0 --logDir /log/DCS-7020TRA-48/1809/SSJ18093021/fvt-configure/configure-3 --runId 1901534 --swiName /images/EOS-fixed.swi --cpuPca PCA0070404D0 --cpuSn SSJ18131525 --deviation  --cpuDeviation  ' (PID 1588) ====================</td>\n<td style=\"border: 1px solid black ;\">2018-08-01 22:10:39+00</td>\n<td style=\"border: 1px solid black ;\">fvt-configure</td>\n<td style=\"border: 1px solid black ;\">HEAT SINK</td>\n<td style=\"border: 1px solid black ;\">FAIL</td></tr>\n<tr style=\"background-color: #FFFFDB;\"><td style=\"border: 1px solid black ;\">SSJ18291887</td>\n<td style=\"border: 1px solid black ;\">LFARISASY-91923-104/F0</td>\n<td style=\"border: 1px solid black ;\">637183</td>\n<td style=\"border: 1px solid black ;\">TestSetupFailure: Unable to get into aboot mode.This could mean a misprogrammed or corrupted Aboot, CPLD, DPM, SCD, a bad console connection or a power problem.</td>\n<td style=\"border: 1px solid black ;\">2018-08-01 22:10:51+00</td>\n<td style=\"border: 1px solid black ;\">fvt-configure</td>\n<td style=\"border: 1px solid black ;\">C599,R647</td>\n<td style=\"border: 1px solid black ;\">FAIL</td></tr>\n<tr style=\"background-color: #CFCFA3;\"><td style=\"border: 1px solid black ;\">SSJ18281916</td>\n<td style=\"border: 1px solid black ;\">LFARISASY-91906-103/E0</td>\n<td style=\"border: 1px solid black ;\">146360</td>\n<td style=\"border: 1px solid black ;\">TestSetupFailure: Powering up the board for the first time failed. Unable to connect. Check console/power connections as well as console connector card. If these are good, check CPU/memory.</td>\n<td style=\"border: 1px solid black ;\">2018-08-01 22:28:02+00</td>\n<td style=\"border: 1px solid black ;\">fvt-configure</td>\n<td style=\"border: 1px solid black ;\">C8</td>\n<td style=\"border: 1px solid black ;\">PASS</td></tr>\n<tr style=\"background-color: #FFFFDB;\"><td style=\"border: 1px solid black ;\">SSJ18309026</td>\n<td style=\"border: 1px solid black ;\">LFARISASY-91936-204/A0</td>\n<td style=\"border: 1px solid black ;\">635083</td>\n<td style=\"border: 1px solid black ;\">//showInventory -j</td>\n<td style=\"border: 1px solid black ;\">2018-08-01 23:17:16+00</td>\n<td style=\"border: 1px solid black ;\">fvt</td>\n<td style=\"border: 1px solid black ;\">R2364</td>\n<td style=\"border: 1px solid black ;\">PASS</td></tr>\n<tr style=\"background-color: #CFCFA3;\"><td style=\"border: 1px solid black ;\">SSJ18295726</td>\n<td style=\"border: 1px solid black ;\">LFARISASY-91938-110/A0</td>\n<td style=\"border: 1px solid black ;\">146360</td>\n<td style=\"border: 1px solid black ;\">PANIC: Please verify if Renesas security chip reset is working, before running fvt-configure.</td>\n<td style=\"border: 1px solid black ;\">2018-08-01 23:24:39+00</td>\n<td style=\"border: 1px solid black ;\">fvt-configure</td>\n<td style=\"border: 1px solid black ;\">U37,U13</td>\n<td style=\"border: 1px solid black ;\">PASS</td></tr>\n<tr style=\"background-color: #FFFFDB;\"><td style=\"border: 1px solid black ;\">SSJ18291807</td>\n<td style=\"border: 1px solid black ;\">LFARISASY-91923-104/F0</td>\n<td style=\"border: 1px solid black ;\">637183</td>\n<td style=\"border: 1px solid black ;\">//power test voltage low</td>\n<td style=\"border: 1px solid black ;\">2018-08-01 23:29:28-05</td>\n<td style=\"border: 1px solid black ;\">fvt</td>\n<td style=\"border: 1px solid black ;\">PCA-00964-02</td>\n<td style=\"border: 1px solid black ;\">PASS</td></tr>\n<tr style=\"background-color: #CFCFA3;\"><td style=\"border: 1px solid black ;\">SSJ18309030</td>\n<td style=\"border: 1px solid black ;\">LFARISASY-91936-204/A0</td>\n<td style=\"border: 1px solid black ;\">635083</td>\n<td style=\"border: 1px solid black ;\">/switchCardLower/testPcieAuditPath, /switchCardLower/testPcieAuditPath</td>\n<td style=\"border: 1px solid black ;\">2018-08-01 23:30:17+00</td>\n<td style=\"border: 1px solid black ;\">fvt</td>\n<td style=\"border: 1px solid black ;\">C896 - CPU,C896 -CPU,CPU - C896,C896</td>\n<td style=\"border: 1px solid black ;\">PASS</td></tr>\n<tr style=\"background-color: #FFFFDB;\"><td style=\"border: 1px solid black ;\">SSJ18112874</td>\n<td style=\"border: 1px solid black ;\">LFARISASY-91923-104/E1</td>\n<td style=\"border: 1px solid black ;\">637183</td>\n<td style=\"border: 1px solid black ;\">ScriptBugFailureErrorCode = 87\nScriptBugFailure:</td>\n<td style=\"border: 1px solid black ;\">2018-08-01 23:57:43-05</td>\n<td style=\"border: 1px solid black ;\">fvt-configure</td>\n<td style=\"border: 1px solid black ;\">J2</td>\n<td style=\"border: 1px solid black ;\">PASS</td></tr>\n<tr style=\"background-color: #CFCFA3;\"><td style=\"border: 1px solid black ;\">SSJ18291790</td>\n<td style=\"border: 1px solid black ;\">LFARISASY-91923-104/F0</td>\n<td style=\"border: 1px solid black ;\">637183</td>\n<td style=\"border: 1px solid black ;\">//testTraffic -l None -s 9216 -d 1800 -n 15  --speed 100G</td>\n<td style=\"border: 1px solid black ;\">2018-08-02 00:56:27+00</td>\n<td style=\"border: 1px solid black ;\">burnin</td>\n<td style=\"border: 1px solid black ;\">HEAT SINK</td>\n<td style=\"border: 1px solid black ;\">PASS</td></tr>\n<tr style=\"background-color: #FFFFDB;\"><td style=\"border: 1px solid black ;\">SSJ18260902</td>\n<td style=\"border: 1px solid black ;\">LFARISASY-91905-202/B0</td>\n<td style=\"border: 1px solid black ;\">633956</td>\n<td style=\"border: 1px solid black ;\">ScriptBugFailureErrorCode = 87\nScriptBugFailure:</td>\n<td style=\"border: 1px solid black ;\">2018-08-02 02:15:49+00</td>\n<td style=\"border: 1px solid black ;\">fvt-configure</td>\n<td style=\"border: 1px solid black ;\">J25</td>\n<td style=\"border: 1px solid black ;\">PASS</td></tr>\n<tr style=\"background-color: #CFCFA3;\"><td style=\"border: 1px solid black ;\">SSJ18309009</td>\n<td style=\"border: 1px solid black ;\">LFARISASY-91936-204/A0</td>\n<td style=\"border: 1px solid black ;\">635083</td>\n<td style=\"border: 1px solid black ;\">/switchCardUpper/testPcieAuditPath, /switchCardUpper/testPcieAuditPath</td>\n<td style=\"border: 1px solid black ;\">2018-08-02 03:43:27+00</td>\n<td style=\"border: 1px solid black ;\">ess</td>\n<td style=\"border: 1px solid black ;\">U8- UPPER,U109</td>\n<td style=\"border: 1px solid black ;\">FAIL</td></tr>\n<tr style=\"background-color: #FFFFDB;\"><td style=\"border: 1px solid black ;\">SSJ18296086</td>\n<td style=\"border: 1px solid black ;\">LFARISASY-52544-108/A0</td>\n<td style=\"border: 1px solid black ;\">634788</td>\n<td style=\"border: 1px solid black ;\">/linecards/9/testPrbs -l None -d 300 --mode Prbs31 --allow --fabric --continuous</td>\n<td style=\"border: 1px solid black ;\">2018-08-02 04:40:45+00</td>\n<td style=\"border: 1px solid black ;\">ess</td>\n<td style=\"border: 1px solid black ;\">J1,J2</td>\n<td style=\"border: 1px solid black ;\">FAIL</td></tr>\n<tr style=\"background-color: #CFCFA3;\"><td style=\"border: 1px solid black ;\">SSJ18116527</td>\n<td style=\"border: 1px solid black ;\">LFARISASY-91923-104/E1</td>\n<td style=\"border: 1px solid black ;\">634437</td>\n<td style=\"border: 1px solid black ;\">ScriptBugFailureErrorCode = 87\nScriptBugFailure:</td>\n<td style=\"border: 1px solid black ;\">2018-08-02 04:41:22+00</td>\n<td style=\"border: 1px solid black ;\">fvt-configure</td>\n<td style=\"border: 1px solid black ;\">U22,J2</td>\n<td style=\"border: 1px solid black ;\">PASS</td></tr>\n</table>\n", 
    "prod_nums": [
        38, 
        15, 
        13, 
        13, 
        11, 
        10, 
        9, 
        6, 
        6, 
        5, 
        3, 
        1, 
        1
    ], 
    "topFails": {
        "counts": [
            8, 
            7, 
            3, 
            2, 
            2
        ], 
        "labels": [
            "FAIL: //testInteractive", 
            "ScriptBugFailureErrorCode = \nScriptBugFailure:", 
            "TestSetupFailure: Powering up the board for the first time failed. Unable to connect. Check console/power connections as well as console connector card. If these are good, check CPU/memory.", 
            "//showInventory -j", 
            "/linecards//init"
        ], 
        "xlabels": [
            {
                "text": "FAIL: //testInteractive"
            }, 
            {
                "text": "ScriptBugFailureErrorCode"
            }, 
            {
                "text": "TestSetupFailure: Powerin"
            }, 
            {
                "text": "//showInventory -j"
            }, 
            {
                "text": "/linecards//init"
            }
        ]
    }, 
    "Accs": [
        76.67, 
        75.0, 
        70.0, 
        100.0, 
        100.0, 
        100.0, 
        30.77, 
        37.5, 
        60.0, 
        66.67, 
        40.0, 
        100.0, 
        0.0
    ]
}