{
    "Fails": [
        52.38, 
        18.18, 
        52.94, 
        46.15, 
        25.0, 
        44.44, 
        50.0, 
        20.0, 
        72.73, 
        0.0, 
        50.0, 
        0.0, 
        100.0
    ], 
    "numFail": [
        11, 
        2, 
        9, 
        6, 
        2, 
        4, 
        5, 
        1, 
        8, 
        0, 
        3, 
        0, 
        4
    ], 
    "numPass": [
        10, 
        9, 
        8, 
        7, 
        6, 
        5, 
        5, 
        4, 
        3, 
        3, 
        3, 
        1, 
        0
    ], 
    "Labels": [
        "637183", 
        "627542", 
        "7885", 
        "633872", 
        "633956", 
        "634705", 
        "628696", 
        "636479", 
        "633993", 
        "636874", 
        "635157", 
        "634788", 
        "632861"
    ], 
    "Quart": "2019_W15", 
    "topFixes": {
        "counts": [
            3, 
            2, 
            2, 
            2, 
            2
        ], 
        "labels": [
            "RESEAT HEATSINK", 
            "LIGHTPIPE", 
            "U302", 
            "CPU CARD", 
            "LIGHT PIPE"
        ]
    }, 
    "prod_labels": [
        "7885", 
        "633872", 
        "634437", 
        "637183", 
        "628696", 
        "634788", 
        "634705", 
        "635157", 
        "633993", 
        "632861", 
        "633956", 
        "627542", 
        "636479", 
        "636874"
    ], 
    "failsWithTest": {
        "ess": [
            [
                4, 
                2, 
                0, 
                2, 
                0
            ], 
            [
                "U302,U318,U316,U314", 
                "LB25,U302", 
                "", 
                "RESEAT HEATSINK", 
                ""
            ]
        ], 
        "fvt": [
            [
                0, 
                2, 
                0, 
                0, 
                0
            ], 
            [
                "", 
                "U316,U307", 
                "", 
                "", 
                ""
            ]
        ], 
        "burnin": [
            [
                0, 
                0, 
                0, 
                1, 
                0
            ], 
            [
                "", 
                "", 
                "", 
                "RESEAT HEATSINK", 
                ""
            ]
        ], 
        "fvt-configure": [
            [
                0, 
                0, 
                3, 
                0, 
                0
            ], 
            [
                "", 
                "", 
                "PROGRAM CPLD,REPROGRAM CPLD", 
                "", 
                ""
            ]
        ], 
        "fvt-interactive": [
            [
                0, 
                0, 
                0, 
                0, 
                2
            ], 
            [
                "", 
                "", 
                "", 
                "", 
                "D12,LED 57"
            ]
        ]
    }, 
    "table": "<br><table style=\"border: 1px solid black ;border-collapse:collapse;font-size: small;\">\n\t\t\t\t\t\t<tr style=\"background-color: #CFCFA3;\">\n\t\t\t\t\t\t\t<th style=\"border: 1px solid black ;\">Serial Number</th>\n\t\t\t\t\t\t\t<th style=\"border: 1px solid black ;\">Part Number</th>\n\t\t\t\t\t\t\t<th style=\"border: 1px solid black ;\">Tech</th>\n\t\t\t\t\t\t\t<th style=\"border: 1px solid black ;\">Fail Text</th>\n\t\t\t\t\t\t\t<th style=\"border: 1px solid black ;\">Debug Time</th>\n\t\t\t\t\t\t\t<th style=\"border: 1px solid black ;\">Failed Test</th>\n\t\t\t\t\t\t\t<th style=\"border: 1px solid black ;\">Fix</th>\n\t\t\t\t\t\t\t<th style=\"border: 1px solid black ;\">Pass/Fail</th>\n\t\t\t\t\t\t</tr><tr style=\"background-color: #FFFFDB;\"><td style=\"border: 1px solid black ;\">SSJ19121047</td>\n<td style=\"border: 1px solid black ;\">LFARISASY-52756-120/A0</td>\n<td style=\"border: 1px solid black ;\">7885</td>\n<td style=\"border: 1px solid black ;\">/linecards/10/programPrimaryDpms -f /usr/share/DosFirmwareImages/MtQuadrant01-primary.powerucd --dpms 2</td>\n<td style=\"border: 1px solid black ;\">2019-04-08 13:31:53+00</td>\n<td style=\"border: 1px solid black ;\">fvt-configure</td>\n<td style=\"border: 1px solid black ;\">U207</td>\n<td style=\"border: 1px solid black ;\">FAIL</td></tr>\n<tr style=\"background-color: #CFCFA3;\"><td style=\"border: 1px solid black ;\">SSJ19102142</td>\n<td style=\"border: 1px solid black ;\">LFARISASY-70919-106/B0</td>\n<td style=\"border: 1px solid black ;\">634705</td>\n<td style=\"border: 1px solid black ;\">/switchCard/testTraffic -d 120 -s 9208 -l None --allow-mix-speeds -r 100GBase-4 --force-init --ppm 800000, /switchCard/testTraffic -d 120 -</td>\n<td style=\"border: 1px solid black ;\">2019-04-08 13:42:31+00</td>\n<td style=\"border: 1px solid black ;\">fvt</td>\n<td style=\"border: 1px solid black ;\">J11</td>\n<td style=\"border: 1px solid black ;\">PASS</td></tr>\n<tr style=\"background-color: #FFFFDB;\"><td style=\"border: 1px solid black ;\">SSJ19051697</td>\n<td style=\"border: 1px solid black ;\">LFARISASY-52787-104/A0</td>\n<td style=\"border: 1px solid black ;\">7885</td>\n<td style=\"border: 1px solid black ;\">/linecards/7/testPrbs -l None -d 300 --mode Prbs31 --allow --fabric, /linecards/7/testTraffic -l Phy -d 60 -s 512 --allow --no-ocb</td>\n<td style=\"border: 1px solid black ;\">2019-04-08 14:01:50+00</td>\n<td style=\"border: 1px solid black ;\">fvt</td>\n<td style=\"border: 1px solid black ;\">U210,U210</td>\n<td style=\"border: 1px solid black ;\">FAIL</td></tr>\n<tr style=\"background-color: #CFCFA3;\"><td style=\"border: 1px solid black ;\">SSJ19111375</td>\n<td style=\"border: 1px solid black ;\">LFARISASY-91911-110/A1</td>\n<td style=\"border: 1px solid black ;\">634705</td>\n<td style=\"border: 1px solid black ;\">/switchCard/testPrbs -l None -r 25GBase -d 120 --allow-mix-speeds</td>\n<td style=\"border: 1px solid black ;\">2019-04-08 14:19:08+00</td>\n<td style=\"border: 1px solid black ;\">burnin</td>\n<td style=\"border: 1px solid black ;\">J14</td>\n<td style=\"border: 1px solid black ;\">FAIL</td></tr>\n<tr style=\"background-color: #FFFFDB;\"><td style=\"border: 1px solid black ;\">SSJ19094048</td>\n<td style=\"border: 1px solid black ;\">LFARISASY-53929-111/D0</td>\n<td style=\"border: 1px solid black ;\">633993</td>\n<td style=\"border: 1px solid black ;\">//testPrbs -l Phy --speed 100G -d 120, //testPrbs -l Phy -r 40GD -d 120, //testPrbs -l Phy -d 120, //testTraffic -l Phy -s 9216 -n 3 -d 120</td>\n<td style=\"border: 1px solid black ;\">2019-04-08 14:27:59+00</td>\n<td style=\"border: 1px solid black ;\">fvt</td>\n<td style=\"border: 1px solid black ;\">J7</td>\n<td style=\"border: 1px solid black ;\">FAIL</td></tr>\n<tr style=\"background-color: #CFCFA3;\"><td style=\"border: 1px solid black ;\">SSJ19120636</td>\n<td style=\"border: 1px solid black ;\">LFARISASY-52787-104/A0</td>\n<td style=\"border: 1px solid black ;\">7885</td>\n<td style=\"border: 1px solid black ;\">/linecards/5/programPrimaryDpms -f /usr/share/DosFirmwareImages/ucd90320_3.0.0.3103.bin --dpms 2 --space mfg</td>\n<td style=\"border: 1px solid black ;\">2019-04-08 15:02:06+00</td>\n<td style=\"border: 1px solid black ;\">fvt-configure</td>\n<td style=\"border: 1px solid black ;\">R3115</td>\n<td style=\"border: 1px solid black ;\">FAIL</td></tr>\n<tr style=\"background-color: #FFFFDB;\"><td style=\"border: 1px solid black ;\">SSJ19032235</td>\n<td style=\"border: 1px solid black ;\">LFARISASY-52787-104/A0</td>\n<td style=\"border: 1px solid black ;\">7885</td>\n<td style=\"border: 1px solid black ;\">/linecards/3/testTraffic -l None -d 300 -s 9208 --allow, /linecards/3/testTraffic -l None -d 90 -s 64 --allow --cells --no-ocb, /linecards/</td>\n<td style=\"border: 1px solid black ;\">2019-04-08 15:52:37+00</td>\n<td style=\"border: 1px solid black ;\">ess</td>\n<td style=\"border: 1px solid black ;\">LB25</td>\n<td style=\"border: 1px solid black ;\">PASS</td></tr>\n<tr style=\"background-color: #CFCFA3;\"><td style=\"border: 1px solid black ;\">SSJ19100590</td>\n<td style=\"border: 1px solid black ;\">LFARISASY-52544-109/A0</td>\n<td style=\"border: 1px solid black ;\">7885</td>\n<td style=\"border: 1px solid black ;\">/linecards/6/testPrbs -l None -d 300 --mode Prbs31 --allow --fabric, /linecards/6/testNifPortEyeSizeTotal, /linecards/6/testDramBist, /line</td>\n<td style=\"border: 1px solid black ;\">2019-04-08 16:38:05+00</td>\n<td style=\"border: 1px solid black ;\">fvt</td>\n<td style=\"border: 1px solid black ;\">U150</td>\n<td style=\"border: 1px solid black ;\">FAIL</td></tr>\n<tr style=\"background-color: #FFFFDB;\"><td style=\"border: 1px solid black ;\">SSJ19101042</td>\n<td style=\"border: 1px solid black ;\">LFARISASY-51446-111/A0</td>\n<td style=\"border: 1px solid black ;\">633872</td>\n<td style=\"border: 1px solid black ;\">/fabriccards/2/testPrbs --duration 1800 --continuous True, /fabriccards/2/testPrbs --duration 300 --continuous True</td>\n<td style=\"border: 1px solid black ;\">2019-04-08 17:23:53+00</td>\n<td style=\"border: 1px solid black ;\">ess</td>\n<td style=\"border: 1px solid black ;\">J2</td>\n<td style=\"border: 1px solid black ;\">PASS</td></tr>\n<tr style=\"background-color: #CFCFA3;\"><td style=\"border: 1px solid black ;\">SSJ18512759</td>\n<td style=\"border: 1px solid black ;\">LFARISASY-51810-120/A0</td>\n<td style=\"border: 1px solid black ;\">635157</td>\n<td style=\"border: 1px solid black ;\">/fabriccards/2/testLinkReady --cores [u'None'] --linecards [u'None'], /fabriccards/2/testLinkTraining --eyeScan True, /fabriccards/2/dumpSe</td>\n<td style=\"border: 1px solid black ;\">2019-04-08 18:53:18+00</td>\n<td style=\"border: 1px solid black ;\">ess</td>\n<td style=\"border: 1px solid black ;\">C2382</td>\n<td style=\"border: 1px solid black ;\">FAIL</td></tr>\n<tr style=\"background-color: #FFFFDB;\"><td style=\"border: 1px solid black ;\">SSJ18361258</td>\n<td style=\"border: 1px solid black ;\">LFARISASY-52787-104/A0</td>\n<td style=\"border: 1px solid black ;\">632861</td>\n<td style=\"border: 1px solid black ;\">/linecards/7/init2</td>\n<td style=\"border: 1px solid black ;\">2019-04-08 19:11:00+00</td>\n<td style=\"border: 1px solid black ;\">ess</td>\n<td style=\"border: 1px solid black ;\">C8241,8244,J7</td>\n<td style=\"border: 1px solid black ;\">FAIL</td></tr>\n<tr style=\"background-color: #CFCFA3;\"><td style=\"border: 1px solid black ;\">SSJ19094039</td>\n<td style=\"border: 1px solid black ;\">LFARISASY-53929-111/D0</td>\n<td style=\"border: 1px solid black ;\">633993</td>\n<td style=\"border: 1px solid black ;\">/switchcard/scd/testFancardStatus</td>\n<td style=\"border: 1px solid black ;\">2019-04-08 19:13:11+00</td>\n<td style=\"border: 1px solid black ;\">burnin</td>\n<td style=\"border: 1px solid black ;\">NA</td>\n<td style=\"border: 1px solid black ;\">FAIL</td></tr>\n<tr style=\"background-color: #FFFFDB;\"><td style=\"border: 1px solid black ;\">SSJ19049000</td>\n<td style=\"border: 1px solid black ;\">LFARISASY-90916-111/A0</td>\n<td style=\"border: 1px solid black ;\">636479</td>\n<td style=\"border: 1px solid black ;\">TestSetupFailure: Failed to get root login to the dut due to timeout. Details: Timeout (600 seconds) trying to discover the current mode but got no output</td>\n<td style=\"border: 1px solid black ;\">2019-04-08 19:23:05+00</td>\n<td style=\"border: 1px solid black ;\">ess</td>\n<td style=\"border: 1px solid black ;\">CPU CARD</td>\n<td style=\"border: 1px solid black ;\">FAIL</td></tr>\n<tr style=\"background-color: #CFCFA3;\"><td style=\"border: 1px solid black ;\">SSJ18512940</td>\n<td style=\"border: 1px solid black ;\">LFARISASY-51810-120/A0</td>\n<td style=\"border: 1px solid black ;\">635157</td>\n<td style=\"border: 1px solid black ;\">/fabriccards/2/fvtConfig --pca PCA0072320A0 --fdlFile None --fvtprefdl None --cpldFile /usr/share/DosFpgaImages/senator_v2.vme -</td>\n<td style=\"border: 1px solid black ;\">2019-04-08 19:30:43+00</td>\n<td style=\"border: 1px solid black ;\">fvt-configure</td>\n<td style=\"border: 1px solid black ;\">C2336</td>\n<td style=\"border: 1px solid black ;\">PASS</td></tr>\n<tr style=\"background-color: #FFFFDB;\"><td style=\"border: 1px solid black ;\">SSJ19040317</td>\n<td style=\"border: 1px solid black ;\">LFARISASY-91907-103/E0</td>\n<td style=\"border: 1px solid black ;\">637183</td>\n<td style=\"border: 1px solid black ;\">/switchCard/switchChip/testDeviceType</td>\n<td style=\"border: 1px solid black ;\">2019-04-08 22:57:31+00</td>\n<td style=\"border: 1px solid black ;\">fvt</td>\n<td style=\"border: 1px solid black ;\">LABEL</td>\n<td style=\"border: 1px solid black ;\">PASS</td></tr>\n<tr style=\"background-color: #CFCFA3;\"><td style=\"border: 1px solid black ;\">SSJ19040314</td>\n<td style=\"border: 1px solid black ;\">LFARISASY-91907-103/E0</td>\n<td style=\"border: 1px solid black ;\">637183</td>\n<td style=\"border: 1px solid black ;\">/switchCard/switchChip/testDeviceType</td>\n<td style=\"border: 1px solid black ;\">2019-04-08 22:58:27+00</td>\n<td style=\"border: 1px solid black ;\">fvt</td>\n<td style=\"border: 1px solid black ;\">LABEL</td>\n<td style=\"border: 1px solid black ;\">PASS</td></tr>\n<tr style=\"background-color: #FFFFDB;\"><td style=\"border: 1px solid black ;\">SSJ19083357</td>\n<td style=\"border: 1px solid black ;\">LFARISASY-91910-110/A1</td>\n<td style=\"border: 1px solid black ;\">636874</td>\n<td style=\"border: 1px solid black ;\">ScriptBugFailure:</td>\n<td style=\"border: 1px solid black ;\">2019-04-08 23:13:32+00</td>\n<td style=\"border: 1px solid black ;\">fvt-configure</td>\n<td style=\"border: 1px solid black ;\">U23</td>\n<td style=\"border: 1px solid black ;\">PASS</td></tr>\n<tr style=\"background-color: #CFCFA3;\"><td style=\"border: 1px solid black ;\">SSJ19062617</td>\n<td style=\"border: 1px solid black ;\">LFARISASY-52062-108/B0</td>\n<td style=\"border: 1px solid black ;\">637183</td>\n<td style=\"border: 1px solid black ;\">/fabriccards/3/showFanSpeeds, /fabriccards/3/fanTest</td>\n<td style=\"border: 1px solid black ;\">2019-04-09 00:09:25+00</td>\n<td style=\"border: 1px solid black ;\">fvt</td>\n<td style=\"border: 1px solid black ;\">FAN 4</td>\n<td style=\"border: 1px solid black ;\">PASS</td></tr>\n<tr style=\"background-color: #FFFFDB;\"><td style=\"border: 1px solid black ;\">SSJ18485061</td>\n<td style=\"border: 1px solid black ;\">LFARISASY-50048-105/B0</td>\n<td style=\"border: 1px solid black ;\">628696</td>\n<td style=\"border: 1px solid black ;\">FAIL: /linecards/9/testInteractive</td>\n<td style=\"border: 1px solid black ;\">2019-04-09 01:14:53+00</td>\n<td style=\"border: 1px solid black ;\">fvt-interactive</td>\n<td style=\"border: 1px solid black ;\">LIGHT PIPE</td>\n<td style=\"border: 1px solid black ;\">PASS</td></tr>\n<tr style=\"background-color: #CFCFA3;\"><td style=\"border: 1px solid black ;\">SSJ18504517</td>\n<td style=\"border: 1px solid black ;\">LFARISASY-52062-108/B0</td>\n<td style=\"border: 1px solid black ;\">637183</td>\n<td style=\"border: 1px solid black ;\">/fabriccards/1/testPrbsKeplerCold --duration 1800 --mode FecAuto --continuous True, /fabriccards/1/testPrbsKeplerCold --duration 300 --mode</td>\n<td style=\"border: 1px solid black ;\">2019-04-09 03:46:07+00</td>\n<td style=\"border: 1px solid black ;\">ess</td>\n<td style=\"border: 1px solid black ;\">J9</td>\n<td style=\"border: 1px solid black ;\">FAIL</td></tr>\n<tr style=\"background-color: #FFFFDB;\"><td style=\"border: 1px solid black ;\">SSJ19083370</td>\n<td style=\"border: 1px solid black ;\">LFARISASY-91910-110/A1</td>\n<td style=\"border: 1px solid black ;\">636874</td>\n<td style=\"border: 1px solid black ;\">TestSetupFailure: Unable to get into aboot mode but got non-standard ASCII characters. This could indicate a misprogrammed/corrupted Aboot or CPLD. Please check log for more information.</td>\n<td style=\"border: 1px solid black ;\">2019-04-09 05:00:15+00</td>\n<td style=\"border: 1px solid black ;\">fvt-configure</td>\n<td style=\"border: 1px solid black ;\">U23</td>\n<td style=\"border: 1px solid black ;\">PASS</td></tr>\n<tr style=\"background-color: #CFCFA3;\"><td style=\"border: 1px solid black ;\">SSJ19040009</td>\n<td style=\"border: 1px solid black ;\">LFARISASY-52787-104/A0</td>\n<td style=\"border: 1px solid black ;\">7885</td>\n<td style=\"border: 1px solid black ;\">/linecards/8/testPrbs -l None -d 300 --mode Prbs31 --allow --fabric --continuous, /linecards/8/testTraffic -l None -d 300 -s 9208 --allow,</td>\n<td style=\"border: 1px solid black ;\">2019-04-09 13:18:10+00</td>\n<td style=\"border: 1px solid black ;\">ess</td>\n<td style=\"border: 1px solid black ;\">U302</td>\n<td style=\"border: 1px solid black ;\">PASS</td></tr>\n<tr style=\"background-color: #FFFFDB;\"><td style=\"border: 1px solid black ;\">SSJ19040015</td>\n<td style=\"border: 1px solid black ;\">LFARISASY-52787-104/A0</td>\n<td style=\"border: 1px solid black ;\">7885</td>\n<td style=\"border: 1px solid black ;\">/linecards/3/testPrbs -l None -d 300 --mode Prbs31 --allow --fabric --continuous, /linecards/3/testTraffic -l None -d 300 -s 9208 --allow,</td>\n<td style=\"border: 1px solid black ;\">2019-04-09 13:22:20+00</td>\n<td style=\"border: 1px solid black ;\">ess</td>\n<td style=\"border: 1px solid black ;\">U314</td>\n<td style=\"border: 1px solid black ;\">FAIL</td></tr>\n<tr style=\"background-color: #CFCFA3;\"><td style=\"border: 1px solid black ;\">SSJ19032122</td>\n<td style=\"border: 1px solid black ;\">LFARISASY-52787-104/A0</td>\n<td style=\"border: 1px solid black ;\">7885</td>\n<td style=\"border: 1px solid black ;\">/linecards/4/testPrbs -l None -d 300 --mode Prbs31 --allow --fabric --continuous, /linecards/4/testTraffic -l None -d 300 -s 9208 --allow,</td>\n<td style=\"border: 1px solid black ;\">2019-04-09 13:26:44+00</td>\n<td style=\"border: 1px solid black ;\">ess</td>\n<td style=\"border: 1px solid black ;\">U316</td>\n<td style=\"border: 1px solid black ;\">PASS</td></tr>\n<tr style=\"background-color: #FFFFDB;\"><td style=\"border: 1px solid black ;\">SSJ19094124</td>\n<td style=\"border: 1px solid black ;\">LFARISASY-53929-111/D0</td>\n<td style=\"border: 1px solid black ;\">633993</td>\n<td style=\"border: 1px solid black ;\">//testTraffic -l Phy -s 9216 -n 3 -d 120</td>\n<td style=\"border: 1px solid black ;\">2019-04-09 16:26:35+00</td>\n<td style=\"border: 1px solid black ;\">burnin</td>\n<td style=\"border: 1px solid black ;\">THERMAL COMPOUND</td>\n<td style=\"border: 1px solid black ;\">FAIL</td></tr>\n<tr style=\"background-color: #CFCFA3;\"><td style=\"border: 1px solid black ;\">SSJ19101563</td>\n<td style=\"border: 1px solid black ;\">LFARISASY-51446-111/A0</td>\n<td style=\"border: 1px solid black ;\">633872</td>\n<td style=\"border: 1px solid black ;\">/fabriccards/2/testPrbs --duration 300 --continuous False</td>\n<td style=\"border: 1px solid black ;\">2019-04-09 17:47:03+00</td>\n<td style=\"border: 1px solid black ;\">fvt</td>\n<td style=\"border: 1px solid black ;\">J7</td>\n<td style=\"border: 1px solid black ;\">FAIL</td></tr>\n<tr style=\"background-color: #FFFFDB;\"><td style=\"border: 1px solid black ;\">SSJ18512727</td>\n<td style=\"border: 1px solid black ;\">LFARISASY-51810-120/A0</td>\n<td style=\"border: 1px solid black ;\">635157</td>\n<td style=\"border: 1px solid black ;\">/fabriccards/1/switchFvtTest --duration 300 --intervals 2 --verbose False --cards None --cores None --eyeScan True</td>\n<td style=\"border: 1px solid black ;\">2019-04-09 18:17:23+00</td>\n<td style=\"border: 1px solid black ;\">ess</td>\n<td style=\"border: 1px solid black ;\">J8</td>\n<td style=\"border: 1px solid black ;\">PASS</td></tr>\n<tr style=\"background-color: #CFCFA3;\"><td style=\"border: 1px solid black ;\">SSJ19021365</td>\n<td style=\"border: 1px solid black ;\">LFARISASY-52787-104/A0</td>\n<td style=\"border: 1px solid black ;\">632861</td>\n<td style=\"border: 1px solid black ;\">/linecards/7/programPrimaryDpms -f /usr/share/DosFirmwareImages/ucd90320_3.0.0.3103.bin --dpms 1 --space mfg</td>\n<td style=\"border: 1px solid black ;\">2019-04-09 18:24:55+00</td>\n<td style=\"border: 1px solid black ;\">fvt-configure</td>\n<td style=\"border: 1px solid black ;\">U285</td>\n<td style=\"border: 1px solid black ;\">FAIL</td></tr>\n<tr style=\"background-color: #FFFFDB;\"><td style=\"border: 1px solid black ;\">SSJ19099002</td>\n<td style=\"border: 1px solid black ;\">LFARISASY-90917-111/A0</td>\n<td style=\"border: 1px solid black ;\">636479</td>\n<td style=\"border: 1px solid black ;\">TestSetupFailure: Could not obtain a root login to the dut</td>\n<td style=\"border: 1px solid black ;\">2019-04-09 18:49:17+00</td>\n<td style=\"border: 1px solid black ;\">ess</td>\n<td style=\"border: 1px solid black ;\">CPU CARD</td>\n<td style=\"border: 1px solid black ;\">PASS</td></tr>\n<tr style=\"background-color: #CFCFA3;\"><td style=\"border: 1px solid black ;\">SSJ18512839</td>\n<td style=\"border: 1px solid black ;\">LFARISASY-51810-120/A0</td>\n<td style=\"border: 1px solid black ;\">635157</td>\n<td style=\"border: 1px solid black ;\">/fabriccards/2/testVoltageMargining --verbose True, /fabriccards/2/fvtTest --testFanSpeed True --verbose False</td>\n<td style=\"border: 1px solid black ;\">2019-04-09 18:56:55+00</td>\n<td style=\"border: 1px solid black ;\">fvt</td>\n<td style=\"border: 1px solid black ;\">J9</td>\n<td style=\"border: 1px solid black ;\">FAIL</td></tr>\n<tr style=\"background-color: #FFFFDB;\"><td style=\"border: 1px solid black ;\">SSJ19111345</td>\n<td style=\"border: 1px solid black ;\">LFARISASY-91911-110/A1</td>\n<td style=\"border: 1px solid black ;\">633993</td>\n<td style=\"border: 1px solid black ;\">==================== Exception raised in 'python /usr/bin/mfg --useDb --station fvt --dutType fixed --arss 10.90.216.31 --logDir /log/DCS-7160-48TC6/1911/SSJ19111345/fvt/run-3 --logName /log/DCS-7160-48TC6/1911/SSJ19111345/fvt/run-3.log --testbed dut6 --asy ASY0241810A0 --pca PCA0092910A0 --sn SSJ19111345 --sku DCS-7160-48TC6 --mac 74:83:ef:f6:22:ae --swiName /images/EOS-arcata.swi --deviation  --runId 2542678 ' (PID 8278) ====================</td>\n<td style=\"border: 1px solid black ;\">2019-04-09 19:41:18+00</td>\n<td style=\"border: 1px solid black ;\">fvt</td>\n<td style=\"border: 1px solid black ;\">U3,LOOP BACK</td>\n<td style=\"border: 1px solid black ;\">PASS</td></tr>\n<tr style=\"background-color: #CFCFA3;\"><td style=\"border: 1px solid black ;\">SSJ19070983</td>\n<td style=\"border: 1px solid black ;\">LFARISASY-52787-104/A0</td>\n<td style=\"border: 1px solid black ;\">7885</td>\n<td style=\"border: 1px solid black ;\">/linecards/7/testTraffic -l None -d 300 -s 9208 --allow, /linecards/7/testTraffic -l None -d 90 -s 64 --allow --cells --no-ocb, /linecards/</td>\n<td style=\"border: 1px solid black ;\">2019-04-09 22:00:30+00</td>\n<td style=\"border: 1px solid black ;\">fvt</td>\n<td style=\"border: 1px solid black ;\">J14</td>\n<td style=\"border: 1px solid black ;\">FAIL</td></tr>\n<tr style=\"background-color: #FFFFDB;\"><td style=\"border: 1px solid black ;\">SSJ19121047</td>\n<td style=\"border: 1px solid black ;\">LFARISASY-52756-120/A0</td>\n<td style=\"border: 1px solid black ;\">7885</td>\n<td style=\"border: 1px solid black ;\">FAIL: /linecards/3/portLeds/testCountOffLeds</td>\n<td style=\"border: 1px solid black ;\">2019-04-09 22:41:09+00</td>\n<td style=\"border: 1px solid black ;\">fvt-interactive</td>\n<td style=\"border: 1px solid black ;\">LIGHTPIPE</td>\n<td style=\"border: 1px solid black ;\">FAIL</td></tr>\n<tr style=\"background-color: #CFCFA3;\"><td style=\"border: 1px solid black ;\">SSJ19120610</td>\n<td style=\"border: 1px solid black ;\">LFARISASY-52787-104/A0</td>\n<td style=\"border: 1px solid black ;\">634788</td>\n<td style=\"border: 1px solid black ;\">/linecards/8/testPrbs -l None -d 300 --mode Prbs31 --allow --fabric --continuous</td>\n<td style=\"border: 1px solid black ;\">2019-04-09 22:49:48+00</td>\n<td style=\"border: 1px solid black ;\">ess</td>\n<td style=\"border: 1px solid black ;\">J4</td>\n<td style=\"border: 1px solid black ;\">PASS</td></tr>\n<tr style=\"background-color: #FFFFDB;\"><td style=\"border: 1px solid black ;\">SSJ19090801</td>\n<td style=\"border: 1px solid black ;\">LFARISASY-50048-106/C0</td>\n<td style=\"border: 1px solid black ;\">628696</td>\n<td style=\"border: 1px solid black ;\">/linecards/3/testPrbs -l None --speed 100G -d 30</td>\n<td style=\"border: 1px solid black ;\">2019-04-09 22:53:04+00</td>\n<td style=\"border: 1px solid black ;\">fvt</td>\n<td style=\"border: 1px solid black ;\">J1 AND CONNECTORS</td>\n<td style=\"border: 1px solid black ;\">FAIL</td></tr>\n<tr style=\"background-color: #CFCFA3;\"><td style=\"border: 1px solid black ;\">SSJ18281969</td>\n<td style=\"border: 1px solid black ;\">LFARISASY-91950-104/A0</td>\n<td style=\"border: 1px solid black ;\">637183</td>\n<td style=\"border: 1px solid black ;\">##! COMMAND FAIL: /switchCard/programSwitchCpld</td>\n<td style=\"border: 1px solid black ;\">2019-04-10 01:06:41+00</td>\n<td style=\"border: 1px solid black ;\">fvt-configure</td>\n<td style=\"border: 1px solid black ;\">U38</td>\n<td style=\"border: 1px solid black ;\">FAIL</td></tr>\n<tr style=\"background-color: #FFFFDB;\"><td style=\"border: 1px solid black ;\">SSJ18450133</td>\n<td style=\"border: 1px solid black ;\">LFARISASY-91951-104/A0</td>\n<td style=\"border: 1px solid black ;\">637183</td>\n<td style=\"border: 1px solid black ;\">/cpuCard/powerCycle\r</td>\n<td style=\"border: 1px solid black ;\">2019-04-10 01:13:00+00</td>\n<td style=\"border: 1px solid black ;\">fvt-configure</td>\n<td style=\"border: 1px solid black ;\">U38</td>\n<td style=\"border: 1px solid black ;\">FAIL</td></tr>\n<tr style=\"background-color: #CFCFA3;\"><td style=\"border: 1px solid black ;\">SSJ18432560</td>\n<td style=\"border: 1px solid black ;\">LFARISASY-90920-107/B0</td>\n<td style=\"border: 1px solid black ;\">633956</td>\n<td style=\"border: 1px solid black ;\">/switchCard/trident2/pcieInterface/testAudit, /switchCard/trident2/pcieInterface/testAuditPath, /switchCard/trident2/pcieInterface/testAudi</td>\n<td style=\"border: 1px solid black ;\">2019-04-10 03:01:07+00</td>\n<td style=\"border: 1px solid black ;\">ess</td>\n<td style=\"border: 1px solid black ;\">C139</td>\n<td style=\"border: 1px solid black ;\">PASS</td></tr>\n<tr style=\"background-color: #FFFFDB;\"><td style=\"border: 1px solid black ;\">SSJ19120636</td>\n<td style=\"border: 1px solid black ;\">LFARISASY-52787-104/A0</td>\n<td style=\"border: 1px solid black ;\">637183</td>\n<td style=\"border: 1px solid black ;\">FAIL: /linecards/5/portLeds/testCountOffLeds</td>\n<td style=\"border: 1px solid black ;\">2019-04-10 03:18:12+00</td>\n<td style=\"border: 1px solid black ;\">fvt-interactive</td>\n<td style=\"border: 1px solid black ;\">LIGHTPIPE</td>\n<td style=\"border: 1px solid black ;\">PASS</td></tr>\n<tr style=\"background-color: #CFCFA3;\"><td style=\"border: 1px solid black ;\">SSJ19090763</td>\n<td style=\"border: 1px solid black ;\">LFARISASY-50048-106/C0</td>\n<td style=\"border: 1px solid black ;\">628696</td>\n<td style=\"border: 1px solid black ;\">/linecards/9/initSupAndSwitchcard</td>\n<td style=\"border: 1px solid black ;\">2019-04-10 03:31:31+00</td>\n<td style=\"border: 1px solid black ;\">fvt-configure</td>\n<td style=\"border: 1px solid black ;\">PROGRAM CPLD</td>\n<td style=\"border: 1px solid black ;\">PASS</td></tr>\n<tr style=\"background-color: #FFFFDB;\"><td style=\"border: 1px solid black ;\">SSJ18504448</td>\n<td style=\"border: 1px solid black ;\">LFARISASY-52062-108/B0</td>\n<td style=\"border: 1px solid black ;\">637183</td>\n<td style=\"border: 1px solid black ;\">/fabriccards/4/testPrbs --duration 300 --mode FecAuto --continuous False</td>\n<td style=\"border: 1px solid black ;\">2019-04-10 03:36:10+00</td>\n<td style=\"border: 1px solid black ;\">fvt</td>\n<td style=\"border: 1px solid black ;\">U6</td>\n<td style=\"border: 1px solid black ;\">FAIL</td></tr>\n<tr style=\"background-color: #CFCFA3;\"><td style=\"border: 1px solid black ;\">SSJ19091034</td>\n<td style=\"border: 1px solid black ;\">LFARISASY-50048-106/C0</td>\n<td style=\"border: 1px solid black ;\">628696</td>\n<td style=\"border: 1px solid black ;\">/linecards/7/initSupAndSwitchcard</td>\n<td style=\"border: 1px solid black ;\">2019-04-10 03:48:49+00</td>\n<td style=\"border: 1px solid black ;\">fvt-configure</td>\n<td style=\"border: 1px solid black ;\">PROGRAM CPLD</td>\n<td style=\"border: 1px solid black ;\">PASS</td></tr>\n<tr style=\"background-color: #FFFFDB;\"><td style=\"border: 1px solid black ;\">SSJ19111158</td>\n<td style=\"border: 1px solid black ;\">LFARISASY-91907-110/A0</td>\n<td style=\"border: 1px solid black ;\">633956</td>\n<td style=\"border: 1px solid black ;\">##! COMMAND FAIL: /cpuCard/programDpm</td>\n<td style=\"border: 1px solid black ;\">2019-04-10 04:05:46+00</td>\n<td style=\"border: 1px solid black ;\">fvt-configure</td>\n<td style=\"border: 1px solid black ;\">LOOPBACK50</td>\n<td style=\"border: 1px solid black ;\">PASS</td></tr>\n<tr style=\"background-color: #CFCFA3;\"><td style=\"border: 1px solid black ;\">SSJ19110322</td>\n<td style=\"border: 1px solid black ;\">LFARISASY-50048-106/C0</td>\n<td style=\"border: 1px solid black ;\">628696</td>\n<td style=\"border: 1px solid black ;\">/linecards/2/initSupAndSwitchcard</td>\n<td style=\"border: 1px solid black ;\">2019-04-10 04:11:25+00</td>\n<td style=\"border: 1px solid black ;\">fvt-configure</td>\n<td style=\"border: 1px solid black ;\">REPROGRAM CPLD</td>\n<td style=\"border: 1px solid black ;\">PASS</td></tr>\n<tr style=\"background-color: #FFFFDB;\"><td style=\"border: 1px solid black ;\">SSJ18493241</td>\n<td style=\"border: 1px solid black ;\">LFARISASY-52787-104/A0</td>\n<td style=\"border: 1px solid black ;\">637183</td>\n<td style=\"border: 1px solid black ;\">/linecards/7/testTraffic -l None -d 300 -s 9208 --allow, /linecards/7/testTraffic -l None -d 90 -s 64 --allow --cells --no-ocb, /linecards/</td>\n<td style=\"border: 1px solid black ;\">2019-04-10 04:41:16+00</td>\n<td style=\"border: 1px solid black ;\">ess</td>\n<td style=\"border: 1px solid black ;\">U302</td>\n<td style=\"border: 1px solid black ;\">PASS</td></tr>\n<tr style=\"background-color: #CFCFA3;\"><td style=\"border: 1px solid black ;\">SSJ19120605</td>\n<td style=\"border: 1px solid black ;\">LFARISASY-52787-104/A0</td>\n<td style=\"border: 1px solid black ;\">637183</td>\n<td style=\"border: 1px solid black ;\">/linecards/5/testTraffic -l None -d 300 -s 9208 --allow, /linecards/5/testTraffic -l None -d 90 -s 64 --allow --cells --no-ocb, /linecards/</td>\n<td style=\"border: 1px solid black ;\">2019-04-10 04:44:23+00</td>\n<td style=\"border: 1px solid black ;\">fvt</td>\n<td style=\"border: 1px solid black ;\">U307</td>\n<td style=\"border: 1px solid black ;\">PASS</td></tr>\n<tr style=\"background-color: #FFFFDB;\"><td style=\"border: 1px solid black ;\">SSJ19021236</td>\n<td style=\"border: 1px solid black ;\">LFARISASY-52576-204/B0</td>\n<td style=\"border: 1px solid black ;\">7885</td>\n<td style=\"border: 1px solid black ;\">/linecards/7/testPrbs -l None -d 300 --mode Prbs31 --allow --fabric --belk --sflow, /linecards/7/testTraffic -l None -d 300 -s 9208 --allow</td>\n<td style=\"border: 1px solid black ;\">2019-04-10 13:17:43+00</td>\n<td style=\"border: 1px solid black ;\">fvt</td>\n<td style=\"border: 1px solid black ;\">U302</td>\n<td style=\"border: 1px solid black ;\">FAIL</td></tr>\n<tr style=\"background-color: #CFCFA3;\"><td style=\"border: 1px solid black ;\">SSJ19040084</td>\n<td style=\"border: 1px solid black ;\">LFARISASY-52787-104/A0</td>\n<td style=\"border: 1px solid black ;\">7885</td>\n<td style=\"border: 1px solid black ;\">/linecards/6/testPrbs -l None -d 300 --mode Prbs31 --allow --fabric --continuous, /linecards/6/testTraffic -l None -d 300 -s 9208 --allow,</td>\n<td style=\"border: 1px solid black ;\">2019-04-10 13:24:33+00</td>\n<td style=\"border: 1px solid black ;\">ess</td>\n<td style=\"border: 1px solid black ;\">U318</td>\n<td style=\"border: 1px solid black ;\">PASS</td></tr>\n<tr style=\"background-color: #FFFFDB;\"><td style=\"border: 1px solid black ;\">SSJ18483255</td>\n<td style=\"border: 1px solid black ;\">LFARISASY-52756-120/A0</td>\n<td style=\"border: 1px solid black ;\">7885</td>\n<td style=\"border: 1px solid black ;\">/linecards/5/testFpgaTransceiverSmbus, /linecards/5/detectDramVendor</td>\n<td style=\"border: 1px solid black ;\">2019-04-10 14:50:18+00</td>\n<td style=\"border: 1px solid black ;\">fvt</td>\n<td style=\"border: 1px solid black ;\">R3230</td>\n<td style=\"border: 1px solid black ;\">FAIL</td></tr>\n<tr style=\"background-color: #CFCFA3;\"><td style=\"border: 1px solid black ;\">SSJ19083378</td>\n<td style=\"border: 1px solid black ;\">LFARISASY-91910-110/A1</td>\n<td style=\"border: 1px solid black ;\">634705</td>\n<td style=\"border: 1px solid black ;\">/switchCard/fpgas/0/testRefClkFreq --clks=refClk0,refClk2,refClk3, /switchCard/fpgas/0/testRefClkFreq --clks=refClk4,refClk5</td>\n<td style=\"border: 1px solid black ;\">2019-04-10 14:54:10+00</td>\n<td style=\"border: 1px solid black ;\">fvt</td>\n<td style=\"border: 1px solid black ;\">U3</td>\n<td style=\"border: 1px solid black ;\">PASS</td></tr>\n<tr style=\"background-color: #FFFFDB;\"><td style=\"border: 1px solid black ;\">SSJ19062104</td>\n<td style=\"border: 1px solid black ;\">LFARISASY-51446-111/A0</td>\n<td style=\"border: 1px solid black ;\">633872</td>\n<td style=\"border: 1px solid black ;\">[2019-03-03 20:20:04 UTC] ##! INVALID SETUP: Reported by test /fabriccards/6/testEjectorClosed ==> Card ejector open. Please close ejector.</td>\n<td style=\"border: 1px solid black ;\">2019-04-10 16:17:21+00</td>\n<td style=\"border: 1px solid black ;\">fvt</td>\n<td style=\"border: 1px solid black ;\">EJECTOR CHASSIS</td>\n<td style=\"border: 1px solid black ;\">PASS</td></tr>\n<tr style=\"background-color: #CFCFA3;\"><td style=\"border: 1px solid black ;\">SSJ19094070</td>\n<td style=\"border: 1px solid black ;\">LFARISASY-53929-111/D0</td>\n<td style=\"border: 1px solid black ;\">633993</td>\n<td style=\"border: 1px solid black ;\">//testPrbs -l Phy -d 120</td>\n<td style=\"border: 1px solid black ;\">2019-04-10 16:40:26+00</td>\n<td style=\"border: 1px solid black ;\">ess</td>\n<td style=\"border: 1px solid black ;\">THERMAL COMPOUND</td>\n<td style=\"border: 1px solid black ;\">PASS</td></tr>\n<tr style=\"background-color: #FFFFDB;\"><td style=\"border: 1px solid black ;\">SSJ19062210</td>\n<td style=\"border: 1px solid black ;\">LFARISASY-51446-111/A0</td>\n<td style=\"border: 1px solid black ;\">633872</td>\n<td style=\"border: 1px solid black ;\">/fabriccards/1/verifyVoltage --margin low, /fabriccards/1/dpms/0/verifyVoltage --rail None --margin low</td>\n<td style=\"border: 1px solid black ;\">2019-04-10 17:35:01+00</td>\n<td style=\"border: 1px solid black ;\">fvt</td>\n<td style=\"border: 1px solid black ;\">R651</td>\n<td style=\"border: 1px solid black ;\">PASS</td></tr>\n<tr style=\"background-color: #CFCFA3;\"><td style=\"border: 1px solid black ;\">SSJ19094089</td>\n<td style=\"border: 1px solid black ;\">LFARISASY-53929-111/D0</td>\n<td style=\"border: 1px solid black ;\">633993</td>\n<td style=\"border: 1px solid black ;\">//testPrbs -l Phy -d 120</td>\n<td style=\"border: 1px solid black ;\">2019-04-10 19:07:13+00</td>\n<td style=\"border: 1px solid black ;\">burnin</td>\n<td style=\"border: 1px solid black ;\">NA</td>\n<td style=\"border: 1px solid black ;\">FAIL</td></tr>\n<tr style=\"background-color: #FFFFDB;\"><td style=\"border: 1px solid black ;\">SSJ19094004</td>\n<td style=\"border: 1px solid black ;\">LFARISASY-53929-111/D0</td>\n<td style=\"border: 1px solid black ;\">633993</td>\n<td style=\"border: 1px solid black ;\">/switchcard/scd/testFancardStatus, /fanChassis/3/fans/1/testFanSpeed</td>\n<td style=\"border: 1px solid black ;\">2019-04-10 19:36:02+00</td>\n<td style=\"border: 1px solid black ;\">ess</td>\n<td style=\"border: 1px solid black ;\">J4</td>\n<td style=\"border: 1px solid black ;\">PASS</td></tr>\n<tr style=\"background-color: #CFCFA3;\"><td style=\"border: 1px solid black ;\">SSJ19101593</td>\n<td style=\"border: 1px solid black ;\">LFARISASY-51446-111/A0</td>\n<td style=\"border: 1px solid black ;\">633872</td>\n<td style=\"border: 1px solid black ;\">/fabriccards/3/verifyVoltage --margin low, /fabriccards/3/dpms/0/verifyVoltage --rail None --margin low</td>\n<td style=\"border: 1px solid black ;\">2019-04-10 19:39:54+00</td>\n<td style=\"border: 1px solid black ;\">fvt</td>\n<td style=\"border: 1px solid black ;\">R651</td>\n<td style=\"border: 1px solid black ;\">PASS</td></tr>\n<tr style=\"background-color: #FFFFDB;\"><td style=\"border: 1px solid black ;\">SSJ19032255</td>\n<td style=\"border: 1px solid black ;\">LFARISASY-52787-104/A0</td>\n<td style=\"border: 1px solid black ;\">7885</td>\n<td style=\"border: 1px solid black ;\">/linecards/3/testFpgaTransceiverSmbus</td>\n<td style=\"border: 1px solid black ;\">2019-04-10 20:26:22+00</td>\n<td style=\"border: 1px solid black ;\">fvt</td>\n<td style=\"border: 1px solid black ;\">R2551</td>\n<td style=\"border: 1px solid black ;\">PASS</td></tr>\n<tr style=\"background-color: #CFCFA3;\"><td style=\"border: 1px solid black ;\">SSJ19083368</td>\n<td style=\"border: 1px solid black ;\">LFARISASY-91911-110/A1</td>\n<td style=\"border: 1px solid black ;\">633993</td>\n<td style=\"border: 1px solid black ;\">/switchCard/testPrbs -l None -r 25GBase -d 120 --allow-mix-speeds</td>\n<td style=\"border: 1px solid black ;\">2019-04-10 20:27:30+00</td>\n<td style=\"border: 1px solid black ;\">burnin</td>\n<td style=\"border: 1px solid black ;\">J15</td>\n<td style=\"border: 1px solid black ;\">FAIL</td></tr>\n<tr style=\"background-color: #FFFFDB;\"><td style=\"border: 1px solid black ;\">SSJ19054598</td>\n<td style=\"border: 1px solid black ;\">LFARISASY-90528-108/B0</td>\n<td style=\"border: 1px solid black ;\">627542</td>\n<td style=\"border: 1px solid black ;\">PANIC: Unable to get into aboot mode. This could mean an unprogrammed Boot flash, a bad processor or memory, or a power problem</td>\n<td style=\"border: 1px solid black ;\">2019-04-10 21:51:20+00</td>\n<td style=\"border: 1px solid black ;\">fvt-configure</td>\n<td style=\"border: 1px solid black ;\">REPROGRAM DPM</td>\n<td style=\"border: 1px solid black ;\">PASS</td></tr>\n<tr style=\"background-color: #CFCFA3;\"><td style=\"border: 1px solid black ;\">SSJ19110997</td>\n<td style=\"border: 1px solid black ;\">LFARISASY-90528-108/B0</td>\n<td style=\"border: 1px solid black ;\">627542</td>\n<td style=\"border: 1px solid black ;\">/switchCard/alta0/testTraffic --fpp-cr=1-64 -s 161 --loopback external -n 10 -d 240 --dma</td>\n<td style=\"border: 1px solid black ;\">2019-04-10 22:02:58+00</td>\n<td style=\"border: 1px solid black ;\">burnin</td>\n<td style=\"border: 1px solid black ;\">RESEAT HEATSINK</td>\n<td style=\"border: 1px solid black ;\">PASS</td></tr>\n<tr style=\"background-color: #FFFFDB;\"><td style=\"border: 1px solid black ;\">SSJ19120656</td>\n<td style=\"border: 1px solid black ;\">LFARISASY-52787-104/A0</td>\n<td style=\"border: 1px solid black ;\">637183</td>\n<td style=\"border: 1px solid black ;\">/linecards/6/testPrbs -l None -d 300 --mode Prbs31 --allow --fabric</td>\n<td style=\"border: 1px solid black ;\">2019-04-10 22:03:24+00</td>\n<td style=\"border: 1px solid black ;\">fvt</td>\n<td style=\"border: 1px solid black ;\">U118</td>\n<td style=\"border: 1px solid black ;\">FAIL</td></tr>\n<tr style=\"background-color: #CFCFA3;\"><td style=\"border: 1px solid black ;\">SSJ19080037</td>\n<td style=\"border: 1px solid black ;\">LFARISASY-50048-106/C0</td>\n<td style=\"border: 1px solid black ;\">628696</td>\n<td style=\"border: 1px solid black ;\">/linecards/3/testPrbs -l None -d 30</td>\n<td style=\"border: 1px solid black ;\">2019-04-10 22:38:16+00</td>\n<td style=\"border: 1px solid black ;\">fvt</td>\n<td style=\"border: 1px solid black ;\">CLEAN CONNECTORS</td>\n<td style=\"border: 1px solid black ;\">FAIL</td></tr>\n<tr style=\"background-color: #FFFFDB;\"><td style=\"border: 1px solid black ;\">SSJ18483121</td>\n<td style=\"border: 1px solid black ;\">LFARISASY-52756-120/A0</td>\n<td style=\"border: 1px solid black ;\">636874</td>\n<td style=\"border: 1px solid black ;\">/linecards/9/programPols -f /usr/share/DosFirmwareImages/MtQuadrant01-pol0.powerchl --pols 0</td>\n<td style=\"border: 1px solid black ;\">2019-04-10 22:44:00+00</td>\n<td style=\"border: 1px solid black ;\">fvt-configure</td>\n<td style=\"border: 1px solid black ;\">U185</td>\n<td style=\"border: 1px solid black ;\">PASS</td></tr>\n<tr style=\"background-color: #CFCFA3;\"><td style=\"border: 1px solid black ;\">SSJ19111203</td>\n<td style=\"border: 1px solid black ;\">LFARISASY-91907-110/A0</td>\n<td style=\"border: 1px solid black ;\">633956</td>\n<td style=\"border: 1px solid black ;\">##! INVALID SETUP: Reported by command //verifyTestSetup ==> Front panel USB stick is not present</td>\n<td style=\"border: 1px solid black ;\">2019-04-10 22:56:36+00</td>\n<td style=\"border: 1px solid black ;\">fvt</td>\n<td style=\"border: 1px solid black ;\">862-CARD</td>\n<td style=\"border: 1px solid black ;\">PASS</td></tr>\n<tr style=\"background-color: #FFFFDB;\"><td style=\"border: 1px solid black ;\">SSJ19090992</td>\n<td style=\"border: 1px solid black ;\">LFARISASY-50048-106/C0</td>\n<td style=\"border: 1px solid black ;\">628696</td>\n<td style=\"border: 1px solid black ;\">/linecards/5/testPrbs -l None -d 30</td>\n<td style=\"border: 1px solid black ;\">2019-04-10 23:01:14+00</td>\n<td style=\"border: 1px solid black ;\">burnin</td>\n<td style=\"border: 1px solid black ;\">HEAT SINKS</td>\n<td style=\"border: 1px solid black ;\">FAIL</td></tr>\n<tr style=\"background-color: #CFCFA3;\"><td style=\"border: 1px solid black ;\">SSJ19110981</td>\n<td style=\"border: 1px solid black ;\">LFARISASY-90528-108/B0</td>\n<td style=\"border: 1px solid black ;\">627542</td>\n<td style=\"border: 1px solid black ;\">/switchCard/alta0/testTraffic --fpp-cr=1-64 -s 161 --loopback external -n 10 -d 45 --dma</td>\n<td style=\"border: 1px solid black ;\">2019-04-10 23:59:40+00</td>\n<td style=\"border: 1px solid black ;\">ess</td>\n<td style=\"border: 1px solid black ;\">RESEAT HEATSINK</td>\n<td style=\"border: 1px solid black ;\">PASS</td></tr>\n<tr style=\"background-color: #FFFFDB;\"><td style=\"border: 1px solid black ;\">SSJ19091116</td>\n<td style=\"border: 1px solid black ;\">LFARISASY-50048-106/C0</td>\n<td style=\"border: 1px solid black ;\">628696</td>\n<td style=\"border: 1px solid black ;\">/linecards/3/testTraffic -l None -s 512 -n 30 -d 60</td>\n<td style=\"border: 1px solid black ;\">2019-04-11 00:11:11+00</td>\n<td style=\"border: 1px solid black ;\">fvt</td>\n<td style=\"border: 1px solid black ;\">CLEAN  CONNECTORS</td>\n<td style=\"border: 1px solid black ;\">FAIL</td></tr>\n<tr style=\"background-color: #CFCFA3;\"><td style=\"border: 1px solid black ;\">SSJ19082473</td>\n<td style=\"border: 1px solid black ;\">LFARISASY-52787-104/A0</td>\n<td style=\"border: 1px solid black ;\">637183</td>\n<td style=\"border: 1px solid black ;\">/linecards/8/testPrbs -l None -d 300 --mode Prbs31 --allow --fabric, /linecards/8/testTraffic -l None -d 300 -s 9208 --allow, /linecards/8/</td>\n<td style=\"border: 1px solid black ;\">2019-04-11 00:45:38+00</td>\n<td style=\"border: 1px solid black ;\">fvt</td>\n<td style=\"border: 1px solid black ;\">U304</td>\n<td style=\"border: 1px solid black ;\">PASS</td></tr>\n<tr style=\"background-color: #FFFFDB;\"><td style=\"border: 1px solid black ;\">SSJ19040043</td>\n<td style=\"border: 1px solid black ;\">LFARISASY-52787-104/A0</td>\n<td style=\"border: 1px solid black ;\">637183</td>\n<td style=\"border: 1px solid black ;\">/linecards/3/testPrbs -l None -d 300 --mode Prbs31 --allow --fabric --continuous, /linecards/3/testTraffic -l None -d 300 -s 9208 --allow,</td>\n<td style=\"border: 1px solid black ;\">2019-04-11 00:46:16+00</td>\n<td style=\"border: 1px solid black ;\">ess</td>\n<td style=\"border: 1px solid black ;\">U314</td>\n<td style=\"border: 1px solid black ;\">PASS</td></tr>\n<tr style=\"background-color: #CFCFA3;\"><td style=\"border: 1px solid black ;\">SSJ19060575</td>\n<td style=\"border: 1px solid black ;\">LFARISASY-72002-106/A0</td>\n<td style=\"border: 1px solid black ;\">627542</td>\n<td style=\"border: 1px solid black ;\">waiting for dut rdam://dut25 (10.99.99.125) to respond to a ping ............................................TestSetupFailure: Could not bring up the management interface. Check that it is properly wired and that the link is up.</td>\n<td style=\"border: 1px solid black ;\">2019-04-11 00:51:56+00</td>\n<td style=\"border: 1px solid black ;\">fvt-configure</td>\n<td style=\"border: 1px solid black ;\">RESOLDER J3,RESOLDER J3</td>\n<td style=\"border: 1px solid black ;\">PASS</td></tr>\n<tr style=\"background-color: #FFFFDB;\"><td style=\"border: 1px solid black ;\">SSJ19041180</td>\n<td style=\"border: 1px solid black ;\">LFARISASY-90528-108/B0</td>\n<td style=\"border: 1px solid black ;\">627542</td>\n<td style=\"border: 1px solid black ;\">FAIL: //testInteractive</td>\n<td style=\"border: 1px solid black ;\">2019-04-11 03:23:47+00</td>\n<td style=\"border: 1px solid black ;\">fvt-interactive</td>\n<td style=\"border: 1px solid black ;\">RESEAT LIGHTPIPE</td>\n<td style=\"border: 1px solid black ;\">PASS</td></tr>\n<tr style=\"background-color: #CFCFA3;\"><td style=\"border: 1px solid black ;\">SSJ19082939</td>\n<td style=\"border: 1px solid black ;\">LFARISASY-50048-106/C0</td>\n<td style=\"border: 1px solid black ;\">628696</td>\n<td style=\"border: 1px solid black ;\">/linecards/2/testPrbs -l None -d 30</td>\n<td style=\"border: 1px solid black ;\">2019-04-11 04:02:49+00</td>\n<td style=\"border: 1px solid black ;\">burnin</td>\n<td style=\"border: 1px solid black ;\">HEAT SINKS</td>\n<td style=\"border: 1px solid black ;\">FAIL</td></tr>\n<tr style=\"background-color: #FFFFDB;\"><td style=\"border: 1px solid black ;\">SSJ19111228</td>\n<td style=\"border: 1px solid black ;\">LFARISASY-91907-110/A0</td>\n<td style=\"border: 1px solid black ;\">633956</td>\n<td style=\"border: 1px solid black ;\">TestSetupFailure: Powering up the board for the first time failed. Unable to connect. Check console/power connections as well as console connector card. If these are good, check CPU/memory.</td>\n<td style=\"border: 1px solid black ;\">2019-04-11 04:51:11+00</td>\n<td style=\"border: 1px solid black ;\">fvt-configure</td>\n<td style=\"border: 1px solid black ;\">USB CONNECTOR</td>\n<td style=\"border: 1px solid black ;\">FAIL</td></tr>\n<tr style=\"background-color: #CFCFA3;\"><td style=\"border: 1px solid black ;\">SSJ19080938</td>\n<td style=\"border: 1px solid black ;\">LFARISASY-90926-106/B0</td>\n<td style=\"border: 1px solid black ;\">633956</td>\n<td style=\"border: 1px solid black ;\">//init2</td>\n<td style=\"border: 1px solid black ;\">2019-04-11 04:54:48+00</td>\n<td style=\"border: 1px solid black ;\">burnin</td>\n<td style=\"border: 1px solid black ;\">U38</td>\n<td style=\"border: 1px solid black ;\">FAIL</td></tr>\n<tr style=\"background-color: #FFFFDB;\"><td style=\"border: 1px solid black ;\">SSJ18363667</td>\n<td style=\"border: 1px solid black ;\">LFARISASY-91923-110/A0</td>\n<td style=\"border: 1px solid black ;\">637183</td>\n<td style=\"border: 1px solid black ;\">##! COMMAND FAIL: /switchCard/programPld</td>\n<td style=\"border: 1px solid black ;\">2019-04-11 05:19:12+00</td>\n<td style=\"border: 1px solid black ;\">fvt-configure</td>\n<td style=\"border: 1px solid black ;\">U60,U61,U62</td>\n<td style=\"border: 1px solid black ;\">FAIL</td></tr>\n<tr style=\"background-color: #CFCFA3;\"><td style=\"border: 1px solid black ;\">SSJ19111171</td>\n<td style=\"border: 1px solid black ;\">LFARISASY-91907-110/A0</td>\n<td style=\"border: 1px solid black ;\">634705</td>\n<td style=\"border: 1px solid black ;\">PANIC: Timed out running '/mnt/usb1/SetupDiagDisk  --test --force --device=/dev/mmcblk0 --iterations 2 --no-formatting /mnt/usb1/EOS.swi '. Output was:</td>\n<td style=\"border: 1px solid black ;\">2019-04-11 13:57:43+00</td>\n<td style=\"border: 1px solid black ;\">fvt-configure</td>\n<td style=\"border: 1px solid black ;\">D16</td>\n<td style=\"border: 1px solid black ;\">PASS</td></tr>\n<tr style=\"background-color: #FFFFDB;\"><td style=\"border: 1px solid black ;\">SSJ18382547</td>\n<td style=\"border: 1px solid black ;\">LFARISASY-52787-104/A0</td>\n<td style=\"border: 1px solid black ;\">632861</td>\n<td style=\"border: 1px solid black ;\">/linecards/7/testFpgaTransceiverSmbus, /linecards/7/testPrbs -l None -d 300 --mode Prbs31 --allow --fabric, /linecards/7/testTraffic -l Phy</td>\n<td style=\"border: 1px solid black ;\">2019-04-11 14:28:10+00</td>\n<td style=\"border: 1px solid black ;\">fvt</td>\n<td style=\"border: 1px solid black ;\">L245</td>\n<td style=\"border: 1px solid black ;\">FAIL</td></tr>\n<tr style=\"background-color: #CFCFA3;\"><td style=\"border: 1px solid black ;\">SSJ18209091</td>\n<td style=\"border: 1px solid black ;\">LFARISASY-90941-101/B0R</td>\n<td style=\"border: 1px solid black ;\">636479</td>\n<td style=\"border: 1px solid black ;\">waiting for dut rdam://dut1(10.99.99.101) to respond to a ping ...........waiting for dut rdam://dut1(10.99.99.101) to respond to a ping ...........waiting for dut rdam://dut1(10.99.99.101) to respond to a ping ...........TestSetupFailure: Could not bring up the management interface of rdam://dut1 . Check that the cable is properly connected.</td>\n<td style=\"border: 1px solid black ;\">2019-04-11 16:14:15+00</td>\n<td style=\"border: 1px solid black ;\">fvt-configure</td>\n<td style=\"border: 1px solid black ;\">CPU CARD</td>\n<td style=\"border: 1px solid black ;\">PASS</td></tr>\n<tr style=\"background-color: #FFFFDB;\"><td style=\"border: 1px solid black ;\">SSJ19101563</td>\n<td style=\"border: 1px solid black ;\">LFARISASY-51446-111/A0</td>\n<td style=\"border: 1px solid black ;\">633872</td>\n<td style=\"border: 1px solid black ;\">/fabriccards/5/testPrbs --duration 300 --continuous False</td>\n<td style=\"border: 1px solid black ;\">2019-04-11 16:17:24+00</td>\n<td style=\"border: 1px solid black ;\">fvt</td>\n<td style=\"border: 1px solid black ;\">J7,J4</td>\n<td style=\"border: 1px solid black ;\">FAIL</td></tr>\n<tr style=\"background-color: #CFCFA3;\"><td style=\"border: 1px solid black ;\">SSJ19062019</td>\n<td style=\"border: 1px solid black ;\">LFARISASY-51446-111/A0</td>\n<td style=\"border: 1px solid black ;\">633872</td>\n<td style=\"border: 1px solid black ;\">/fabriccards/2/testPrbs --duration 300 --continuous False</td>\n<td style=\"border: 1px solid black ;\">2019-04-11 16:23:18+00</td>\n<td style=\"border: 1px solid black ;\">fvt</td>\n<td style=\"border: 1px solid black ;\">J4</td>\n<td style=\"border: 1px solid black ;\">FAIL</td></tr>\n<tr style=\"background-color: #FFFFDB;\"><td style=\"border: 1px solid black ;\">SSJ19112806</td>\n<td style=\"border: 1px solid black ;\">LFARISASY-51446-111/A0</td>\n<td style=\"border: 1px solid black ;\">633872</td>\n<td style=\"border: 1px solid black ;\">/fabriccards/3/testPrbs --duration 300 --continuous False</td>\n<td style=\"border: 1px solid black ;\">2019-04-11 16:37:45+00</td>\n<td style=\"border: 1px solid black ;\">fvt</td>\n<td style=\"border: 1px solid black ;\">J3</td>\n<td style=\"border: 1px solid black ;\">FAIL</td></tr>\n<tr style=\"background-color: #CFCFA3;\"><td style=\"border: 1px solid black ;\">SSJ19113037</td>\n<td style=\"border: 1px solid black ;\">LFARISASY-51446-111/A0</td>\n<td style=\"border: 1px solid black ;\">633872</td>\n<td style=\"border: 1px solid black ;\">/fabriccards/5/init2</td>\n<td style=\"border: 1px solid black ;\">2019-04-11 17:21:27+00</td>\n<td style=\"border: 1px solid black ;\">fvt-configure</td>\n<td style=\"border: 1px solid black ;\">C1767</td>\n<td style=\"border: 1px solid black ;\">PASS</td></tr>\n<tr style=\"background-color: #FFFFDB;\"><td style=\"border: 1px solid black ;\">SSJ19083399</td>\n<td style=\"border: 1px solid black ;\">LFARISASY-91910-110/A1</td>\n<td style=\"border: 1px solid black ;\">634705</td>\n<td style=\"border: 1px solid black ;\">/switchCard/fpgas/0/testRefClkFreq --clks=refClk0,refClk2,refClk3</td>\n<td style=\"border: 1px solid black ;\">2019-04-11 18:12:28+00</td>\n<td style=\"border: 1px solid black ;\">fvt</td>\n<td style=\"border: 1px solid black ;\">U3</td>\n<td style=\"border: 1px solid black ;\">FAIL</td></tr>\n<tr style=\"background-color: #CFCFA3;\"><td style=\"border: 1px solid black ;\">SSJ18493375</td>\n<td style=\"border: 1px solid black ;\">LFARISASY-91907-110/A0</td>\n<td style=\"border: 1px solid black ;\">634705</td>\n<td style=\"border: 1px solid black ;\">##! COMMAND FAIL: /cpuCard/programDpm</td>\n<td style=\"border: 1px solid black ;\">2019-04-11 18:41:50+00</td>\n<td style=\"border: 1px solid black ;\">fvt-configure</td>\n<td style=\"border: 1px solid black ;\">C2121</td>\n<td style=\"border: 1px solid black ;\">FAIL</td></tr>\n<tr style=\"background-color: #FFFFDB;\"><td style=\"border: 1px solid black ;\">SSJ18490334</td>\n<td style=\"border: 1px solid black ;\">LFARISASY-53929-111/B0</td>\n<td style=\"border: 1px solid black ;\">633993</td>\n<td style=\"border: 1px solid black ;\">//testTraffic -l Phy -s 9216 -n 3 -d 120</td>\n<td style=\"border: 1px solid black ;\">2019-04-11 19:39:24+00</td>\n<td style=\"border: 1px solid black ;\">burnin</td>\n<td style=\"border: 1px solid black ;\">THERMAL COMPOUND</td>\n<td style=\"border: 1px solid black ;\">FAIL</td></tr>\n<tr style=\"background-color: #CFCFA3;\"><td style=\"border: 1px solid black ;\">SSJ19111502</td>\n<td style=\"border: 1px solid black ;\">LFARISASY-53083-101/A0</td>\n<td style=\"border: 1px solid black ;\">635157</td>\n<td style=\"border: 1px solid black ;\">2019-04-10 02:45:26 [TestbedDriver] TEST SETUP ERROR: Attempt to mix workspaces on chassis19-card-fabric4</td>\n<td style=\"border: 1px solid black ;\">2019-04-11 20:21:41+00</td>\n<td style=\"border: 1px solid black ;\">ess</td>\n<td style=\"border: 1px solid black ;\">HEATSINK</td>\n<td style=\"border: 1px solid black ;\">PASS</td></tr>\n<tr style=\"background-color: #FFFFDB;\"><td style=\"border: 1px solid black ;\">SSJ19040344</td>\n<td style=\"border: 1px solid black ;\">LFARISASY-91906-103/E0</td>\n<td style=\"border: 1px solid black ;\">634705</td>\n<td style=\"border: 1px solid black ;\">TestSetupFailure: Could not find the usb key. Is it inserted?</td>\n<td style=\"border: 1px solid black ;\">2019-04-11 20:58:26+00</td>\n<td style=\"border: 1px solid black ;\">fvt-configure</td>\n<td style=\"border: 1px solid black ;\">U31</td>\n<td style=\"border: 1px solid black ;\">PASS</td></tr>\n<tr style=\"background-color: #CFCFA3;\"><td style=\"border: 1px solid black ;\">SSJ19110965</td>\n<td style=\"border: 1px solid black ;\">LFARISASY-90528-108/B0</td>\n<td style=\"border: 1px solid black ;\">627542</td>\n<td style=\"border: 1px solid black ;\">/switchCard/alta0/testTraffic --fpp-cr=1-64 -s 161 --loopback external -n 10 -d 45 --dma</td>\n<td style=\"border: 1px solid black ;\">2019-04-11 21:56:07+00</td>\n<td style=\"border: 1px solid black ;\">ess</td>\n<td style=\"border: 1px solid black ;\">RESEAT HEATSINK</td>\n<td style=\"border: 1px solid black ;\">PASS</td></tr>\n<tr style=\"background-color: #FFFFDB;\"><td style=\"border: 1px solid black ;\">SSJ18453000</td>\n<td style=\"border: 1px solid black ;\">LFARISASY-71673-106/A0</td>\n<td style=\"border: 1px solid black ;\">633956</td>\n<td style=\"border: 1px solid black ;\">TestSetupFailure: Failed to get root login to the dut due to timeout. Details: Timeout (600 seconds) trying to discover the current mode but got no output</td>\n<td style=\"border: 1px solid black ;\">2019-04-11 22:51:51+00</td>\n<td style=\"border: 1px solid black ;\">ess</td>\n<td style=\"border: 1px solid black ;\">CPUCARD</td>\n<td style=\"border: 1px solid black ;\">PASS</td></tr>\n<tr style=\"background-color: #CFCFA3;\"><td style=\"border: 1px solid black ;\">SSJ19040008</td>\n<td style=\"border: 1px solid black ;\">LFARISASY-52787-104/A0</td>\n<td style=\"border: 1px solid black ;\">637183</td>\n<td style=\"border: 1px solid black ;\">/linecards/3/testPrbs -l None -d 300 --mode Prbs31 --allow --fabric --continuous, /linecards/3/testTraffic -l None -d 300 -s 9208 --allow,</td>\n<td style=\"border: 1px solid black ;\">2019-04-11 22:54:16+00</td>\n<td style=\"border: 1px solid black ;\">ess</td>\n<td style=\"border: 1px solid black ;\">U319</td>\n<td style=\"border: 1px solid black ;\">FAIL</td></tr>\n<tr style=\"background-color: #FFFFDB;\"><td style=\"border: 1px solid black ;\">SSJ18423665</td>\n<td style=\"border: 1px solid black ;\">LFARISASY-91923-110/A0</td>\n<td style=\"border: 1px solid black ;\">637183</td>\n<td style=\"border: 1px solid black ;\">/switchCard/fpgas/0/testRefClkFreq --clks=clk1,clk2,clk3,clk4</td>\n<td style=\"border: 1px solid black ;\">2019-04-11 23:27:41+00</td>\n<td style=\"border: 1px solid black ;\">fvt</td>\n<td style=\"border: 1px solid black ;\">PCA-00985-06 B0</td>\n<td style=\"border: 1px solid black ;\">PASS</td></tr>\n<tr style=\"background-color: #CFCFA3;\"><td style=\"border: 1px solid black ;\">SSJ19060585</td>\n<td style=\"border: 1px solid black ;\">LFARISASY-91990-105/A1</td>\n<td style=\"border: 1px solid black ;\">627542</td>\n<td style=\"border: 1px solid black ;\">==================== Exception raised in 'python /usr/bin/mfg --useDb --station fvt --dutType fixed --arss 10.90.216.34 --logDir /log/DCS-7170-32C/1906/SSJ19060585/fvt/run-2 --logName /log/DCS-7170-32C/1906/SSJ19060585/fvt/run-2.log --testbed dut26 --asy ASY0317505A1 --pca PCA0111603A0 --sn SSJ19060585 --sku DCS-7170-32C --mac 74:83:ef:c9:94:e0 --swiName /images/EOS-mineral.swi --deviation  --runId 2462682 ' (PID 32766) ====================</td>\n<td style=\"border: 1px solid black ;\">2019-04-11 23:56:58+00</td>\n<td style=\"border: 1px solid black ;\">fvt</td>\n<td style=\"border: 1px solid black ;\">RESOLDER J3</td>\n<td style=\"border: 1px solid black ;\">PASS</td></tr>\n<tr style=\"background-color: #FFFFDB;\"><td style=\"border: 1px solid black ;\">SSJ18512100</td>\n<td style=\"border: 1px solid black ;\">LFARISASY-52787-104/A0</td>\n<td style=\"border: 1px solid black ;\">637183</td>\n<td style=\"border: 1px solid black ;\">/linecards/7/testTraffic -l None -d 300 -s 9208 --allow, /linecards/7/testTraffic -l None -d 90 -s 64 --allow --cells --no-ocb, /linecards/</td>\n<td style=\"border: 1px solid black ;\">2019-04-12 00:23:17+00</td>\n<td style=\"border: 1px solid black ;\">ess</td>\n<td style=\"border: 1px solid black ;\">U318</td>\n<td style=\"border: 1px solid black ;\">FAIL</td></tr>\n<tr style=\"background-color: #CFCFA3;\"><td style=\"border: 1px solid black ;\">SSJ19111228</td>\n<td style=\"border: 1px solid black ;\">LFARISASY-91907-110/A0</td>\n<td style=\"border: 1px solid black ;\">633956</td>\n<td style=\"border: 1px solid black ;\">FAIL:             GPI Fault                  0\t0:08:49.577000</td>\n<td style=\"border: 1px solid black ;\">2019-04-12 00:33:44+00</td>\n<td style=\"border: 1px solid black ;\">fvt-interactive</td>\n<td style=\"border: 1px solid black ;\">LED 57</td>\n<td style=\"border: 1px solid black ;\">PASS</td></tr>\n<tr style=\"background-color: #FFFFDB;\"><td style=\"border: 1px solid black ;\">SSJ19081924</td>\n<td style=\"border: 1px solid black ;\">LFARISASY-92018-103/A0</td>\n<td style=\"border: 1px solid black ;\">627542</td>\n<td style=\"border: 1px solid black ;\">==================== Exception raised in 'python /usr/bin/mfg --useDb --station fvt --dutType fixed --arss 10.90.216.33 --logDir /log/DCS-7170-32CD/1908/SSJ19081924/fvt/run-2 --logName /log/DCS-7170-32CD/1908/SSJ19081924/fvt/run-2.log --testbed dut9 --asy ASY0356603A0 --pca PCA0123502A0 --sn SSJ19081924 --sku DCS-7170-32CD --mac 74:83:ef:c9:c2:90 --swiName /images/EOS-mineral.swi --deviation  --runId 2487193 ' (PID 25707) ====================</td>\n<td style=\"border: 1px solid black ;\">2019-04-12 02:06:05+00</td>\n<td style=\"border: 1px solid black ;\">fvt</td>\n<td style=\"border: 1px solid black ;\">REPLACED J3</td>\n<td style=\"border: 1px solid black ;\">PASS</td></tr>\n<tr style=\"background-color: #CFCFA3;\"><td style=\"border: 1px solid black ;\">SSJ19110985</td>\n<td style=\"border: 1px solid black ;\">LFARISASY-90528-108/B0</td>\n<td style=\"border: 1px solid black ;\">627542</td>\n<td style=\"border: 1px solid black ;\">/switchCard/alta0/testTraffic --fpp-cr=1-64 -s 64 --loopback external -n 128 -d 45 -f, /switchCard/alta0/testTraffic --fpp-cr=1-64 -s 161 -</td>\n<td style=\"border: 1px solid black ;\">2019-04-12 02:52:30+00</td>\n<td style=\"border: 1px solid black ;\">ess</td>\n<td style=\"border: 1px solid black ;\">REPLACED J16</td>\n<td style=\"border: 1px solid black ;\">FAIL</td></tr>\n<tr style=\"background-color: #FFFFDB;\"><td style=\"border: 1px solid black ;\">SSJ19030503</td>\n<td style=\"border: 1px solid black ;\">LFARISASY-52787-104/A0</td>\n<td style=\"border: 1px solid black ;\">637183</td>\n<td style=\"border: 1px solid black ;\">/linecards/9/testPrbs -l None -d 300 --mode Prbs31 --allow --fabric --continuous</td>\n<td style=\"border: 1px solid black ;\">2019-04-12 03:46:26+00</td>\n<td style=\"border: 1px solid black ;\">ess</td>\n<td style=\"border: 1px solid black ;\">U114</td>\n<td style=\"border: 1px solid black ;\">FAIL</td></tr>\n<tr style=\"background-color: #CFCFA3;\"><td style=\"border: 1px solid black ;\">SSJ19091234</td>\n<td style=\"border: 1px solid black ;\">LFARISASY-91906-103/E0</td>\n<td style=\"border: 1px solid black ;\">633956</td>\n<td style=\"border: 1px solid black ;\">/switchCard/switchChip/pcieInterface/testAudit</td>\n<td style=\"border: 1px solid black ;\">2019-04-12 05:05:38+00</td>\n<td style=\"border: 1px solid black ;\">burnin</td>\n<td style=\"border: 1px solid black ;\">MAGPIE</td>\n<td style=\"border: 1px solid black ;\">PASS</td></tr>\n<tr style=\"background-color: #FFFFDB;\"><td style=\"border: 1px solid black ;\">SSJ19120526</td>\n<td style=\"border: 1px solid black ;\">LFARISASY-52787-104/A0</td>\n<td style=\"border: 1px solid black ;\">637183</td>\n<td style=\"border: 1px solid black ;\">/linecards/3/testTraffic -l None -d 300 -s 9208 --allow, /linecards/3/testTraffic -l None -d 90 -s 64 --allow --cells --no-ocb, /linecards/</td>\n<td style=\"border: 1px solid black ;\">2019-04-12 05:41:08+00</td>\n<td style=\"border: 1px solid black ;\">fvt</td>\n<td style=\"border: 1px solid black ;\">U316</td>\n<td style=\"border: 1px solid black ;\">PASS</td></tr>\n<tr style=\"background-color: #CFCFA3;\"><td style=\"border: 1px solid black ;\">SSJ19070983</td>\n<td style=\"border: 1px solid black ;\">LFARISASY-52787-104/A0</td>\n<td style=\"border: 1px solid black ;\">637183</td>\n<td style=\"border: 1px solid black ;\">/linecards/8/testFpgaTransceiverSmbus, /linecards/8/testTraffic -l None -d 300 -s 9208 --allow, /linecards/8/testTraffic -l None -d 90 -s 6</td>\n<td style=\"border: 1px solid black ;\">2019-04-12 05:42:04+00</td>\n<td style=\"border: 1px solid black ;\">fvt</td>\n<td style=\"border: 1px solid black ;\">U302</td>\n<td style=\"border: 1px solid black ;\">FAIL</td></tr>\n<tr style=\"background-color: #FFFFDB;\"><td style=\"border: 1px solid black ;\">SSJ19111232</td>\n<td style=\"border: 1px solid black ;\">LFARISASY-91907-110/A0</td>\n<td style=\"border: 1px solid black ;\">634705</td>\n<td style=\"border: 1px solid black ;\">FAIL:             GPI Fault                  0\t6:37:42.439000</td>\n<td style=\"border: 1px solid black ;\">2019-04-12 13:52:38+00</td>\n<td style=\"border: 1px solid black ;\">fvt-interactive</td>\n<td style=\"border: 1px solid black ;\">D12</td>\n<td style=\"border: 1px solid black ;\">PASS</td></tr>\n<tr style=\"background-color: #CFCFA3;\"><td style=\"border: 1px solid black ;\">SSJ19119009</td>\n<td style=\"border: 1px solid black ;\">LFARISASY-91935-104/A0</td>\n<td style=\"border: 1px solid black ;\">636479</td>\n<td style=\"border: 1px solid black ;\">//testPrbs -l None --allow --fabric --link-down-warn -d 300 --continuous --sflow, /switchCardLower/testPcieAuditPath</td>\n<td style=\"border: 1px solid black ;\">2019-04-12 15:21:01+00</td>\n<td style=\"border: 1px solid black ;\">ess</td>\n<td style=\"border: 1px solid black ;\">U 45 (CPU CARD)</td>\n<td style=\"border: 1px solid black ;\">PASS</td></tr>\n<tr style=\"background-color: #FFFFDB;\"><td style=\"border: 1px solid black ;\">SSJ19072140</td>\n<td style=\"border: 1px solid black ;\">LFARISASY-52543-209/A0</td>\n<td style=\"border: 1px solid black ;\">7885</td>\n<td style=\"border: 1px solid black ;\">/linecards/3/init2</td>\n<td style=\"border: 1px solid black ;\">2019-04-12 15:49:44+00</td>\n<td style=\"border: 1px solid black ;\">fvt-configure</td>\n<td style=\"border: 1px solid black ;\">U178</td>\n<td style=\"border: 1px solid black ;\">PASS</td></tr>\n<tr style=\"background-color: #CFCFA3;\"><td style=\"border: 1px solid black ;\">SSJ19093977</td>\n<td style=\"border: 1px solid black ;\">LFARISASY-53929-111/D0</td>\n<td style=\"border: 1px solid black ;\">633993</td>\n<td style=\"border: 1px solid black ;\">/switchcard/scd/testFancardStatus</td>\n<td style=\"border: 1px solid black ;\">2019-04-12 16:34:35+00</td>\n<td style=\"border: 1px solid black ;\">burnin</td>\n<td style=\"border: 1px solid black ;\">PCA-01135</td>\n<td style=\"border: 1px solid black ;\">FAIL</td></tr>\n<tr style=\"background-color: #FFFFDB;\"><td style=\"border: 1px solid black ;\">SSJ19121047</td>\n<td style=\"border: 1px solid black ;\">LFARISASY-52756-120/A0</td>\n<td style=\"border: 1px solid black ;\">7885</td>\n<td style=\"border: 1px solid black ;\">FAIL: /linecards/10/portLeds/testCountOffLeds</td>\n<td style=\"border: 1px solid black ;\">2019-04-12 17:18:37+00</td>\n<td style=\"border: 1px solid black ;\">fvt-interactive</td>\n<td style=\"border: 1px solid black ;\">LIGHTPIPE</td>\n<td style=\"border: 1px solid black ;\">PASS</td></tr>\n<tr style=\"background-color: #CFCFA3;\"><td style=\"border: 1px solid black ;\">SSJ19101280</td>\n<td style=\"border: 1px solid black ;\">LFARISASY-51446-111/A0</td>\n<td style=\"border: 1px solid black ;\">633872</td>\n<td style=\"border: 1px solid black ;\">/fabriccards/1/showFanSpeeds, /fabriccards/1/fanTest</td>\n<td style=\"border: 1px solid black ;\">2019-04-12 17:24:15+00</td>\n<td style=\"border: 1px solid black ;\">fvt</td>\n<td style=\"border: 1px solid black ;\">FAN</td>\n<td style=\"border: 1px solid black ;\">FAIL</td></tr>\n<tr style=\"background-color: #FFFFDB;\"><td style=\"border: 1px solid black ;\">SSJ18512801</td>\n<td style=\"border: 1px solid black ;\">LFARISASY-51810-120/A0</td>\n<td style=\"border: 1px solid black ;\">635157</td>\n<td style=\"border: 1px solid black ;\">/fabriccards/2/testLinkReady --cores [u'None'] --linecards [u'None'], /fabriccards/2/testLinkTraining --eyeScan True</td>\n<td style=\"border: 1px solid black ;\">2019-04-12 17:45:07+00</td>\n<td style=\"border: 1px solid black ;\">fvt</td>\n<td style=\"border: 1px solid black ;\">EMI SKIRT</td>\n<td style=\"border: 1px solid black ;\">FAIL</td></tr>\n<tr style=\"background-color: #CFCFA3;\"><td style=\"border: 1px solid black ;\">SSJ19101175</td>\n<td style=\"border: 1px solid black ;\">LFARISASY-51446-111/A0</td>\n<td style=\"border: 1px solid black ;\">633872</td>\n<td style=\"border: 1px solid black ;\">/fabriccards/2/showFanSpeeds, /fabriccards/2/fanTest</td>\n<td style=\"border: 1px solid black ;\">2019-04-12 17:46:55+00</td>\n<td style=\"border: 1px solid black ;\">fvt</td>\n<td style=\"border: 1px solid black ;\">FAN</td>\n<td style=\"border: 1px solid black ;\">PASS</td></tr>\n<tr style=\"background-color: #FFFFDB;\"><td style=\"border: 1px solid black ;\">SSJ19041774</td>\n<td style=\"border: 1px solid black ;\">LFARISASY-51446-111/A0</td>\n<td style=\"border: 1px solid black ;\">633872</td>\n<td style=\"border: 1px solid black ;\">/fabriccards/2/testPrbs --duration 300 --continuous False</td>\n<td style=\"border: 1px solid black ;\">2019-04-12 17:55:58+00</td>\n<td style=\"border: 1px solid black ;\">fvt</td>\n<td style=\"border: 1px solid black ;\">J4</td>\n<td style=\"border: 1px solid black ;\">FAIL</td></tr>\n<tr style=\"background-color: #CFCFA3;\"><td style=\"border: 1px solid black ;\">SSJ19113006</td>\n<td style=\"border: 1px solid black ;\">LFARISASY-51446-111/A0</td>\n<td style=\"border: 1px solid black ;\">633872</td>\n<td style=\"border: 1px solid black ;\">FAIL: /fabriccards/6/rearLeds/testCountOffLeds</td>\n<td style=\"border: 1px solid black ;\">2019-04-12 18:09:19+00</td>\n<td style=\"border: 1px solid black ;\">fvt-interactive</td>\n<td style=\"border: 1px solid black ;\">LED PIPE,LED PIPE</td>\n<td style=\"border: 1px solid black ;\">PASS</td></tr>\n<tr style=\"background-color: #FFFFDB;\"><td style=\"border: 1px solid black ;\">SSJ19032119</td>\n<td style=\"border: 1px solid black ;\">LFARISASY-52787-104/A0</td>\n<td style=\"border: 1px solid black ;\">632861</td>\n<td style=\"border: 1px solid black ;\">/linecards/4/testPrbs -l None -d 120 --mode Prbs31 -r 40GBase-4 --continuous, /linecards/4/testPrbs -l None -d 300 --mode Prbs31 --allow --</td>\n<td style=\"border: 1px solid black ;\">2019-04-12 18:33:16+00</td>\n<td style=\"border: 1px solid black ;\">ess</td>\n<td style=\"border: 1px solid black ;\">J2,J3</td>\n<td style=\"border: 1px solid black ;\">FAIL</td></tr>\n<tr style=\"background-color: #CFCFA3;\"><td style=\"border: 1px solid black ;\">SSJ19111270</td>\n<td style=\"border: 1px solid black ;\">LFARISASY-91907-110/A0</td>\n<td style=\"border: 1px solid black ;\">634705</td>\n<td style=\"border: 1px solid black ;\">##! COMMAND FAIL: /cpuCard/programDpm</td>\n<td style=\"border: 1px solid black ;\">2019-04-12 18:36:15+00</td>\n<td style=\"border: 1px solid black ;\">fvt-configure</td>\n<td style=\"border: 1px solid black ;\">R1922</td>\n<td style=\"border: 1px solid black ;\">FAIL</td></tr>\n<tr style=\"background-color: #FFFFDB;\"><td style=\"border: 1px solid black ;\">SSJ19093989</td>\n<td style=\"border: 1px solid black ;\">LFARISASY-53929-111/D0</td>\n<td style=\"border: 1px solid black ;\">633993</td>\n<td style=\"border: 1px solid black ;\">//testPrbs -l Phy --speed 100G -d 120</td>\n<td style=\"border: 1px solid black ;\">2019-04-12 19:12:29+00</td>\n<td style=\"border: 1px solid black ;\">burnin</td>\n<td style=\"border: 1px solid black ;\">J7</td>\n<td style=\"border: 1px solid black ;\">FAIL</td></tr>\n<tr style=\"background-color: #CFCFA3;\"><td style=\"border: 1px solid black ;\">SSJ19093898</td>\n<td style=\"border: 1px solid black ;\">LFARISASY-50827-107/A1</td>\n<td style=\"border: 1px solid black ;\">636479</td>\n<td style=\"border: 1px solid black ;\">FAIL: /linecards/5/generalLedTest</td>\n<td style=\"border: 1px solid black ;\">2019-04-12 19:53:22+00</td>\n<td style=\"border: 1px solid black ;\">fvt-interactive</td>\n<td style=\"border: 1px solid black ;\">LIGHT PIPE</td>\n<td style=\"border: 1px solid black ;\">PASS</td></tr>\n<tr style=\"background-color: #FFFFDB;\"><td style=\"border: 1px solid black ;\">SSJ19060547</td>\n<td style=\"border: 1px solid black ;\">LFARISASY-72002-106/A0</td>\n<td style=\"border: 1px solid black ;\">627542</td>\n<td style=\"border: 1px solid black ;\">==================== Exception raised in 'python /usr/bin/mfg --useDb --station fvt --dutType fixed --arss 10.90.216.38 --logDir /log/DCS-7170-32C-M/1906/SSJ19060547/fvt/run-2 --logName /log/DCS-7170-32C-M/1906/SSJ19060547/fvt/run-2.log --testbed dut3 --asy ASY0335806A0 --pca PCA0111603A0 --sn SSJ19060547 --sku DCS-7170-32C-M --mac 74:83:ef:c9:d0:e8 --swiName /images/EOS-mineral.swi --deviation  --runId 2507011 ' (PID 14354) ====================</td>\n<td style=\"border: 1px solid black ;\">2019-04-12 21:56:32+00</td>\n<td style=\"border: 1px solid black ;\">fvt</td>\n<td style=\"border: 1px solid black ;\">RESOLDER J2</td>\n<td style=\"border: 1px solid black ;\">FAIL</td></tr>\n<tr style=\"background-color: #CFCFA3;\"><td style=\"border: 1px solid black ;\">SSJ19032132</td>\n<td style=\"border: 1px solid black ;\">LFARISASY-52787-104/A0</td>\n<td style=\"border: 1px solid black ;\">7885</td>\n<td style=\"border: 1px solid black ;\">/linecards/5/testTraffic -l None -r 40GBase-4 -d 300 -s 9208 --cells</td>\n<td style=\"border: 1px solid black ;\">2019-04-12 21:59:11+00</td>\n<td style=\"border: 1px solid black ;\">fvt</td>\n<td style=\"border: 1px solid black ;\">LB19</td>\n<td style=\"border: 1px solid black ;\">PASS</td></tr>\n<tr style=\"background-color: #FFFFDB;\"><td style=\"border: 1px solid black ;\">SSJ18504455</td>\n<td style=\"border: 1px solid black ;\">LFARISASY-52062-108/B0</td>\n<td style=\"border: 1px solid black ;\">637183</td>\n<td style=\"border: 1px solid black ;\">/fabriccards/3/testPrbs --duration 300 --mode FecAuto --continuous False</td>\n<td style=\"border: 1px solid black ;\">2019-04-12 22:31:43+00</td>\n<td style=\"border: 1px solid black ;\">fvt</td>\n<td style=\"border: 1px solid black ;\">U21</td>\n<td style=\"border: 1px solid black ;\">FAIL</td></tr>\n<tr style=\"background-color: #CFCFA3;\"><td style=\"border: 1px solid black ;\">SSJ19060587</td>\n<td style=\"border: 1px solid black ;\">LFARISASY-71991-105/A1</td>\n<td style=\"border: 1px solid black ;\">627542</td>\n<td style=\"border: 1px solid black ;\">==================== Exception raised in 'python /usr/bin/mfg --useDb --station fvt --dutType fixed --arss 10.90.216.31 --logDir /log/DCS-7170-32C/1906/SSJ19060587/fvt/run-2 --logName /log/DCS-7170-32C/1906/SSJ19060587/fvt/run-2.log --testbed dut11 --asy ASY0317505A1 --pca PCA0111603A0 --sn SSJ19060587 --sku DCS-7170-32C --mac 74:83:ef:c9:ab:30 --swiName /images/EOS-mineral.swi --deviation  --runId 2465412 ' (PID 25835) ====================</td>\n<td style=\"border: 1px solid black ;\">2019-04-13 00:09:38+00</td>\n<td style=\"border: 1px solid black ;\">fvt</td>\n<td style=\"border: 1px solid black ;\">RESRESOLDER J3</td>\n<td style=\"border: 1px solid black ;\">PASS</td></tr>\n<tr style=\"background-color: #FFFFDB;\"><td style=\"border: 1px solid black ;\">SSJ19080219</td>\n<td style=\"border: 1px solid black ;\">LFARISASY-50048-106/C0</td>\n<td style=\"border: 1px solid black ;\">628696</td>\n<td style=\"border: 1px solid black ;\">/linecards/7/testPrbs -l None -d 30</td>\n<td style=\"border: 1px solid black ;\">2019-04-13 03:16:11+00</td>\n<td style=\"border: 1px solid black ;\">fvt</td>\n<td style=\"border: 1px solid black ;\">PRESS AND CLEAN J1</td>\n<td style=\"border: 1px solid black ;\">PASS</td></tr>\n</table>\n", 
    "prod_nums": [
        56, 
        42, 
        33, 
        30, 
        21, 
        18, 
        15, 
        14, 
        14, 
        14, 
        13, 
        11, 
        10, 
        5
    ], 
    "topFails": {
        "counts": [
            4, 
            4, 
            3, 
            3, 
            2
        ], 
        "labels": [
            "/linecards//testPrbs -l None -d  --mode Prbs --allow --fabric --continuous, /linecards//testTraffic -l None -d  -s  --allow,", 
            "/linecards//testTraffic -l None -d  -s  --allow, /linecards//testTraffic -l None -d  -s  --allow --cells --no-ocb, /linecards/", 
            "/linecards//initSupAndSwitchcard", 
            "/switchCard/alta/testTraffic --fpp-cr=- -s  --loopback external -n  -d  --dma", 
            "FAIL:             GPI Fault                  \t::."
        ], 
        "xlabels": [
            {
                "text": "/linecards//testPrbs -l N"
            }, 
            {
                "text": "/linecards//testTraffic -"
            }, 
            {
                "text": "/linecards//initSupAndSwi"
            }, 
            {
                "text": "/switchCard/alta/testTraf"
            }, 
            {
                "text": "FAIL:             GPI Fau"
            }
        ]
    }, 
    "Accs": [
        47.62, 
        81.82, 
        47.06, 
        53.85, 
        75.0, 
        55.56, 
        50.0, 
        80.0, 
        27.27, 
        100.0, 
        50.0, 
        100.0, 
        0.0
    ]
}